
[Client] packet : (0x16) F_REQUEST_INIT_OBJECT  Size = 16 
|------------------------------------------------|----------------|
|00 01 02 03 04 05 06 07 08 09 0A 0B 0C 0D 0E 0F |0123456789ABCDEF|
|------------------------------------------------|----------------|
|00 04 03 92 00 2B 00 00 00 16 01 0C 00 00 1A 9B |.....+..........|                                                
-------------------------------------------------------------------
[Server] packet : (0x72) F_CREATE_MONSTER  Size = 126 
|------------------------------------------------|----------------|
|00 01 02 03 04 05 06 07 08 09 0A 0B 0C 0D 0E 0F |0123456789ABCDEF|
|------------------------------------------------|----------------|
|00 7B 72 01 0C 00 00 00 4F 42 A6 00 06 9F 5D 00 |.{r.....OB....].|
|02 1D 14 00 00 06 06 32 18 80 00 00 00 00 72 00 |.......2......r.|
|00 01 00 03 E8 00 00 00 00 B7 F3 00 08 00 00 01 |................|
|19 00 41 6E 63 69 65 6E 74 20 57 61 6C 6B 65 72 |..Ancient Walker|
|5E 6D 00 00 00 00 08 01 0A 00 00 00 12 1D 00 01 |^m..............|
|0C 5F 5D 9D 14 42 A6 64 00 A1 00 00 00 00 08 4F |._]..B.d.......O|
|00 01 0C 00 06 00 14 11 5A 00 15 11 5C 00 16 11 |........Z...\...|
|5B 00 17 11 5E 00 18 11 5D 00 1C 11 59 00       |..............  |
-------------------------------------------------------------------
[Client] packet : (0x0B) F_PING  Size = 32 
|------------------------------------------------|----------------|
|00 01 02 03 04 05 06 07 08 09 0A 0B 0C 0D 0E 0F |0123456789ABCDEF|
|------------------------------------------------|----------------|
|00 14 03 97 00 2B 00 00 00 0B 00 03 35 F1 CD 88 |.....+......5...|
|14 16 63 85 B2 52 00 00 00 00 00 00 00 00 20 83 |..c..R........ .|                                                
-------------------------------------------------------------------
[Client] packet : (0xD2) F_INTERACT  Size = 24 
|------------------------------------------------|----------------|
|00 01 02 03 04 05 06 07 08 09 0A 0B 0C 0D 0E 0F |0123456789ABCDEF|
|------------------------------------------------|----------------|
|00 0C 03 99 00 2B 00 00 00 D2 00 00 00 1B 00 00 |.....+..........|
|00 00 00 00 00 00 00 00                         |........        |
-------------------------------------------------------------------
[Client] packet : (0xE8) F_CLIENT_DATA  Size = 20 
|------------------------------------------------|----------------|
|00 01 02 03 04 05 06 07 08 09 0A 0B 0C 0D 0E 0F |0123456789ABCDEF|
|------------------------------------------------|----------------|
|00 08 03 9B 00 2B 00 00 00 E8 00 18 00 04 6E 21 |.....+........n!|
|01 00 00 00                                     |....            |
-------------------------------------------------------------------
[Client] packet : (0xE8) F_CLIENT_DATA  Size = 20 
|------------------------------------------------|----------------|
|00 01 02 03 04 05 06 07 08 09 0A 0B 0C 0D 0E 0F |0123456789ABCDEF|
|------------------------------------------------|----------------|
|00 08 03 9C 00 2B 00 00 00 E8 00 A4 00 04 4E 38 |.....+........N8|
|01 00 95 C1                                     |....            |
-------------------------------------------------------------------
[Client] packet : (0xE8) F_CLIENT_DATA  Size = 20 
|------------------------------------------------|----------------|
|00 01 02 03 04 05 06 07 08 09 0A 0B 0C 0D 0E 0F |0123456789ABCDEF|
|------------------------------------------------|----------------|
|00 08 03 9D 00 2B 00 00 00 E8 00 24 00 04 74 21 |.....+.....$..t!|
|01 00 0D 9C                                     |....            |
-------------------------------------------------------------------
[Server] packet : (0x81) S_PONG  Size = 23 
|------------------------------------------------|----------------|
|00 01 02 03 04 05 06 07 08 09 0A 0B 0C 0D 0E 0F |0123456789ABCDEF|
|------------------------------------------------|----------------|
|00 14 81 00 03 35 F1 52 75 8A 3A 00 00 00 00 00 |.....5.Ru.:.....|
|00 03 98 00 00 00 00                            |.......         |
-------------------------------------------------------------------
[Server] packet : (0x7E) F_SET_ABILITY_TIMER  Size = 15 
|------------------------------------------------|----------------|
|00 01 02 03 04 05 06 07 08 09 0A 0B 0C 0D 0E 0F |0123456789ABCDEF|
|------------------------------------------------|----------------|
|00 0C 7E 00 01 01 00 00 00 00 00 00 00 00 00    |............... |
-------------------------------------------------------------------
[Server] packet : (0xE9) F_INTERACT_RESPONSE  Size = 11 
|------------------------------------------------|----------------|
|00 01 02 03 04 05 06 07 08 09 0A 0B 0C 0D 0E 0F |0123456789ABCDEF|
|------------------------------------------------|----------------|
|00 08 E9 00 00 1B 00 00 00 02 00                |...........     |
-------------------------------------------------------------------
[Client] packet : (0xD2) F_INTERACT  Size = 24 
|------------------------------------------------|----------------|
|00 01 02 03 04 05 06 07 08 09 0A 0B 0C 0D 0E 0F |0123456789ABCDEF|
|------------------------------------------------|----------------|
|00 0C 03 9E 00 2B 00 00 00 D2 00 00 00 1B 00 09 |.....+..........|
|00 00 00 00 00 00 FB 6D                         |........        |
-------------------------------------------------------------------
[Server] packet : (0xBF) F_INIT_STORE  Size = 388 
|------------------------------------------------|----------------|
|00 01 02 03 04 05 06 07 08 09 0A 0B 0C 0D 0E 0F |0123456789ABCDEF|
|------------------------------------------------|----------------|
|01 81 BF 00 00 00 03 01 01 04 00 00 03 00 00 00 |................|
|00 00 00 03 22 B1 1A 18 00 00 00 00 00 00 00 00 |...."...........|
|0F 18 00 00 00 00 01 01 00 56 00 00 00 00 08 00 |.........V......|
|00 00 00 00 00 00 00 00 00 00 00 00 00 01 00 01 |................|
|00 00 00 00 00 00 00 00 00 00 00 00 17 54 75 72 |.............Tur|
|71 75 6F 69 73 65 20 54 6F 6D 65 2C 20 4F 6E 65 |quoise Tome, One|
|20 67 65 6D 00 00 00 00 00 00 00 01 01 00 00 03 | gem............|
|06 00 00 00 00 00 00 00 00 00 00 00 00 00 00 00 |................|
|00 00 00 00 00 00 00 01 02 00 00 00 00 00 00 03 |................|
|22 B2 1A 19 00 00 00 00 00 00 00 00 0F 18 00 00 |"...............|
|00 00 01 01 00 7F 00 00 00 00 08 00 00 00 00 00 |................|
|00 00 00 00 00 00 00 00 00 01 00 01 00 00 00 00 |................|
|00 00 00 00 00 00 00 00 18 54 75 72 71 75 6F 69 |.........Turquoi|
|73 65 20 54 6F 6D 65 2C 20 54 77 6F 20 67 65 6D |se Tome, Two gem|
|73 00 00 00 00 00 00 00 01 01 00 00 03 06 00 00 |s...............|
|00 00 00 00 00 00 00 00 00 00 00 00 00 00 00 00 |................|
|00 00 00 00 02 02 00 00 00 00 00 00 03 22 B3 1A |............."..|
|1A 00 00 00 00 00 00 00 00 0F 18 00 00 00 00 01 |................|
|01 00 7F 00 00 00 00 08 00 00 00 00 00 00 00 00 |................|
|00 00 00 00 00 00 01 00 01 00 00 00 00 00 00 00 |................|
|00 00 00 00 00 1A 54 75 72 71 75 6F 69 73 65 20 |......Turquoise |
|54 6F 6D 65 2C 20 54 68 72 65 65 20 67 65 6D 73 |Tome, Three gems|
|00 00 00 00 00 00 00 01 01 00 00 03 06 00 00 00 |................|
|00 00 00 00 00 00 00 00 00 00 00 00 00 00 00 00 |................|
|00 00 00 00                                     |....            |
-------------------------------------------------------------------
[Server] packet : (0xBF) F_INIT_STORE  Size = 1764 
|------------------------------------------------|----------------|
|00 01 02 03 04 05 06 07 08 09 0A 0B 0C 0D 0E 0F |0123456789ABCDEF|
|------------------------------------------------|----------------|
|06 E1 BF 00 00 01 0E 00 01 04 00 03 00 00 00 00 |................|
|00 00 03 22 99 1A 00 00 00 00 00 00 00 00 00 0F |..."............|
|18 00 00 00 00 01 01 00 00 00 00 00 00 08 00 00 |................|
|00 00 00 00 00 00 00 00 00 00 00 00 01 00 01 00 |................|
|00 00 00 00 00 00 00 00 00 00 00 0D 54 68 65 20 |............The |
|54 61 6E 20 50 6F 75 63 68 00 00 00 00 00 00 00 |Tan Pouch.......|
|01 01 00 00 03 06 00 00 00 00 00 00 00 00 00 00 |................|
|00 00 00 00 00 00 00 00 00 00 00 00 01 03 00 00 |................|
|00 00 00 00 03 22 98 19 FF 00 00 00 00 00 00 00 |....."..........|
|00 0F 18 00 00 00 00 01 01 00 00 00 00 00 00 08 |................|
|00 00 00 00 00 00 00 00 00 00 00 00 00 00 01 00 |................|
|01 00 00 00 00 00 00 00 00 00 00 00 00 10 54 68 |..............Th|
|65 20 50 75 72 70 6C 65 20 50 6F 75 63 68 00 00 |e Purple Pouch..|
|00 00 00 00 00 01 01 00 00 03 06 00 00 00 00 00 |................|
|00 00 00 00 00 00 00 00 00 00 00 00 00 00 00 00 |................|
|00 02 02 00 00 00 00 00 00 03 22 97 19 FE 00 00 |..........".....|
|00 00 00 00 00 00 0F 18 00 00 00 00 01 01 00 00 |................|
|00 00 00 00 08 00 00 00 00 00 00 00 00 00 00 00 |................|
|00 00 00 01 00 01 00 00 00 00 00 00 00 00 00 00 |................|
|00 00 14 54 68 65 20 4C 69 67 68 74 20 42 6C 75 |...The Light Blu|
|65 20 50 6F 75 63 68 00 00 00 00 00 00 00 01 01 |e Pouch.........|
|00 00 03 06 00 00 00 00 00 00 00 00 00 00 00 00 |................|
|00 00 00 00 00 00 00 00 00 00 03 02 00 00 00 00 |................|
|00 00 03 22 96 19 FD 00 00 00 00 00 00 00 00 0F |..."............|
|18 00 00 00 00 01 01 00 00 00 00 00 00 08 00 00 |................|
|00 00 00 00 00 00 00 00 00 00 00 00 01 00 01 00 |................|
|00 00 00 00 00 00 00 00 00 00 00 0E 54 68 65 20 |............The |
|42 6C 75 65 20 50 6F 75 63 68 00 00 00 00 00 00 |Blue Pouch......|
|00 01 01 00 00 03 06 00 00 00 00 00 00 00 00 00 |................|
|00 00 00 00 00 00 00 00 00 00 00 00 00 04 02 00 |................|
|00 00 00 00 00 03 22 95 19 FC 00 00 00 00 00 00 |......".........|
|00 00 0F 18 00 00 00 00 01 01 00 00 00 00 00 00 |................|
|08 00 00 00 00 00 00 00 00 00 00 00 00 00 00 01 |................|
|00 01 00 00 00 00 00 00 00 00 00 00 00 00 0F 54 |...............T|
|68 65 20 47 72 65 65 6E 20 50 6F 75 63 68 00 00 |he Green Pouch..|
|00 00 00 00 00 01 01 00 00 03 06 00 00 00 00 00 |................|
|00 00 00 00 00 00 00 00 00 00 00 00 00 00 00 00 |................|
|00 06 02 00 00 00 00 00 00 03 22 BA 1A 21 00 00 |.........."..!..|
|00 00 00 00 00 00 0F 18 00 00 00 00 01 01 00 56 |...............V|
|00 00 00 00 08 00 00 00 00 00 00 00 00 00 00 00 |................|
|00 00 00 01 00 01 00 00 00 00 00 00 00 00 00 00 |................|
|00 00 1B 49 72 6F 6E 20 51 75 65 73 74 20 4A 6F |...Iron Quest Jo|
|75 72 6E 61 6C 2C 20 4F 6E 65 20 47 65 6D 00 00 |urnal, One Gem..|
|00 00 00 00 00 01 01 00 00 03 06 00 00 00 00 00 |................|
|00 00 00 00 00 00 00 00 00 00 00 00 00 00 00 00 |................|
|00 07 02 00 00 00 00 00 00 03 22 BB 1A 22 00 00 |..........".."..|
|00 00 00 00 00 00 0F 18 00 00 00 00 01 01 00 56 |...............V|
|00 00 00 00 08 00 00 00 00 00 00 00 00 00 00 00 |................|
|00 00 00 01 00 01 00 00 00 00 00 00 00 00 00 00 |................|
|00 00 1C 49 72 6F 6E 20 51 75 65 73 74 20 4A 6F |...Iron Quest Jo|
|75 72 6E 61 6C 2C 20 54 77 6F 20 47 65 6D 73 00 |urnal, Two Gems.|
|00 00 00 00 00 00 01 01 00 00 03 06 00 00 00 00 |................|
|00 00 00 00 00 00 00 00 00 00 00 00 00 00 00 00 |................|
|00 00 08 02 00 00 00 00 00 00 03 22 BC 1A 23 00 |..........."..#.|
|00 00 00 00 00 00 00 0F 18 00 00 00 00 01 01 00 |................|
|56 00 00 00 00 08 00 00 00 00 00 00 00 00 00 00 |V...............|
|00 00 00 00 01 00 01 00 00 00 00 00 00 00 00 00 |................|
|00 00 00 1E 49 72 6F 6E 20 51 75 65 73 74 20 4A |....Iron Quest J|
|6F 75 72 6E 61 6C 2C 20 54 68 72 65 65 20 47 65 |ournal, Three Ge|
|6D 73 00 00 00 00 00 00 00 01 01 00 00 03 06 00 |ms..............|
|00 00 00 00 00 00 00 00 00 00 00 00 00 00 00 00 |................|
|00 00 00 00 00 09 03 00 00 00 00 00 00 03 22 BD |..............".|
|1A 24 00 00 00 00 00 00 00 00 0F 18 00 00 00 00 |.$..............|
|01 01 00 56 00 00 00 00 08 00 00 00 00 00 00 00 |...V............|
|00 00 00 00 00 00 00 01 00 01 00 00 00 00 00 00 |................|
|00 00 00 00 00 00 1D 53 69 6C 76 65 72 20 51 75 |.......Silver Qu|
|65 73 74 20 4A 6F 75 72 6E 61 6C 2C 20 4F 6E 65 |est Journal, One|
|20 47 65 6D 00 00 00 00 00 00 00 01 01 00 00 03 | Gem............|
|06 00 00 00 00 00 00 00 00 00 00 00 00 00 00 00 |................|
|00 00 00 00 00 00 00 0A 02 00 00 00 00 00 00 03 |................|
|22 BE 1A 25 00 00 00 00 00 00 00 00 0F 18 00 00 |"..%............|
|00 00 01 01 00 56 00 00 00 00 08 00 00 00 00 00 |.....V..........|
|00 00 00 00 00 00 00 00 00 01 00 01 00 00 00 00 |................|
|00 00 00 00 00 00 00 00 1E 53 69 6C 76 65 72 20 |.........Silver |
|51 75 65 73 74 20 4A 6F 75 72 6E 61 6C 2C 20 54 |Quest Journal, T|
|77 6F 20 47 65 6D 73 00 00 00 00 00 00 00 01 01 |wo Gems.........|
|00 00 03 06 00 00 00 00 00 00 00 00 00 00 00 00 |................|
|00 00 00 00 00 00 00 00 00 00 0B 02 00 00 00 00 |................|
|00 00 03 22 BF 1A 26 00 00 00 00 00 00 00 00 0F |..."..&.........|
|18 00 00 00 00 01 01 00 56 00 00 00 00 08 00 00 |........V.......|
|00 00 00 00 00 00 00 00 00 00 00 00 01 00 01 00 |................|
|00 00 00 00 00 00 00 00 00 00 00 20 53 69 6C 76 |........... Silv|
|65 72 20 51 75 65 73 74 20 4A 6F 75 72 6E 61 6C |er Quest Journal|
|2C 20 54 68 72 65 65 20 47 65 6D 73 00 00 00 00 |, Three Gems....|
|00 00 00 01 01 00 00 03 06 00 00 00 00 00 00 00 |................|
|00 00 00 00 00 00 00 00 00 00 00 00 00 00 00 0C |................|
|02 00 00 00 00 00 00 03 22 C0 1A 27 00 00 00 00 |........"..'....|
|00 00 00 00 0F 18 00 00 00 00 01 01 00 56 00 00 |.............V..|
|00 00 08 00 00 00 00 00 00 00 00 00 00 00 00 00 |................|
|00 01 00 01 00 00 00 00 00 00 00 00 00 00 00 00 |................|
|1B 47 6F 6C 64 20 51 75 65 73 74 20 4A 6F 75 72 |.Gold Quest Jour|
|6E 61 6C 2C 20 4F 6E 65 20 47 65 6D 00 00 00 00 |nal, One Gem....|
|00 00 00 01 01 00 00 03 06 00 00 00 00 00 00 00 |................|
|00 00 00 00 00 00 00 00 00 00 00 00 00 00 00 0D |................|
|02 00 00 00 00 00 00 03 22 C1 1A 28 00 00 00 00 |........"..(....|
|00 00 00 00 0F 18 00 00 00 00 01 01 00 56 00 00 |.............V..|
|00 00 08 00 00 00 00 00 00 00 00 00 00 00 00 00 |................|
|00 01 00 01 00 00 00 00 00 00 00 00 00 00 00 00 |................|
|1C 47 6F 6C 64 20 51 75 65 73 74 20 4A 6F 75 72 |.Gold Quest Jour|
|6E 61 6C 2C 20 54 77 6F 20 47 65 6D 73 00 00 00 |nal, Two Gems...|
|00 00 00 00 01 01 00 00 03 06 00 00 00 00 00 00 |................|
|00 00 00 00 00 00 00 00 00 00 00 00 00 00 00 00 |................|
|0E 02 00 00 00 00 00 00 03 22 C2 1A 29 00 00 00 |........."..)...|
|00 00 00 00 00 0F 18 00 00 00 00 01 01 00 56 00 |..............V.|
|00 00 00 08 00 00 00 00 00 00 00 00 00 00 00 00 |................|
|00 00 01 00 01 00 00 00 00 00 00 00 00 00 00 00 |................|
|00 1E 47 6F 6C 64 20 51 75 65 73 74 20 4A 6F 75 |..Gold Quest Jou|
|72 6E 61 6C 2C 20 54 68 72 65 65 20 47 65 6D 73 |rnal, Three Gems|
|00 00 00 00 00 00 00 01 01 00 00 03 06 00 00 00 |................|
|00 00 00 00 00 00 00 00 00 00 00 00 00 00 00 00 |................|
|00 00 00 00                                     |....            |
-------------------------------------------------------------------
[Server] packet : (0xBF) F_INIT_STORE  Size = 1198 
|------------------------------------------------|----------------|
|00 01 02 03 04 05 06 07 08 09 0A 0B 0C 0D 0E 0F |0123456789ABCDEF|
|------------------------------------------------|----------------|
|04 AB BF 00 00 02 09 00 01 04 00 02 00 00 00 00 |................|
|00 00 03 22 5D 19 C4 00 00 00 00 00 00 00 00 0F |..."]...........|
|18 00 00 00 00 01 01 00 00 00 00 00 00 08 00 00 |................|
|00 00 00 00 00 00 00 00 00 00 00 00 01 00 01 00 |................|
|00 00 00 00 00 00 00 00 00 00 00 24 49 72 6F 6E |...........$Iron|
|20 41 70 6F 74 68 65 63 61 72 79 20 42 6F 74 74 | Apothecary Bott|
|6C 65 2C 20 47 72 65 65 6E 20 4C 69 71 75 69 64 |le, Green Liquid|
|00 00 00 00 00 00 00 01 01 00 00 03 06 00 00 00 |................|
|00 00 00 00 00 00 00 00 00 00 00 00 00 00 00 00 |................|
|00 00 00 01 02 00 00 00 00 00 00 03 22 5E 19 C5 |............"^..|
|00 00 00 00 00 00 00 00 0F 18 00 00 00 00 01 01 |................|
|00 00 00 00 00 00 08 00 00 00 00 00 00 00 00 00 |................|
|00 00 00 00 00 01 00 01 00 00 00 00 00 00 00 00 |................|
|00 00 00 00 23 49 72 6F 6E 20 41 70 6F 74 68 65 |....#Iron Apothe|
|63 61 72 79 20 42 6F 74 74 6C 65 2C 20 42 6C 75 |cary Bottle, Blu|
|65 20 4C 69 71 75 69 64 00 00 00 00 00 00 00 01 |e Liquid........|
|01 00 00 03 06 00 00 00 00 00 00 00 00 00 00 00 |................|
|00 00 00 00 00 00 00 00 00 00 00 02 02 00 00 00 |................|
|00 00 00 03 22 5F 19 C6 00 00 00 00 00 00 00 00 |...."_..........|
|0F 18 00 00 00 00 01 01 00 00 00 00 00 00 08 00 |................|
|00 00 00 00 00 00 00 00 00 00 00 00 00 01 00 01 |................|
|00 00 00 00 00 00 00 00 00 00 00 00 22 49 72 6F |............"Iro|
|6E 20 41 70 6F 74 68 65 63 61 72 79 20 42 6F 74 |n Apothecary Bot|
|74 6C 65 2C 20 52 65 64 20 4C 69 71 75 69 64 00 |tle, Red Liquid.|
|00 00 00 00 00 00 01 01 00 00 03 06 00 00 00 00 |................|
|00 00 00 00 00 00 00 00 00 00 00 00 00 00 00 00 |................|
|00 00 04 02 00 00 00 00 00 00 03 22 66 19 CD 00 |..........."f...|
|00 00 00 00 00 00 00 0F 18 00 00 00 00 01 01 00 |................|
|00 00 00 00 00 08 00 00 00 00 00 00 00 00 00 00 |................|
|00 00 00 00 01 00 01 00 00 00 00 00 00 00 00 00 |................|
|00 00 00 1B 42 75 74 63 68 65 72 69 6E 67 20 42 |....Butchering B|
|6C 61 64 65 2C 20 4F 6E 65 20 52 69 76 65 74 00 |lade, One Rivet.|
|00 00 00 00 00 00 01 01 00 00 03 06 00 00 00 00 |................|
|00 00 00 00 00 00 00 00 00 00 00 00 00 00 00 00 |................|
|00 00 05 02 00 00 00 00 00 00 03 22 67 19 CE 00 |..........."g...|
|00 00 00 00 00 00 00 0F 18 00 00 00 00 01 01 00 |................|
|00 00 00 00 00 08 00 00 00 00 00 00 00 00 00 00 |................|
|00 00 00 00 01 00 01 00 00 00 00 00 00 00 00 00 |................|
|00 00 00 1C 42 75 74 63 68 65 72 69 6E 67 20 42 |....Butchering B|
|6C 61 64 65 2C 20 54 77 6F 20 52 69 76 65 74 73 |lade, Two Rivets|
|00 00 00 00 00 00 00 01 01 00 00 03 06 00 00 00 |................|
|00 00 00 00 00 00 00 00 00 00 00 00 00 00 00 00 |................|
|00 00 00 06 02 00 00 00 00 00 00 03 22 68 19 CF |............"h..|
|00 00 00 00 00 00 00 00 0F 18 00 00 00 00 01 01 |................|
|00 00 00 00 00 00 08 00 00 00 00 00 00 00 00 00 |................|
|00 00 00 00 00 01 00 01 00 00 00 00 00 00 00 00 |................|
|00 00 00 00 1E 42 75 74 63 68 65 72 69 6E 67 20 |.....Butchering |
|42 6C 61 64 65 2C 20 54 68 72 65 65 20 52 69 76 |Blade, Three Riv|
|65 74 73 00 00 00 00 00 00 00 01 01 00 00 03 06 |ets.............|
|00 00 00 00 00 00 00 00 00 00 00 00 00 00 00 00 |................|
|00 00 00 00 00 00 08 02 00 00 00 00 00 00 03 22 |..............."|
|6F 19 D6 00 00 00 00 00 00 00 00 0F 18 00 00 00 |o...............|
|00 01 01 00 00 00 00 00 00 08 00 00 00 00 00 00 |................|
|00 00 00 00 00 00 00 00 01 00 01 00 00 00 00 00 |................|
|00 00 00 00 00 00 00 16 49 72 6F 6E 20 43 75 6C |........Iron Cul|
|74 69 76 61 74 69 6F 6E 20 53 70 61 64 65 00 00 |tivation Spade..|
|00 00 00 00 00 01 01 00 00 03 06 00 00 00 00 00 |................|
|00 00 00 00 00 00 00 00 00 00 00 00 00 00 00 00 |................|
|00 09 02 00 00 00 00 00 00 03 22 70 19 D7 00 00 |.........."p....|
|00 00 00 00 00 00 0F 18 00 00 00 00 01 01 00 00 |................|
|00 00 00 00 08 00 00 00 00 00 00 00 00 00 00 00 |................|
|00 00 00 01 00 01 00 00 00 00 00 00 00 00 00 00 |................|
|00 00 21 49 72 6F 6E 20 43 75 6C 74 69 76 61 74 |..!Iron Cultivat|
|69 6F 6E 20 53 70 61 64 65 2C 20 4F 6E 65 20 52 |ion Spade, One R|
|69 76 65 74 00 00 00 00 00 00 00 01 01 00 00 03 |ivet............|
|06 00 00 00 00 00 00 00 00 00 00 00 00 00 00 00 |................|
|00 00 00 00 00 00 00 0A 02 00 00 00 00 00 00 03 |................|
|22 71 19 D8 00 00 00 00 00 00 00 00 0F 18 00 00 |"q..............|
|00 00 01 01 00 00 00 00 00 00 08 00 00 00 00 00 |................|
|00 00 00 00 00 00 00 00 00 01 00 01 00 00 00 00 |................|
|00 00 00 00 00 00 00 00 21 49 72 6F 6E 20 43 75 |........!Iron Cu|
|6C 74 69 76 61 74 69 6F 6E 20 53 70 61 64 65 2C |ltivation Spade,|
|20 54 77 6F 20 52 69 76 65 74 00 00 00 00 00 00 | Two Rivet......|
|00 01 01 00 00 03 06 00 00 00 00 00 00 00 00 00 |................|
|00 00 00 00 00 00 00 00 00 00 00 00 00 00       |..............  |
-------------------------------------------------------------------
[Server] packet : (0xBF) F_INIT_STORE  Size = 1180 
|------------------------------------------------|----------------|
|00 01 02 03 04 05 06 07 08 09 0A 0B 0C 0D 0E 0F |0123456789ABCDEF|
|------------------------------------------------|----------------|
|04 99 BF 00 00 03 09 00 01 04 00 02 00 00 00 00 |................|
|00 00 03 22 78 19 DF 00 00 00 00 00 00 00 00 0F |..."x...........|
|18 00 00 00 00 01 01 00 00 00 00 00 00 08 00 00 |................|
|00 00 00 00 00 00 00 00 00 00 00 00 01 00 01 00 |................|
|00 00 00 00 00 00 00 00 00 00 00 16 49 72 6F 6E |............Iron|
|20 53 61 6C 76 61 67 69 6E 67 20 43 72 6F 77 62 | Salvaging Crowb|
|61 72 00 00 00 00 00 00 00 01 01 00 00 03 06 00 |ar..............|
|00 00 00 00 00 00 00 00 00 00 00 00 00 00 00 00 |................|
|00 00 00 00 00 01 02 00 00 00 00 00 00 03 22 79 |.............."y|
|19 E0 00 00 00 00 00 00 00 00 0F 18 00 00 00 00 |................|
|01 01 00 00 00 00 00 00 08 00 00 00 00 00 00 00 |................|
|00 00 00 00 00 00 00 01 00 01 00 00 00 00 00 00 |................|
|00 00 00 00 00 00 16 49 72 6F 6E 20 53 61 6C 76 |.......Iron Salv|
|61 67 69 6E 67 20 43 72 6F 77 62 61 72 00 00 00 |aging Crowbar...|
|00 00 00 00 01 01 00 00 03 06 00 00 00 00 00 00 |................|
|00 00 00 00 00 00 00 00 00 00 00 00 00 00 00 00 |................|
|02 02 00 00 00 00 00 00 03 22 7A 19 E1 00 00 00 |........."z.....|
|00 00 00 00 00 0F 18 00 00 00 00 01 01 00 00 00 |................|
|00 00 00 08 00 00 00 00 00 00 00 00 00 00 00 00 |................|
|00 00 01 00 01 00 00 00 00 00 00 00 00 00 00 00 |................|
|00 16 49 72 6F 6E 20 53 61 6C 76 61 67 69 6E 67 |..Iron Salvaging|
|20 43 72 6F 77 62 61 72 00 00 00 00 00 00 00 01 | Crowbar........|
|01 00 00 03 06 00 00 00 00 00 00 00 00 00 00 00 |................|
|00 00 00 00 00 00 00 00 00 00 00 04 03 00 00 00 |................|
|00 00 00 03 22 81 19 E8 00 00 00 00 00 00 00 00 |...."...........|
|0F 18 00 00 00 00 01 01 00 00 00 00 00 00 08 00 |................|
|00 00 00 00 00 00 00 00 00 00 00 00 00 01 00 01 |................|
|00 00 00 00 00 00 00 00 00 00 00 00 1F 42 72 6F |.............Bro|
|77 6E 20 53 63 61 76 65 6E 67 69 6E 67 20 50 6F |wn Scavenging Po|
|75 63 68 2C 20 4F 6E 65 20 47 65 6D 00 00 00 00 |uch, One Gem....|
|00 00 00 01 01 00 00 03 06 00 00 00 00 00 00 00 |................|
|00 00 00 00 00 00 00 00 00 00 00 00 00 00 00 05 |................|
|02 00 00 00 00 00 00 03 22 82 19 E9 00 00 00 00 |........".......|
|00 00 00 00 0F 18 00 00 00 00 01 01 00 00 00 00 |................|
|00 00 08 00 00 00 00 00 00 00 00 00 00 00 00 00 |................|
|00 01 00 01 00 00 00 00 00 00 00 00 00 00 00 00 |................|
|20 42 72 6F 77 6E 20 53 63 61 76 65 6E 67 69 6E | Brown Scavengin|
|67 20 50 6F 75 63 68 2C 20 54 77 6F 20 47 65 6D |g Pouch, Two Gem|
|73 00 00 00 00 00 00 00 01 01 00 00 03 06 00 00 |s...............|
|00 00 00 00 00 00 00 00 00 00 00 00 00 00 00 00 |................|
|00 00 00 00 06 02 00 00 00 00 00 00 03 22 83 19 |............."..|
|EA 00 00 00 00 00 00 00 00 0F 18 00 00 00 00 01 |................|
|01 00 00 00 00 00 00 08 00 00 00 00 00 00 00 00 |................|
|00 00 00 00 00 00 01 00 01 00 00 00 00 00 00 00 |................|
|00 00 00 00 00 22 42 72 6F 77 6E 20 53 63 61 76 |....."Brown Scav|
|65 6E 67 69 6E 67 20 50 6F 75 63 68 2C 20 54 68 |enging Pouch, Th|
|72 65 65 20 47 65 6D 73 00 00 00 00 00 00 00 01 |ree Gems........|
|01 00 00 03 06 00 00 00 00 00 00 00 00 00 00 00 |................|
|00 00 00 00 00 00 00 00 00 00 00 08 02 00 00 00 |................|
|00 00 00 03 22 8A 19 F1 00 00 00 00 00 00 00 00 |...."...........|
|0F 18 00 00 00 00 01 01 00 00 00 00 00 00 08 00 |................|
|00 00 00 00 00 00 00 00 00 00 00 00 00 01 00 01 |................|
|00 00 00 00 00 00 00 00 00 00 00 00 1F 42 6C 75 |.............Blu|
|65 20 54 61 6C 69 73 6D 61 6E 20 50 6F 75 63 68 |e Talisman Pouch|
|2C 20 52 65 64 20 42 61 75 62 6C 65 00 00 00 00 |, Red Bauble....|
|00 00 00 01 01 00 00 03 06 00 00 00 00 00 00 00 |................|
|00 00 00 00 00 00 00 00 00 00 00 00 00 00 00 09 |................|
|02 00 00 00 00 00 00 03 22 8B 19 F2 00 00 00 00 |........".......|
|00 00 00 00 0F 18 00 00 00 00 01 01 00 00 00 00 |................|
|00 00 08 00 00 00 00 00 00 00 00 00 00 00 00 00 |................|
|00 01 00 01 00 00 00 00 00 00 00 00 00 00 00 00 |................|
|22 42 6C 75 65 20 54 61 6C 69 73 6D 61 6E 20 50 |"Blue Talisman P|
|6F 75 63 68 2C 20 53 69 6C 76 65 72 20 42 61 75 |ouch, Silver Bau|
|62 6C 65 00 00 00 00 00 00 00 01 01 00 00 03 06 |ble.............|
|00 00 00 00 00 00 00 00 00 00 00 00 00 00 00 00 |................|
|00 00 00 00 00 00 0A 02 00 00 00 00 00 00 03 22 |..............."|
|8C 19 F3 00 00 00 00 00 00 00 00 0F 18 00 00 00 |................|
|00 01 01 00 00 00 00 00 00 08 00 00 00 00 00 00 |................|
|00 00 00 00 00 00 00 00 01 00 01 00 00 00 00 00 |................|
|00 00 00 00 00 00 00 20 42 6C 75 65 20 54 61 6C |....... Blue Tal|
|69 73 6D 61 6E 20 50 6F 75 63 68 2C 20 47 6F 6C |isman Pouch, Gol|
|64 20 42 61 75 62 6C 65 00 00 00 00 00 00 00 01 |d Bauble........|
|01 00 00 03 06 00 00 00 00 00 00 00 00 00 00 00 |................|
|00 00 00 00 00 00 00 00 00 00 00 00             |............    |
-------------------------------------------------------------------
[Server] packet : (0xC0) F_STORE_BUY_BACK  Size = 5 
|------------------------------------------------|----------------|
|00 01 02 03 04 05 06 07 08 09 0A 0B 0C 0D 0E 0F |0123456789ABCDEF|
|------------------------------------------------|----------------|
|00 02 C0 00 00                                  |.....           |
-------------------------------------------------------------------
[Client] packet : (0x01) UNKNOWN  Size = 32 
|------------------------------------------------|----------------|
|00 01 02 03 04 05 06 07 08 09 0A 0B 0C 0D 0E 0F |0123456789ABCDEF|
|------------------------------------------------|----------------|
|00 14 03 9F 00 2B 00 00 00 01 00 03 33 90 00 00 |.....+......3...|
|00 00 00 00 00 00 00 00 40 0A 00 00 15 90 6F F2 |........@.....o.|                                                
-------------------------------------------------------------------
[Server] packet : (0x00) UNKNOWN  Size = 23 
|------------------------------------------------|----------------|
|00 01 02 03 04 05 06 07 08 09 0A 0B 0C 0D 0E 0F |0123456789ABCDEF|
|------------------------------------------------|----------------|
|00 14 00 00 03 33 90 7C A4 04 DE 00 00 00 00 00 |.....3.|........|
|00 40 0A 00 00 15 00                            |.......         |
-------------------------------------------------------------------
[Client] packet : (0x0B) F_PING  Size = 32 
|------------------------------------------------|----------------|
|00 01 02 03 04 05 06 07 08 09 0A 0B 0C 0D 0E 0F |0123456789ABCDEF|
|------------------------------------------------|----------------|
|00 14 03 A9 00 2B 00 00 00 0B 00 03 48 FA 55 63 |.....+......H.Uc|
|39 BF 59 B9 E0 DE 00 00 00 00 00 00 00 00 20 83 |9.Y........... .|                                                
-------------------------------------------------------------------
[Server] packet : (0x81) S_PONG  Size = 23 
|------------------------------------------------|----------------|
|00 01 02 03 04 05 06 07 08 09 0A 0B 0C 0D 0E 0F |0123456789ABCDEF|
|------------------------------------------------|----------------|
|00 14 81 00 03 48 FA 52 75 8A 3F 00 00 00 00 00 |.....H.Ru.?.....|
|00 03 AA 00 00 00 00                            |.......         |
-------------------------------------------------------------------
[Client] packet : (0x86) F_MAIL  Size = 16 
|------------------------------------------------|----------------|
|00 01 02 03 04 05 06 07 08 09 0A 0B 0C 0D 0E 0F |0123456789ABCDEF|
|------------------------------------------------|----------------|
|00 04 03 AB 00 2B FF FF 00 86 00 00 00 00 00 00 |.....+..........|                                                
-------------------------------------------------------------------