
[Server] packet : (0x51) F_ANIMATION  Size = 9 
|------------------------------------------------|----------------|
|00 01 02 03 04 05 06 07 08 09 0A 0B 0C 0D 0E 0F |0123456789ABCDEF|
|------------------------------------------------|----------------|
|00 06 51 02 B1 00 00 00 00                      |.........       |
-------------------------------------------------------------------
[Client] packet : (0x01) UNKNOWN  Size = 32 
|------------------------------------------------|----------------|
|00 01 02 03 04 05 06 07 08 09 0A 0B 0C 0D 0E 0F |0123456789ABCDEF|
|------------------------------------------------|----------------|
|00 14 2B 2E 00 41 00 00 00 01 00 30 BF 4C 00 00 |..+..A.....0.L..|
|00 00 00 00 00 00 00 00 04 05 00 00 2C A4 F6 77 |............,..w|                                                
-------------------------------------------------------------------
[Server] packet : (0x00) UNKNOWN  Size = 23 
|------------------------------------------------|----------------|
|00 01 02 03 04 05 06 07 08 09 0A 0B 0C 0D 0E 0F |0123456789ABCDEF|
|------------------------------------------------|----------------|
|00 14 00 00 30 BF 4C AC C8 8C A8 00 00 00 00 00 |....0.L.........|
|00 04 05 00 00 2C 00                            |.......         |
-------------------------------------------------------------------
[Server] packet : (0x1A) F_CAMPAIGN_STATUS  Size = 159 
|------------------------------------------------|----------------|
|00 01 02 03 04 05 06 07 08 09 0A 0B 0C 0D 0E 0F |0123456789ABCDEF|
|------------------------------------------------|----------------|
|00 9C 1A 00 03 00 6D 00 CB 00 00 64 00 00 32 32 |......m....d..22|
|00 32 32 00 32 32 00 43 00 00 32 32 00 32 32 00 |.22.22.C..22.22.|
|32 32 00 00 00 00 32 32 00 32 32 00 32 32 F6 BC |22....22.22.22..|
|F6 BC F6 BC F6 BC F6 BC F6 BC F6 BC F6 BC F6 BC |................|
|F6 BC F6 BC F6 BC 00 64 64 00 00 32 00 00 32 00 |.......dd..2..2.|
|32 00 00 32 64 01 00 00 00 00 00 00 00 00 00 00 |2..2d...........|
|00 00 00 00 00 00 00 00 00 00 00 00 00 00 00 00 |................|
|00 00 00 00 00 00 00 00 00 00 00 00 00 00 00 00 |................|
|00 03 01 01 00 03 03 00 02 02 03 03 01 01 00 03 |................|
|FF 01 64 00 0A 3C 00 00 00 03 84 00 00 00 00    |............... |
-------------------------------------------------------------------
[Client] packet : (0x0B) F_PING  Size = 32 
|------------------------------------------------|----------------|
|00 01 02 03 04 05 06 07 08 09 0A 0B 0C 0D 0E 0F |0123456789ABCDEF|
|------------------------------------------------|----------------|
|00 14 2B 32 00 41 00 00 00 0B 00 30 CC 16 2D 3B |..+2.A.....0..-;|
|BD F9 9B BB EC 6F 00 00 00 00 00 00 00 00 C5 F0 |.....o..........|                                                
-------------------------------------------------------------------
[Server] packet : (0x81) S_PONG  Size = 23 
|------------------------------------------------|----------------|
|00 01 02 03 04 05 06 07 08 09 0A 0B 0C 0D 0E 0F |0123456789ABCDEF|
|------------------------------------------------|----------------|
|00 14 81 00 30 CC 16 52 81 DD 51 00 00 00 00 00 |....0..R..Q.....|
|00 2B 33 00 00 00 00                            |.......         |
-------------------------------------------------------------------
[Server] packet : (0xDE) F_OBJECT_EFFECT_STATE  Size = 9 
|------------------------------------------------|----------------|
|00 01 02 03 04 05 06 07 08 09 0A 0B 0C 0D 0E 0F |0123456789ABCDEF|
|------------------------------------------------|----------------|
|00 06 DE 34 58 01 0C 01 00                      |.........       |
-------------------------------------------------------------------
[Server] packet : (0xDE) F_OBJECT_EFFECT_STATE  Size = 9 
|------------------------------------------------|----------------|
|00 01 02 03 04 05 06 07 08 09 0A 0B 0C 0D 0E 0F |0123456789ABCDEF|
|------------------------------------------------|----------------|
|00 06 DE 34 58 01 0C 00 00                      |.........       |
-------------------------------------------------------------------
[Server] packet : (0x0A) F_OBJECT_DEATH  Size = 15 
|------------------------------------------------|----------------|
|00 01 02 03 04 05 06 07 08 09 0A 0B 0C 0D 0E 0F |0123456789ABCDEF|
|------------------------------------------------|----------------|
|00 0C 0A 34 58 00 00 00 00 00 00 00 00 00 00    |............... |
-------------------------------------------------------------------
[Server] packet : (0x0A) F_OBJECT_DEATH  Size = 15 
|------------------------------------------------|----------------|
|00 01 02 03 04 05 06 07 08 09 0A 0B 0C 0D 0E 0F |0123456789ABCDEF|
|------------------------------------------------|----------------|
|00 0C 0A 06 DA 00 00 00 00 00 00 00 00 00 00    |............... |
-------------------------------------------------------------------
[Client] packet : (0x5A) F_PING_DATAGRAM  Size = 13 
|------------------------------------------------|----------------|
|00 01 02 03 04 05 06 07 08 09 0A 0B 0C 0D 0E 0F |0123456789ABCDEF|
|------------------------------------------------|----------------|
|00 01 2B 38 00 41 FF FF 00 5A 00 90 1E          |.............   |
-------------------------------------------------------------------
[Server] packet : (0x51) F_ANIMATION  Size = 9 
|------------------------------------------------|----------------|
|00 01 02 03 04 05 06 07 08 09 0A 0B 0C 0D 0E 0F |0123456789ABCDEF|
|------------------------------------------------|----------------|
|00 06 51 02 B1 00 00 00 00                      |.........       |
-------------------------------------------------------------------
[Client] packet : (0xD9) F_USE_ITEM  Size = 20 
|------------------------------------------------|----------------|
|00 01 02 03 04 05 06 07 08 09 0A 0B 0C 0D 0E 0F |0123456789ABCDEF|
|------------------------------------------------|----------------|
|00 08 2B 3A 00 41 FF FF 00 D9 00 72 00 00 A8 01 |..+:.A.....r....|
|00 00 00 00                                     |....            |
-------------------------------------------------------------------
[Server] packet : (0xDA) F_USE_ABILITY  Size = 23 
|------------------------------------------------|----------------|
|00 01 02 03 04 05 06 07 08 09 0A 0B 0C 0D 0E 0F |0123456789ABCDEF|
|------------------------------------------------|----------------|
|00 14 DA 00 00 00 00 23 2E 00 00 00 00 00 00 01 |.......#........|
|4E 00 00 00 00 00 00                            |.......         |
-------------------------------------------------------------------
[Client] packet : (0x0B) F_PING  Size = 32 
|------------------------------------------------|----------------|
|00 01 02 03 04 05 06 07 08 09 0A 0B 0C 0D 0E 0F |0123456789ABCDEF|
|------------------------------------------------|----------------|
|00 14 2B 3D 00 41 00 00 00 0B 00 30 DF 26 39 A7 |..+=.A.....0.&9.|
|B9 F2 FD 7C E7 EA 00 00 00 00 00 00 00 00 C5 F0 |...|............|                                                
-------------------------------------------------------------------
[Server] packet : (0x81) S_PONG  Size = 23 
|------------------------------------------------|----------------|
|00 01 02 03 04 05 06 07 08 09 0A 0B 0C 0D 0E 0F |0123456789ABCDEF|
|------------------------------------------------|----------------|
|00 14 81 00 30 DF 26 52 81 DD 56 00 00 00 00 00 |....0.&R..V.....|
|00 2B 3E 00 00 00 00                            |.......         |
-------------------------------------------------------------------
[Server] packet : (0xDE) F_OBJECT_EFFECT_STATE  Size = 9 
|------------------------------------------------|----------------|
|00 01 02 03 04 05 06 07 08 09 0A 0B 0C 0D 0E 0F |0123456789ABCDEF|
|------------------------------------------------|----------------|
|00 06 DE 32 AB 01 0C 01 00                      |.........       |
-------------------------------------------------------------------
[Server] packet : (0xDE) F_OBJECT_EFFECT_STATE  Size = 9 
|------------------------------------------------|----------------|
|00 01 02 03 04 05 06 07 08 09 0A 0B 0C 0D 0E 0F |0123456789ABCDEF|
|------------------------------------------------|----------------|
|00 06 DE 32 AB 01 0C 00 00                      |.........       |
-------------------------------------------------------------------
[Server] packet : (0x0A) F_OBJECT_DEATH  Size = 15 
|------------------------------------------------|----------------|
|00 01 02 03 04 05 06 07 08 09 0A 0B 0C 0D 0E 0F |0123456789ABCDEF|
|------------------------------------------------|----------------|
|00 0C 0A 32 AB 00 00 00 00 00 00 00 00 00 00    |............... |
-------------------------------------------------------------------
[Client] packet : (0x16) F_REQUEST_INIT_OBJECT  Size = 16 
|------------------------------------------------|----------------|
|00 01 02 03 04 05 06 07 08 09 0A 0B 0C 0D 0E 0F |0123456789ABCDEF|
|------------------------------------------------|----------------|
|00 04 2B 40 00 41 00 00 00 16 05 91 00 00 B4 B5 |..+@.A..........|                                                
-------------------------------------------------------------------
[Server] packet : (0x51) F_ANIMATION  Size = 9 
|------------------------------------------------|----------------|
|00 01 02 03 04 05 06 07 08 09 0A 0B 0C 0D 0E 0F |0123456789ABCDEF|
|------------------------------------------------|----------------|
|00 06 51 02 B1 00 00 00 00                      |.........       |
-------------------------------------------------------------------
[Server] packet : (0x72) F_CREATE_MONSTER  Size = 116 
|------------------------------------------------|----------------|
|00 01 02 03 04 05 06 07 08 09 0A 0B 0C 0D 0E 0F |0123456789ABCDEF|
|------------------------------------------------|----------------|
|00 71 72 05 91 00 55 06 A1 45 06 00 06 BF FF 00 |.qr...U..E......|
|01 F8 32 00 59 04 4A 32 23 A1 00 00 00 00 00 00 |..2.Y.J2#.......|
|00 01 00 03 E8 00 00 00 00 B9 32 00 02 00 00 01 |..........2.....|
|19 00 46 61 74 65 27 73 20 45 64 67 65 20 53 63 |..Fate's Edge Sc|
|72 65 61 6D 65 72 5E 6D 00 00 00 00 08 01 0A 00 |reamer^m........|
|00 00 1A 05 00 05 91 7F FF 78 32 45 06 64 21 A1 |.........x2E.d!.|
|00 00 00 00 08 55 00 16 A5 7F 9A 77 1F 46 A1 05 |.....U.....w.F..|
|91 00 00 00                                     |....            |
-------------------------------------------------------------------
[Client] packet : (0xD9) F_USE_ITEM  Size = 20 
|------------------------------------------------|----------------|
|00 01 02 03 04 05 06 07 08 09 0A 0B 0C 0D 0E 0F |0123456789ABCDEF|
|------------------------------------------------|----------------|
|00 08 2B 42 00 41 FF FF 00 D9 00 72 00 00 A8 01 |..+B.A.....r....|
|00 00 00 00                                     |....            |
-------------------------------------------------------------------
[Server] packet : (0xDA) F_USE_ABILITY  Size = 23 
|------------------------------------------------|----------------|
|00 01 02 03 04 05 06 07 08 09 0A 0B 0C 0D 0E 0F |0123456789ABCDEF|
|------------------------------------------------|----------------|
|00 14 DA 00 00 00 00 23 2E 00 00 00 00 00 00 01 |.......#........|
|4E 00 00 00 00 00 00                            |.......         |
-------------------------------------------------------------------
[Server] packet : (0x51) F_ANIMATION  Size = 9 
|------------------------------------------------|----------------|
|00 01 02 03 04 05 06 07 08 09 0A 0B 0C 0D 0E 0F |0123456789ABCDEF|
|------------------------------------------------|----------------|
|00 06 51 00 66 00 AD 00 00                      |.........       |
-------------------------------------------------------------------
[Server] packet : (0x47) F_MONSTER_STATS  Size = 29 
|------------------------------------------------|----------------|
|00 01 02 03 04 05 06 07 08 09 0A 0B 0C 0D 0E 0F |0123456789ABCDEF|
|------------------------------------------------|----------------|
|00 1A 47 11 79 34 14 49 6D 61 67 65 20 6F 66 20 |..G.y4.Image of |
|74 68 65 20 45 6D 70 65 72 6F 72 00 00          |.............   |
-------------------------------------------------------------------
[Server] packet : (0x72) F_CREATE_MONSTER  Size = 108 
|------------------------------------------------|----------------|
|00 01 02 03 04 05 06 07 08 09 0A 0B 0C 0D 0E 0F |0123456789ABCDEF|
|------------------------------------------------|----------------|
|00 69 72 11 79 00 00 0F DD 41 E0 00 06 AC CA 00 |.ir.y....A......|
|02 10 4E 00 00 04 A3 32 34 46 00 00 00 00 00 00 |..N....24F......|
|00 05 00 03 EC 00 00 00 00 B7 BA 00 03 00 00 01 |................|
|19 00 49 6D 61 67 65 20 6F 66 20 74 68 65 20 45 |..Image of the E|
|6D 70 65 72 6F 72 00 00 00 00 06 00 64 01 0A 00 |mperor......d...|
|00 00 12 05 00 11 79 6C CA 90 4E 41 E0 64 00 A1 |......yl..NA.d..|
|00 00 00 00 06 DD 0F 11 79 00 00 00             |............    |
-------------------------------------------------------------------
[Client] packet : (0xD9) F_USE_ITEM  Size = 20 
|------------------------------------------------|----------------|
|00 01 02 03 04 05 06 07 08 09 0A 0B 0C 0D 0E 0F |0123456789ABCDEF|
|------------------------------------------------|----------------|
|00 08 2B 45 00 41 FF FF 00 D9 00 72 00 00 A8 01 |..+E.A.....r....|
|00 00 00 00                                     |....            |
-------------------------------------------------------------------
[Server] packet : (0xDA) F_USE_ABILITY  Size = 23 
|------------------------------------------------|----------------|
|00 01 02 03 04 05 06 07 08 09 0A 0B 0C 0D 0E 0F |0123456789ABCDEF|
|------------------------------------------------|----------------|
|00 14 DA 00 00 00 00 23 2E 00 00 00 00 00 00 01 |.......#........|
|4E 00 00 00 00 00 00                            |.......         |
-------------------------------------------------------------------
[Server] packet : (0x51) F_ANIMATION  Size = 9 
|------------------------------------------------|----------------|
|00 01 02 03 04 05 06 07 08 09 0A 0B 0C 0D 0E 0F |0123456789ABCDEF|
|------------------------------------------------|----------------|
|00 06 51 00 66 00 AD 00 00                      |.........       |
-------------------------------------------------------------------
[Server] packet : (0xDA) F_USE_ABILITY  Size = 23 
|------------------------------------------------|----------------|
|00 01 02 03 04 05 06 07 08 09 0A 0B 0C 0D 0E 0F |0123456789ABCDEF|
|------------------------------------------------|----------------|
|00 14 DA 00 00 17 0C 11 79 04 9A 11 79 01 01 00 |........y...y...|
|00 00 00 00 00 00 00                            |.......         |
-------------------------------------------------------------------
[Server] packet : (0xDE) F_OBJECT_EFFECT_STATE  Size = 9 
|------------------------------------------------|----------------|
|00 01 02 03 04 05 06 07 08 09 0A 0B 0C 0D 0E 0F |0123456789ABCDEF|
|------------------------------------------------|----------------|
|00 06 DE 11 79 01 0C 01 00                      |.........       |
-------------------------------------------------------------------
[Client] packet : (0x16) F_REQUEST_INIT_OBJECT  Size = 16 
|------------------------------------------------|----------------|
|00 01 02 03 04 05 06 07 08 09 0A 0B 0C 0D 0E 0F |0123456789ABCDEF|
|------------------------------------------------|----------------|
|00 04 2B 48 00 41 00 00 00 16 1A 2B 00 00 28 AC |..+H.A.....+..(.|                                                
-------------------------------------------------------------------
[Client] packet : (0x01) UNKNOWN  Size = 32 
|------------------------------------------------|----------------|
|00 01 02 03 04 05 06 07 08 09 0A 0B 0C 0D 0E 0F |0123456789ABCDEF|
|------------------------------------------------|----------------|
|00 14 2B 49 00 41 00 00 00 01 00 30 E7 5A 20 07 |..+I.A.....0.Z .|
|2A 68 90 38 40 04 00 23 79 BF 08 18 ED 6F 00 00 |*h.8@..#y....o..|                                                
-------------------------------------------------------------------
[Server] packet : (0x72) F_CREATE_MONSTER  Size = 103 
|------------------------------------------------|----------------|
|00 01 02 03 04 05 06 07 08 09 0A 0B 0C 0D 0E 0F |0123456789ABCDEF|
|------------------------------------------------|----------------|
|00 64 72 1A 2B 00 EB 0C CC 00 00 00 06 9D 33 00 |.dr.+.........3.|
|01 FF 3C 00 00 04 49 37 27 85 00 00 00 00 00 00 |..<...I7'.......|
|00 01 00 03 E9 00 00 00 00 BA B9 00 08 00 00 01 |................|
|19 00 4D 6F 6E 6F 6C 69 74 68 20 46 6C 61 6D 65 |..Monolith Flame|
|72 5E 6D 00 00 00 00 0F 01 0A 00 00 00 12 05 00 |r^m.............|
|1A 2B 5D 33 7F 3C 00 00 64 00 A1 00 00 00 00 0F |.+]3.<..d.......|
|CC 0C 1A 2B 00 00 00                            |.......         |
-------------------------------------------------------------------
[Server] packet : (0x00) UNKNOWN  Size = 23 
|------------------------------------------------|----------------|
|00 01 02 03 04 05 06 07 08 09 0A 0B 0C 0D 0E 0F |0123456789ABCDEF|
|------------------------------------------------|----------------|
|00 14 00 00 30 E7 5A AC C8 B4 8C 00 00 00 00 00 |....0.Z.........|
|23 79 BF 08 18 ED 00                            |.......         |
-------------------------------------------------------------------
[Server] packet : (0x51) F_ANIMATION  Size = 9 
|------------------------------------------------|----------------|
|00 01 02 03 04 05 06 07 08 09 0A 0B 0C 0D 0E 0F |0123456789ABCDEF|
|------------------------------------------------|----------------|
|00 06 51 11 79 00 70 00 00                      |.........       |
-------------------------------------------------------------------