
[Server] packet : (0x0A) F_OBJECT_DEATH  Size = 15 
|------------------------------------------------|----------------|
|00 01 02 03 04 05 06 07 08 09 0A 0B 0C 0D 0E 0F |0123456789ABCDEF|
|------------------------------------------------|----------------|
|00 0C 0A 29 60 00 00 00 00 00 00 00 00 00 00    |............... |
-------------------------------------------------------------------
[Server] packet : (0xA9) F_UPDATE_HOT_SPOT  Size = 406 
|------------------------------------------------|----------------|
|00 01 02 03 04 05 06 07 08 09 0A 0B 0C 0D 0E 0F |0123456789ABCDEF|
|------------------------------------------------|----------------|
|01 93 A9 50 02 00 01 00 00 00 00 02 00 00 00 00 |...P............|
|03 00 00 00 00 04 00 00 00 00 05 02 01 00 00 06 |................|
|00 00 00 00 07 00 00 00 00 08 00 00 00 00 09 00 |................|
|00 00 00 0A 00 00 00 00 0B 00 00 00 00 1A 00 00 |................|
|00 00 1B 00 00 00 00 44 00 00 00 00 46 00 00 00 |.......D....F...|
|00 47 00 00 00 00 4A 00 00 00 00 4B 00 00 00 00 |.G....J....K....|
|58 00 00 00 00 64 00 00 00 00 65 00 00 00 00 66 |X....d....e....f|
|00 00 00 00 67 00 00 00 00 68 00 00 00 00 69 00 |....g....h....i.|
|00 00 00 6A 03 00 00 00 6B 00 00 00 00 6C 00 00 |...j....k....l..|
|00 00 6D 00 00 00 00 6E 00 00 00 00 75 00 00 00 |..m....n....u...|
|00 76 00 00 00 00 78 00 00 00 00 81 00 00 00 00 |.v....x.........|
|90 00 00 00 00 91 00 00 00 00 A1 00 00 00 00 A2 |................|
|00 00 00 00 AF 00 00 00 00 B2 00 00 00 00 BE 00 |................|
|00 00 00 BF 00 00 00 00 C0 00 00 00 00 C1 00 00 |................|
|00 00 C6 00 00 00 00 C8 00 00 00 00 C9 00 00 00 |................|
|00 CA 00 00 00 00 CB 03 00 00 00 CC 00 00 00 00 |................|
|CD 00 00 00 00 CE 00 00 00 00 CF 00 00 00 00 D0 |................|
|00 00 00 00 D1 00 00 00 00 D2 00 00 00 00 D3 00 |................|
|00 00 00 D5 00 00 00 00 D7 00 00 00 00 D8 00 00 |................|
|00 00 D9 00 00 00 00 DC 00 00 00 00 DD 00 00 00 |................|
|00 DE 00 00 00 00 E3 00 00 00 00 E4 00 00 00 00 |................|
|FA 00 00 00 00 FB 00 00 00 00 FC 00 00 00 00 FD |................|
|00 00 00 01 15 00 00 00 01 16 00 00 00 01 18 00 |................|
|00 00 01 1B 00 00 00 01 1C 00 00 00 01 1D 00 00 |................|
|00 01 1F 00 00 00 01 22 00 00 00 01 23 00 00 00 |......."....#...|
|01 24 00 00 00 00                               |......          |
-------------------------------------------------------------------
[Client] packet : (0x0B) F_PING  Size = 32 
|------------------------------------------------|----------------|
|00 01 02 03 04 05 06 07 08 09 0A 0B 0C 0D 0E 0F |0123456789ABCDEF|
|------------------------------------------------|----------------|
|00 14 02 D0 00 49 00 00 00 0B 00 03 CE C5 19 E8 |.....I..........|
|41 90 0C 01 99 99 00 00 00 00 00 00 00 00 7F 05 |A...............|                                                
-------------------------------------------------------------------
[Server] packet : (0x81) S_PONG  Size = 23 
|------------------------------------------------|----------------|
|00 01 02 03 04 05 06 07 08 09 0A 0B 0C 0D 0E 0F |0123456789ABCDEF|
|------------------------------------------------|----------------|
|00 14 81 00 03 CE C5 52 82 83 50 00 00 00 00 00 |.......R..P.....|
|00 02 D1 00 00 00 00                            |.......         |
-------------------------------------------------------------------
[Client] packet : (0x01) UNKNOWN  Size = 32 
|------------------------------------------------|----------------|
|00 01 02 03 04 05 06 07 08 09 0A 0B 0C 0D 0E 0F |0123456789ABCDEF|
|------------------------------------------------|----------------|
|00 14 02 D2 00 49 00 00 00 01 00 03 CB 7E 20 07 |.....I.......~ .|
|2A 68 90 38 40 04 00 23 3F F7 08 18 DB CF 46 BB |*h.8@..#?.....F.|                                                
-------------------------------------------------------------------
[Server] packet : (0x00) UNKNOWN  Size = 23 
|------------------------------------------------|----------------|
|00 01 02 03 04 05 06 07 08 09 0A 0B 0C 0D 0E 0F |0123456789ABCDEF|
|------------------------------------------------|----------------|
|00 14 00 00 03 CB 7E AF 50 D0 88 00 00 00 00 00 |......~.P.......|
|23 3F F7 08 18 DB 00                            |.......         |
-------------------------------------------------------------------
[Server] packet : (0x1A) F_CAMPAIGN_STATUS  Size = 159 
|------------------------------------------------|----------------|
|00 01 02 03 04 05 06 07 08 09 0A 0B 0C 0D 0E 0F |0123456789ABCDEF|
|------------------------------------------------|----------------|
|00 9C 1A 00 05 00 6D 00 CB 00 00 00 64 00 32 32 |......m.....d.22|
|00 64 00 00 32 32 00 00 64 00 32 32 00 32 32 00 |.d..22..d.22.22.|
|32 32 00 00 00 00 32 32 00 32 32 00 32 32 00 00 |22....22.22.22..|
|00 00 00 00 00 00 00 00 00 00 00 00 00 00 00 00 |................|
|00 00 00 00 00 00 00 64 64 00 00 00 00 00 00 00 |.......dd.......|
|64 00 00 64 00 01 00 01 00 01 00 00 00 00 00 00 |d..d............|
|00 00 00 00 00 00 00 00 00 00 00 00 00 00 00 00 |................|
|00 00 00 00 00 00 00 00 00 00 00 00 00 00 00 00 |................|
|00 03 01 00 02 03 03 00 02 02 03 03 01 01 00 03 |................|
|00 00 3C 28 0A 3C 00 00 00 03 84 00 00 00 00    |............... |
-------------------------------------------------------------------
[Client] packet : (0x86) F_MAIL  Size = 16 
|------------------------------------------------|----------------|
|00 01 02 03 04 05 06 07 08 09 0A 0B 0C 0D 0E 0F |0123456789ABCDEF|
|------------------------------------------------|----------------|
|00 04 02 D6 00 49 FF FF 00 86 00 00 00 00 00 00 |.....I..........|                                                
-------------------------------------------------------------------
[Server] packet : (0x86) F_MAIL  Size = 6 
|------------------------------------------------|----------------|
|00 01 02 03 04 05 06 07 08 09 0A 0B 0C 0D 0E 0F |0123456789ABCDEF|
|------------------------------------------------|----------------|
|00 03 86 00 00 00                               |......          |
-------------------------------------------------------------------
[Client] packet : (0x86) F_MAIL  Size = 16 
|------------------------------------------------|----------------|
|00 01 02 03 04 05 06 07 08 09 0A 0B 0C 0D 0E 0F |0123456789ABCDEF|
|------------------------------------------------|----------------|
|00 04 02 D7 00 49 FF FF 00 86 00 00 00 00 00 00 |.....I..........|                                                
-------------------------------------------------------------------
[Server] packet : (0x86) F_MAIL  Size = 9 
|------------------------------------------------|----------------|
|00 01 02 03 04 05 06 07 08 09 0A 0B 0C 0D 0E 0F |0123456789ABCDEF|
|------------------------------------------------|----------------|
|00 06 86 0A 00 00 00 00 00                      |.........       |
-------------------------------------------------------------------
[Server] packet : (0x86) F_MAIL  Size = 9 
|------------------------------------------------|----------------|
|00 01 02 03 04 05 06 07 08 09 0A 0B 0C 0D 0E 0F |0123456789ABCDEF|
|------------------------------------------------|----------------|
|00 06 86 0A 01 00 00 00 00                      |.........       |
-------------------------------------------------------------------
[Client] packet : (0x5A) F_PING_DATAGRAM  Size = 13 
|------------------------------------------------|----------------|
|00 01 02 03 04 05 06 07 08 09 0A 0B 0C 0D 0E 0F |0123456789ABCDEF|
|------------------------------------------------|----------------|
|00 01 02 D9 00 49 FF FF 00 5A 00 2E FD          |.............   |
-------------------------------------------------------------------