
[Client] packet : (0x0B) F_PING  Size = 32 
|------------------------------------------------|----------------|
|00 01 02 03 04 05 06 07 08 09 0A 0B 0C 0D 0E 0F |0123456789ABCDEF|
|------------------------------------------------|----------------|
|00 14 26 B2 00 41 00 00 00 0B 00 2C F4 ED 00 38 |..&..A.....,...8|
|C1 97 2E 43 9D 18 00 00 00 00 00 00 00 00 C5 F0 |...C............|                                                
-------------------------------------------------------------------
[Server] packet : (0x81) S_PONG  Size = 23 
|------------------------------------------------|----------------|
|00 01 02 03 04 05 06 07 08 09 0A 0B 0C 0D 0E 0F |0123456789ABCDEF|
|------------------------------------------------|----------------|
|00 14 81 00 2C F4 ED 52 81 DC 55 00 00 00 00 00 |....,..R..U.....|
|00 26 B3 00 00 00 00                            |.......         |
-------------------------------------------------------------------
[Client] packet : (0x16) F_REQUEST_INIT_OBJECT  Size = 16 
|------------------------------------------------|----------------|
|00 01 02 03 04 05 06 07 08 09 0A 0B 0C 0D 0E 0F |0123456789ABCDEF|
|------------------------------------------------|----------------|
|00 04 26 B6 00 41 00 00 00 16 04 82 00 00 FD 85 |..&..A..........|                                                
-------------------------------------------------------------------
[Server] packet : (0x72) F_CREATE_MONSTER  Size = 158 
|------------------------------------------------|----------------|
|00 01 02 03 04 05 06 07 08 09 0A 0B 0C 0D 0E 0F |0123456789ABCDEF|
|------------------------------------------------|----------------|
|00 9B 72 04 82 00 55 05 F1 41 E0 00 06 BE 8B 00 |..r...U..A......|
|02 0F C5 00 00 04 C6 32 28 91 00 00 00 00 00 00 |.......2(.......|
|00 01 00 03 E8 00 00 00 00 B7 A4 00 00 00 00 02 |................|
|19 1D 00 44 72 65 61 64 20 53 65 6E 74 72 79 00 |...Dread Sentry.|
|00 00 03 04 01 06 02 00 00 00 00 00 00 00 00 00 |................|
|00 20 00 01 0A 00 00 00 00 00 00 00 1A 25 00 04 |. ...........%..|
|82 7E 8B 8F C5 41 E0 64 01 A1 00 00 00 20 00 55 |.~...A.d..... .U|
|00 00 D5 7A 39 8C E0 41 A1 04 82 00 08 00 0A 07 |...z9..A........|
|17 00 0B 07 76 00 14 0A DE 00 15 0A E0 00 16 16 |....v...........|
|2F 00 17 16 DD 00 18 16 DA 00 1C 0A DD 00       |..............  |
-------------------------------------------------------------------
[Client] packet : (0xD5) F_DO_ABILITY  Size = 30 
|------------------------------------------------|----------------|
|00 01 02 03 04 05 06 07 08 09 0A 0B 0C 0D 0E 0F |0123456789ABCDEF|
|------------------------------------------------|----------------|
|00 12 26 B9 00 41 00 00 00 D5 A8 00 0E DF 6A 63 |..&..A........jc|
|78 D1 00 A1 44 56 21 6E 71 00 C3 A6 00 00       |..............  |
-------------------------------------------------------------------
[Client] packet : (0xE8) F_CLIENT_DATA  Size = 20 
|------------------------------------------------|----------------|
|00 01 02 03 04 05 06 07 08 09 0A 0B 0C 0D 0E 0F |0123456789ABCDEF|
|------------------------------------------------|----------------|
|00 08 26 BA 00 41 00 00 00 E8 00 74 00 04 C6 2B |..&..A.....t...+|
|02 03 00 00                                     |....            |
-------------------------------------------------------------------
[Server] packet : (0xDA) F_USE_ABILITY  Size = 23 
|------------------------------------------------|----------------|
|00 01 02 03 04 05 06 07 08 09 0A 0B 0C 0D 0E 0F |0123456789ABCDEF|
|------------------------------------------------|----------------|
|00 14 DA 00 00 21 6E 23 2E 08 25 23 2E 01 01 00 |.....!n#..%#....|
|00 00 00 71 00 00 00                            |.......         |
-------------------------------------------------------------------
[Server] packet : (0x1E) F_MAX_VELOCITY  Size = 7 
|------------------------------------------------|----------------|
|00 01 02 03 04 05 06 07 08 09 0A 0B 0C 0D 0E 0F |0123456789ABCDEF|
|------------------------------------------------|----------------|
|00 04 1E 00 64 01 00                            |.......         |
-------------------------------------------------------------------
[Server] packet : (0xD7) F_INIT_EFFECTS  Size = 14 
|------------------------------------------------|----------------|
|00 01 02 03 04 05 06 07 08 09 0A 0B 0C 0D 0E 0F |0123456789ABCDEF|
|------------------------------------------------|----------------|
|00 0B D7 01 02 00 00 23 2E 14 00 84 3A 00       |..............  |
-------------------------------------------------------------------
[Server] packet : (0xD7) F_INIT_EFFECTS  Size = 21 
|------------------------------------------------|----------------|
|00 01 02 03 04 05 06 07 08 09 0A 0B 0C 0D 0E 0F |0123456789ABCDEF|
|------------------------------------------------|----------------|
|00 12 D7 01 01 F4 0F 23 2E 15 00 6E 21 1E 2E 23 |.......#...n!..#|
|01 00 86 05 00                                  |.....           |
-------------------------------------------------------------------
[Server] packet : (0xDA) F_USE_ABILITY  Size = 23 
|------------------------------------------------|----------------|
|00 01 02 03 04 05 06 07 08 09 0A 0B 0C 0D 0E 0F |0123456789ABCDEF|
|------------------------------------------------|----------------|
|00 14 DA 00 00 21 6E 23 2E 08 25 23 2E 02 01 00 |.....!n#..%#....|
|00 00 00 71 00 00 00                            |.......         |
-------------------------------------------------------------------
[Server] packet : (0x7E) F_SET_ABILITY_TIMER  Size = 15 
|------------------------------------------------|----------------|
|00 01 02 03 04 05 06 07 08 09 0A 0B 0C 0D 0E 0F |0123456789ABCDEF|
|------------------------------------------------|----------------|
|00 0C 7E 21 6E 00 00 00 00 00 00 00 00 00 00    |............... |
-------------------------------------------------------------------
[Server] packet : (0x7E) F_SET_ABILITY_TIMER  Size = 15 
|------------------------------------------------|----------------|
|00 01 02 03 04 05 06 07 08 09 0A 0B 0C 0D 0E 0F |0123456789ABCDEF|
|------------------------------------------------|----------------|
|00 0C 7E 00 01 01 00 00 00 00 00 00 00 71 00    |............... |
-------------------------------------------------------------------
[Server] packet : (0x7E) F_SET_ABILITY_TIMER  Size = 15 
|------------------------------------------------|----------------|
|00 01 02 03 04 05 06 07 08 09 0A 0B 0C 0D 0E 0F |0123456789ABCDEF|
|------------------------------------------------|----------------|
|00 0C 7E 21 6E 00 00 00 00 00 00 00 00 00 00    |............... |
-------------------------------------------------------------------
[Server] packet : (0x7E) F_SET_ABILITY_TIMER  Size = 15 
|------------------------------------------------|----------------|
|00 01 02 03 04 05 06 07 08 09 0A 0B 0C 0D 0E 0F |0123456789ABCDEF|
|------------------------------------------------|----------------|
|00 0C 7E 3A 84 00 00 00 00 00 00 00 00 00 00    |............... |
-------------------------------------------------------------------
[Client] packet : (0xE8) F_CLIENT_DATA  Size = 20 
|------------------------------------------------|----------------|
|00 01 02 03 04 05 06 07 08 09 0A 0B 0C 0D 0E 0F |0123456789ABCDEF|
|------------------------------------------------|----------------|
|00 08 26 BC 00 41 00 00 00 E8 00 18 00 04 65 21 |..&..A........e!|
|01 00 00 00                                     |....            |
-------------------------------------------------------------------
[Server] packet : (0x7E) F_SET_ABILITY_TIMER  Size = 15 
|------------------------------------------------|----------------|
|00 01 02 03 04 05 06 07 08 09 0A 0B 0C 0D 0E 0F |0123456789ABCDEF|
|------------------------------------------------|----------------|
|00 0C 7E 3A 84 00 00 00 00 00 00 00 00 00 00    |............... |
-------------------------------------------------------------------
[Server] packet : (0x7E) F_SET_ABILITY_TIMER  Size = 15 
|------------------------------------------------|----------------|
|00 01 02 03 04 05 06 07 08 09 0A 0B 0C 0D 0E 0F |0123456789ABCDEF|
|------------------------------------------------|----------------|
|00 0C 7E 3A 84 00 00 00 00 00 00 00 00 00 00    |............... |
-------------------------------------------------------------------
[Server] packet : (0x7E) F_SET_ABILITY_TIMER  Size = 15 
|------------------------------------------------|----------------|
|00 01 02 03 04 05 06 07 08 09 0A 0B 0C 0D 0E 0F |0123456789ABCDEF|
|------------------------------------------------|----------------|
|00 0C 7E 3A 84 00 00 00 00 00 00 00 00 00 00    |............... |
-------------------------------------------------------------------
[Client] packet : (0x01) UNKNOWN  Size = 32 
|------------------------------------------------|----------------|
|00 01 02 03 04 05 06 07 08 09 0A 0B 0C 0D 0E 0F |0123456789ABCDEF|
|------------------------------------------------|----------------|
|00 14 26 BF 00 41 00 00 00 01 00 2C FD 39 00 00 |..&..A.....,.9..|
|00 00 00 00 00 00 00 00 11 86 00 00 29 5A 8C 12 |............)Z..|                                                
-------------------------------------------------------------------
[Server] packet : (0x00) UNKNOWN  Size = 23 
|------------------------------------------------|----------------|
|00 01 02 03 04 05 06 07 08 09 0A 0B 0C 0D 0E 0F |0123456789ABCDEF|
|------------------------------------------------|----------------|
|00 14 00 00 2C FD 39 AC C4 CA 1A 00 00 00 00 00 |....,.9.........|
|00 11 86 00 00 29 00                            |.......         |
-------------------------------------------------------------------
[Client] packet : (0xE8) F_CLIENT_DATA  Size = 20 
|------------------------------------------------|----------------|
|00 01 02 03 04 05 06 07 08 09 0A 0B 0C 0D 0E 0F |0123456789ABCDEF|
|------------------------------------------------|----------------|
|00 08 26 C1 00 41 00 00 00 E8 00 74 00 04 C7 2D |..&..A.....t...-|
|02 03 00 00                                     |....            |
-------------------------------------------------------------------