
[Server] packet : (0xDA) F_USE_ABILITY  Size = 23 
|------------------------------------------------|----------------|
|00 01 02 03 04 05 06 07 08 09 0A 0B 0C 0D 0E 0F |0123456789ABCDEF|
|------------------------------------------------|----------------|
|00 14 DA 00 00 60 A0 39 CF 12 1E 39 CF 01 01 00 |.....`.9...9....|
|00 00 00 00 00 00 00                            |.......         |
-------------------------------------------------------------------
[Server] packet : (0xDA) F_USE_ABILITY  Size = 23 
|------------------------------------------------|----------------|
|00 01 02 03 04 05 06 07 08 09 0A 0B 0C 0D 0E 0F |0123456789ABCDEF|
|------------------------------------------------|----------------|
|00 14 DA 00 00 60 A0 39 CF 12 1E 39 CF 02 01 00 |.....`.9...9....|
|00 00 00 00 00 00 00                            |.......         |
-------------------------------------------------------------------
[Server] packet : (0x1B) F_REQ_CAMPAIGN_STATUS  Size = 15 
|------------------------------------------------|----------------|
|00 01 02 03 04 05 06 07 08 09 0A 0B 0C 0D 0E 0F |0123456789ABCDEF|
|------------------------------------------------|----------------|
|00 0C 1B 00 39 CF 00 00 12 EE 8A 00 0D 92 00    |............... |
-------------------------------------------------------------------
[Client] packet : (0x01) UNKNOWN  Size = 32 
|------------------------------------------------|----------------|
|00 01 02 03 04 05 06 07 08 09 0A 0B 0C 0D 0E 0F |0123456789ABCDEF|
|------------------------------------------------|----------------|
|00 14 0F 9D 00 36 00 00 00 01 00 15 46 3C 00 00 |.....6......F<..|
|00 00 00 00 00 00 00 00 44 44 00 00 01 24 FA DF |........DD...$..|                                                
-------------------------------------------------------------------
[Server] packet : (0x00) UNKNOWN  Size = 23 
|------------------------------------------------|----------------|
|00 01 02 03 04 05 06 07 08 09 0A 0B 0C 0D 0E 0F |0123456789ABCDEF|
|------------------------------------------------|----------------|
|00 14 00 00 15 46 3C B7 D3 47 97 00 00 00 00 00 |.....F<..G......|
|00 44 44 00 00 01 00                            |.......         |
-------------------------------------------------------------------
[Client] packet : (0x0B) F_PING  Size = 32 
|------------------------------------------------|----------------|
|00 01 02 03 04 05 06 07 08 09 0A 0B 0C 0D 0E 0F |0123456789ABCDEF|
|------------------------------------------------|----------------|
|00 14 0F 9E 00 36 00 00 00 0B 00 15 4D 58 E0 DC |.....6......MX..|
|C4 01 41 40 24 31 00 00 00 00 00 00 00 00 76 DD |..A@$1........v.|                                                
-------------------------------------------------------------------
[Server] packet : (0x81) S_PONG  Size = 23 
|------------------------------------------------|----------------|
|00 01 02 03 04 05 06 07 08 09 0A 0B 0C 0D 0E 0F |0123456789ABCDEF|
|------------------------------------------------|----------------|
|00 14 81 00 15 4D 58 52 84 B0 FE 00 00 00 00 00 |.....MXR........|
|00 0F 9F 00 00 00 00                            |.......         |
-------------------------------------------------------------------
[Server] packet : (0xDA) F_USE_ABILITY  Size = 23 
|------------------------------------------------|----------------|
|00 01 02 03 04 05 06 07 08 09 0A 0B 0C 0D 0E 0F |0123456789ABCDEF|
|------------------------------------------------|----------------|
|00 14 DA 00 00 60 A0 39 CF 12 1E 39 CF 01 01 00 |.....`.9...9....|
|00 00 00 00 00 00 00                            |.......         |
-------------------------------------------------------------------
[Server] packet : (0xDA) F_USE_ABILITY  Size = 23 
|------------------------------------------------|----------------|
|00 01 02 03 04 05 06 07 08 09 0A 0B 0C 0D 0E 0F |0123456789ABCDEF|
|------------------------------------------------|----------------|
|00 14 DA 00 00 60 A0 39 CF 12 1E 39 CF 02 01 00 |.....`.9...9....|
|00 00 00 00 00 00 00                            |.......         |
-------------------------------------------------------------------
[Server] packet : (0xDA) F_USE_ABILITY  Size = 23 
|------------------------------------------------|----------------|
|00 01 02 03 04 05 06 07 08 09 0A 0B 0C 0D 0E 0F |0123456789ABCDEF|
|------------------------------------------------|----------------|
|00 14 DA 00 00 60 A0 39 CF 12 1E 39 CF 01 01 00 |.....`.9...9....|
|00 00 00 00 00 00 00                            |.......         |
-------------------------------------------------------------------
[Server] packet : (0xDA) F_USE_ABILITY  Size = 23 
|------------------------------------------------|----------------|
|00 01 02 03 04 05 06 07 08 09 0A 0B 0C 0D 0E 0F |0123456789ABCDEF|
|------------------------------------------------|----------------|
|00 14 DA 00 00 60 A0 39 CF 12 1E 39 CF 02 01 00 |.....`.9...9....|
|00 00 00 00 00 00 00                            |.......         |
-------------------------------------------------------------------
[Client] packet : (0xD9) F_USE_ITEM  Size = 20 
|------------------------------------------------|----------------|
|00 01 02 03 04 05 06 07 08 09 0A 0B 0C 0D 0E 0F |0123456789ABCDEF|
|------------------------------------------------|----------------|
|00 08 0F A7 00 36 FF FF 00 D9 00 2B 00 00 A8 01 |.....6.....+....|
|00 00 00 00                                     |....            |
-------------------------------------------------------------------
[Server] packet : (0xDA) F_USE_ABILITY  Size = 23 
|------------------------------------------------|----------------|
|00 01 02 03 04 05 06 07 08 09 0A 0B 0C 0D 0E 0F |0123456789ABCDEF|
|------------------------------------------------|----------------|
|00 14 DA 00 00 3B 2B 20 C9 13 80 20 C9 01 01 00 |.....;+ ... ....|
|00 00 00 00 00 00 00                            |.......         |
-------------------------------------------------------------------
[Server] packet : (0x71) F_CREATE_STATIC  Size = 91 
|------------------------------------------------|----------------|
|00 01 02 03 04 05 06 07 08 09 0A 0B 0C 0D 0E 0F |0123456789ABCDEF|
|------------------------------------------------|----------------|
|00 58 71 20 F9 00 00 0D E5 2D C3 00 12 DC EB 00 |.Xq .....-......|
|0D 8B F0 03 5F 1E 00 00 00 00 00 00 00 00 00 00 |...._...........|
|00 00 64 B7 D3 59 42 00 00 00 00 2E 43 6F 6D 62 |..d..YB.....Comb|
|61 74 20 61 6E 64 20 43 61 72 65 65 72 20 55 53 |at and Career US|
|45 3A 20 47 72 6F 75 6E 64 20 54 61 72 67 65 74 |E: Ground Target|
|20 69 6E 76 69 73 69 62 6C 65 00                |...........     |
-------------------------------------------------------------------
[Server] packet : (0xD7) F_INIT_EFFECTS  Size = 22 
|------------------------------------------------|----------------|
|00 01 02 03 04 05 06 07 08 09 0A 0B 0C 0D 0E 0F |0123456789ABCDEF|
|------------------------------------------------|----------------|
|00 13 D7 01 01 00 00 20 C9 0A 00 2B 3B 78 C9 20 |....... ...+;x. |
|02 02 14 03 14 00                               |......          |
-------------------------------------------------------------------
[Server] packet : (0xDA) F_USE_ABILITY  Size = 23 
|------------------------------------------------|----------------|
|00 01 02 03 04 05 06 07 08 09 0A 0B 0C 0D 0E 0F |0123456789ABCDEF|
|------------------------------------------------|----------------|
|00 14 DA 00 00 3B 2B 20 C9 13 80 20 C9 02 01 00 |.....;+ ... ....|
|00 00 00 00 00 00 00                            |.......         |
-------------------------------------------------------------------
[Server] packet : (0xB9) UNKNOWN  Size = 16 
|------------------------------------------------|----------------|
|00 01 02 03 04 05 06 07 08 09 0A 0B 0C 0D 0E 0F |0123456789ABCDEF|
|------------------------------------------------|----------------|
|00 0D B9 01 00 03 2B C6 00 00 00 00 00 00 02 00 |......+.........|                                                
-------------------------------------------------------------------
[Server] packet : (0xAA) F_GET_ITEM  Size = 200 
|------------------------------------------------|----------------|
|00 01 02 03 04 05 06 07 08 09 0A 0B 0C 0D 0E 0F |0123456789ABCDEF|
|------------------------------------------------|----------------|
|00 C5 AA 01 00 00 00 00 2B 00 00 03 2B C6 0F C3 |........+...+...|
|00 00 00 00 00 00 00 00 00 00 01 01 00 00 00 04 |................|
|00 00 00 00 00 00 00 00 00 00 00 00 00 11 00 01 |................|
|00 01 00 00 00 00 00 00 00 00 00 00 00 00 09 57 |...............W|
|41 52 20 41 65 67 69 73 00 00 01 00 00 3B 2B 02 |AR Aegis.....;+.|
|58 02 58 00 00 00 55 4C 65 74 20 74 68 6F 73 65 |X.X...ULet those|
|20 77 68 6F 20 73 74 61 6E 64 20 62 65 6E 65 61 | who stand benea|
|74 68 20 74 68 69 73 20 62 61 6E 6E 65 72 20 6E |th this banner n|
|65 76 65 72 20 6B 6E 6F 77 20 66 65 61 72 20 69 |ever know fear i|
|6E 20 74 68 65 20 66 61 63 65 20 6F 66 20 74 68 |n the face of th|
|65 69 72 20 65 6E 65 6D 69 65 73 21 01 00 00 00 |eir enemies!....|
|03 06 20 08 01 00 00 00 00 00 00 00 00 00 00 00 |.. .............|
|00 00 00 00 00 00 00 00                         |........        |
-------------------------------------------------------------------
[Server] packet : (0x7E) F_SET_ABILITY_TIMER  Size = 15 
|------------------------------------------------|----------------|
|00 01 02 03 04 05 06 07 08 09 0A 0B 0C 0D 0E 0F |0123456789ABCDEF|
|------------------------------------------------|----------------|
|00 0C 7E 00 01 01 00 00 00 00 00 00 00 00 00    |............... |
-------------------------------------------------------------------
[Client] packet : (0x0B) F_PING  Size = 32 
|------------------------------------------------|----------------|
|00 01 02 03 04 05 06 07 08 09 0A 0B 0C 0D 0E 0F |0123456789ABCDEF|
|------------------------------------------------|----------------|
|00 14 0F AB 00 36 00 00 00 0B 00 15 60 71 55 58 |.....6......`qUX|
|80 96 40 C1 82 7A 00 00 00 00 00 00 00 00 02 A7 |..@..z..........|                                                
-------------------------------------------------------------------
[Server] packet : (0x81) S_PONG  Size = 23 
|------------------------------------------------|----------------|
|00 01 02 03 04 05 06 07 08 09 0A 0B 0C 0D 0E 0F |0123456789ABCDEF|
|------------------------------------------------|----------------|
|00 14 81 00 15 60 71 52 84 B1 03 00 00 00 00 00 |.....`qR........|
|00 0F AC 00 00 00 00                            |.......         |
-------------------------------------------------------------------
[Server] packet : (0xDA) F_USE_ABILITY  Size = 23 
|------------------------------------------------|----------------|
|00 01 02 03 04 05 06 07 08 09 0A 0B 0C 0D 0E 0F |0123456789ABCDEF|
|------------------------------------------------|----------------|
|00 14 DA 00 00 60 A0 39 CF 12 1E 39 CF 01 01 00 |.....`.9...9....|
|00 00 00 00 00 00 00                            |.......         |
-------------------------------------------------------------------
[Server] packet : (0xDA) F_USE_ABILITY  Size = 23 
|------------------------------------------------|----------------|
|00 01 02 03 04 05 06 07 08 09 0A 0B 0C 0D 0E 0F |0123456789ABCDEF|
|------------------------------------------------|----------------|
|00 14 DA 00 00 60 A0 39 CF 12 1E 39 CF 02 01 00 |.....`.9...9....|
|00 00 00 00 00 00 00                            |.......         |
-------------------------------------------------------------------
[Server] packet : (0x1B) F_REQ_CAMPAIGN_STATUS  Size = 15 
|------------------------------------------------|----------------|
|00 01 02 03 04 05 06 07 08 09 0A 0B 0C 0D 0E 0F |0123456789ABCDEF|
|------------------------------------------------|----------------|
|00 0C 1B 00 39 CF 00 00 12 EB 0D 00 0D 8B 00    |............... |
-------------------------------------------------------------------
[Server] packet : (0xDA) F_USE_ABILITY  Size = 23 
|------------------------------------------------|----------------|
|00 01 02 03 04 05 06 07 08 09 0A 0B 0C 0D 0E 0F |0123456789ABCDEF|
|------------------------------------------------|----------------|
|00 14 DA 00 00 60 A0 39 CF 12 1E 39 CF 01 01 00 |.....`.9...9....|
|00 00 00 00 00 00 00                            |.......         |
-------------------------------------------------------------------
[Server] packet : (0xDA) F_USE_ABILITY  Size = 23 
|------------------------------------------------|----------------|
|00 01 02 03 04 05 06 07 08 09 0A 0B 0C 0D 0E 0F |0123456789ABCDEF|
|------------------------------------------------|----------------|
|00 14 DA 00 00 60 A0 39 CF 12 1E 39 CF 02 01 00 |.....`.9...9....|
|00 00 00 00 00 00 00                            |.......         |
-------------------------------------------------------------------
[Client] packet : (0x5A) F_PING_DATAGRAM  Size = 13 
|------------------------------------------------|----------------|
|00 01 02 03 04 05 06 07 08 09 0A 0B 0C 0D 0E 0F |0123456789ABCDEF|
|------------------------------------------------|----------------|
|00 01 0F B4 00 36 FF FF 00 5A 00 5A F8          |.............   |
-------------------------------------------------------------------
[Server] packet : (0xDA) F_USE_ABILITY  Size = 23 
|------------------------------------------------|----------------|
|00 01 02 03 04 05 06 07 08 09 0A 0B 0C 0D 0E 0F |0123456789ABCDEF|
|------------------------------------------------|----------------|
|00 14 DA 00 00 60 A0 39 CF 12 1E 39 CF 01 01 00 |.....`.9...9....|
|00 00 00 00 00 00 00                            |.......         |
-------------------------------------------------------------------
[Server] packet : (0xDA) F_USE_ABILITY  Size = 23 
|------------------------------------------------|----------------|
|00 01 02 03 04 05 06 07 08 09 0A 0B 0C 0D 0E 0F |0123456789ABCDEF|
|------------------------------------------------|----------------|
|00 14 DA 00 00 60 A0 39 CF 12 1E 39 CF 02 01 00 |.....`.9...9....|
|00 00 00 00 00 00 00                            |.......         |
-------------------------------------------------------------------
[Client] packet : (0x01) UNKNOWN  Size = 32 
|------------------------------------------------|----------------|
|00 01 02 03 04 05 06 07 08 09 0A 0B 0C 0D 0E 0F |0123456789ABCDEF|
|------------------------------------------------|----------------|
|00 14 0F B5 00 36 00 00 00 01 00 15 6E 38 00 00 |.....6......n8..|
|00 00 00 00 00 00 00 00 06 0A 00 00 12 11 00 00 |................|                                                
-------------------------------------------------------------------
[Client] packet : (0x0B) F_PING  Size = 32 
|------------------------------------------------|----------------|
|00 01 02 03 04 05 06 07 08 09 0A 0B 0C 0D 0E 0F |0123456789ABCDEF|
|------------------------------------------------|----------------|
|00 14 0F B6 00 36 00 00 00 0B 00 15 74 09 D3 58 |.....6......t..X|
|C5 13 40 C0 9C 10 00 00 00 00 00 00 00 00 76 DD |..@...........v.|                                                
-------------------------------------------------------------------
[Server] packet : (0x81) S_PONG  Size = 23 
|------------------------------------------------|----------------|
|00 01 02 03 04 05 06 07 08 09 0A 0B 0C 0D 0E 0F |0123456789ABCDEF|
|------------------------------------------------|----------------|
|00 14 81 00 15 74 09 52 84 B1 08 00 00 00 00 00 |.....t.R........|
|00 0F B7 00 00 00 00                            |.......         |
-------------------------------------------------------------------
[Server] packet : (0x00) UNKNOWN  Size = 23 
|------------------------------------------------|----------------|
|00 01 02 03 04 05 06 07 08 09 0A 0B 0C 0D 0E 0F |0123456789ABCDEF|
|------------------------------------------------|----------------|
|00 14 00 00 15 6E 38 B7 D3 6E F3 00 00 00 00 00 |.....n8..n......|
|00 06 0A 00 00 12 00                            |.......         |
-------------------------------------------------------------------
[Server] packet : (0x1B) F_REQ_CAMPAIGN_STATUS  Size = 15 
|------------------------------------------------|----------------|
|00 01 02 03 04 05 06 07 08 09 0A 0B 0C 0D 0E 0F |0123456789ABCDEF|
|------------------------------------------------|----------------|
|00 0C 1B 00 39 CF 00 00 12 E7 9B 00 0D 85 00    |............... |
-------------------------------------------------------------------
[Server] packet : (0xDA) F_USE_ABILITY  Size = 23 
|------------------------------------------------|----------------|
|00 01 02 03 04 05 06 07 08 09 0A 0B 0C 0D 0E 0F |0123456789ABCDEF|
|------------------------------------------------|----------------|
|00 14 DA 00 00 60 A0 39 CF 12 1E 39 CF 01 01 00 |.....`.9...9....|
|00 00 00 00 00 00 00                            |.......         |
-------------------------------------------------------------------
[Server] packet : (0xDA) F_USE_ABILITY  Size = 23 
|------------------------------------------------|----------------|
|00 01 02 03 04 05 06 07 08 09 0A 0B 0C 0D 0E 0F |0123456789ABCDEF|
|------------------------------------------------|----------------|
|00 14 DA 00 00 60 A0 39 CF 12 1E 39 CF 02 01 00 |.....`.9...9....|
|00 00 00 00 00 00 00                            |.......         |
-------------------------------------------------------------------
[Server] packet : (0xDA) F_USE_ABILITY  Size = 23 
|------------------------------------------------|----------------|
|00 01 02 03 04 05 06 07 08 09 0A 0B 0C 0D 0E 0F |0123456789ABCDEF|
|------------------------------------------------|----------------|
|00 14 DA 00 00 60 A0 39 CF 12 1E 39 CF 01 01 00 |.....`.9...9....|
|00 00 00 00 00 00 00                            |.......         |
-------------------------------------------------------------------
[Server] packet : (0xDA) F_USE_ABILITY  Size = 23 
|------------------------------------------------|----------------|
|00 01 02 03 04 05 06 07 08 09 0A 0B 0C 0D 0E 0F |0123456789ABCDEF|
|------------------------------------------------|----------------|
|00 14 DA 00 00 60 A0 39 CF 12 1E 39 CF 02 01 00 |.....`.9...9....|
|00 00 00 00 00 00 00                            |.......         |
-------------------------------------------------------------------
[Server] packet : (0xD7) F_INIT_EFFECTS  Size = 14 
|------------------------------------------------|----------------|
|00 01 02 03 04 05 06 07 08 09 0A 0B 0C 0D 0E 0F |0123456789ABCDEF|
|------------------------------------------------|----------------|
|00 0B D7 01 02 60 0B 20 C9 0D 00 54 60 00       |..............  |
-------------------------------------------------------------------
[Server] packet : (0xD7) F_INIT_EFFECTS  Size = 20 
|------------------------------------------------|----------------|
|00 01 02 03 04 05 06 07 08 09 0A 0B 0C 0D 0E 0F |0123456789ABCDEF|
|------------------------------------------------|----------------|
|00 11 D7 01 01 AF 31 20 C9 0B 00 54 60 00 C9 20 |......1 ...T`.. |
|01 00 64 00                                     |....            |
-------------------------------------------------------------------
[Client] packet : (0x0B) F_PING  Size = 32 
|------------------------------------------------|----------------|
|00 01 02 03 04 05 06 07 08 09 0A 0B 0C 0D 0E 0F |0123456789ABCDEF|
|------------------------------------------------|----------------|
|00 14 0F C1 00 36 00 00 00 0B 00 15 87 9F 3D 1F |.....6........=.|
|3F E9 B1 BE 49 7E 00 00 00 00 00 00 00 00 02 E8 |?...I~..........|                                                
-------------------------------------------------------------------
[Server] packet : (0x81) S_PONG  Size = 23 
|------------------------------------------------|----------------|
|00 01 02 03 04 05 06 07 08 09 0A 0B 0C 0D 0E 0F |0123456789ABCDEF|
|------------------------------------------------|----------------|
|00 14 81 00 15 87 9F 52 84 B1 0D 00 00 00 00 00 |.......R........|
|00 0F C2 00 00 00 00                            |.......         |
-------------------------------------------------------------------
[Server] packet : (0xDA) F_USE_ABILITY  Size = 23 
|------------------------------------------------|----------------|
|00 01 02 03 04 05 06 07 08 09 0A 0B 0C 0D 0E 0F |0123456789ABCDEF|
|------------------------------------------------|----------------|
|00 14 DA 00 00 60 A0 39 CF 12 1E 39 CF 01 01 00 |.....`.9...9....|
|00 00 00 00 00 00 00                            |.......         |
-------------------------------------------------------------------
[Server] packet : (0xDA) F_USE_ABILITY  Size = 23 
|------------------------------------------------|----------------|
|00 01 02 03 04 05 06 07 08 09 0A 0B 0C 0D 0E 0F |0123456789ABCDEF|
|------------------------------------------------|----------------|
|00 14 DA 00 00 60 A0 39 CF 12 1E 39 CF 02 01 00 |.....`.9...9....|
|00 00 00 00 00 00 00                            |.......         |
-------------------------------------------------------------------
[Server] packet : (0x1B) F_REQ_CAMPAIGN_STATUS  Size = 15 
|------------------------------------------------|----------------|
|00 01 02 03 04 05 06 07 08 09 0A 0B 0C 0D 0E 0F |0123456789ABCDEF|
|------------------------------------------------|----------------|
|00 0C 1B 00 39 CF 00 00 12 E2 BE 00 0D 81 00    |............... |
-------------------------------------------------------------------
[Server] packet : (0xDA) F_USE_ABILITY  Size = 23 
|------------------------------------------------|----------------|
|00 01 02 03 04 05 06 07 08 09 0A 0B 0C 0D 0E 0F |0123456789ABCDEF|
|------------------------------------------------|----------------|
|00 14 DA 00 00 60 A0 39 CF 12 1E 39 CF 01 01 00 |.....`.9...9....|
|00 00 00 00 00 00 00                            |.......         |
-------------------------------------------------------------------
[Server] packet : (0xDA) F_USE_ABILITY  Size = 23 
|------------------------------------------------|----------------|
|00 01 02 03 04 05 06 07 08 09 0A 0B 0C 0D 0E 0F |0123456789ABCDEF|
|------------------------------------------------|----------------|
|00 14 DA 00 00 60 A0 39 CF 12 1E 39 CF 02 01 00 |.....`.9...9....|
|00 00 00 00 00 00 00                            |.......         |
-------------------------------------------------------------------
[Client] packet : (0x0B) F_PING  Size = 32 
|------------------------------------------------|----------------|
|00 01 02 03 04 05 06 07 08 09 0A 0B 0C 0D 0E 0F |0123456789ABCDEF|
|------------------------------------------------|----------------|
|00 14 0F CB 00 36 00 00 00 0B 00 15 9B 2C A4 98 |.....6.......,..|
|C6 00 15 C1 25 35 00 00 00 00 00 00 00 00 02 E8 |....%5..........|                                                
-------------------------------------------------------------------
[Server] packet : (0x81) S_PONG  Size = 23 
|------------------------------------------------|----------------|
|00 01 02 03 04 05 06 07 08 09 0A 0B 0C 0D 0E 0F |0123456789ABCDEF|
|------------------------------------------------|----------------|
|00 14 81 00 15 9B 2C 52 84 B1 12 00 00 00 00 00 |......,R........|
|00 0F CC 00 00 00 00                            |.......         |
-------------------------------------------------------------------
[Client] packet : (0x01) UNKNOWN  Size = 32 
|------------------------------------------------|----------------|
|00 01 02 03 04 05 06 07 08 09 0A 0B 0C 0D 0E 0F |0123456789ABCDEF|
|------------------------------------------------|----------------|
|00 14 0F CD 00 36 00 00 00 01 00 15 96 6B 00 23 |.....6.......k.#|
|39 B0 08 18 C0 4A 20 07 3A 6E 90 38 43 DE 97 B5 |9....J .:n.8C...|                                                
-------------------------------------------------------------------
[Server] packet : (0x00) UNKNOWN  Size = 23 
|------------------------------------------------|----------------|
|00 01 02 03 04 05 06 07 08 09 0A 0B 0C 0D 0E 0F |0123456789ABCDEF|
|------------------------------------------------|----------------|
|00 14 00 00 15 96 6B B7 D3 97 37 00 00 00 00 20 |......k...7.... |
|07 3A 6E 90 38 43 00                            |.......         |
-------------------------------------------------------------------
[Server] packet : (0xDA) F_USE_ABILITY  Size = 23 
|------------------------------------------------|----------------|
|00 01 02 03 04 05 06 07 08 09 0A 0B 0C 0D 0E 0F |0123456789ABCDEF|
|------------------------------------------------|----------------|
|00 14 DA 00 00 60 A0 39 CF 12 1E 39 CF 01 01 00 |.....`.9...9....|
|00 00 00 00 00 00 00                            |.......         |
-------------------------------------------------------------------
[Server] packet : (0xDA) F_USE_ABILITY  Size = 23 
|------------------------------------------------|----------------|
|00 01 02 03 04 05 06 07 08 09 0A 0B 0C 0D 0E 0F |0123456789ABCDEF|
|------------------------------------------------|----------------|
|00 14 DA 00 00 60 A0 39 CF 12 1E 39 CF 02 01 00 |.....`.9...9....|
|00 00 00 00 00 00 00                            |.......         |
-------------------------------------------------------------------
[Server] packet : (0x1B) F_REQ_CAMPAIGN_STATUS  Size = 15 
|------------------------------------------------|----------------|
|00 01 02 03 04 05 06 07 08 09 0A 0B 0C 0D 0E 0F |0123456789ABCDEF|
|------------------------------------------------|----------------|
|00 0C 1B 00 39 CF 00 00 12 DC 3B 00 0D 80 00    |............... |
-------------------------------------------------------------------
[Server] packet : (0xDA) F_USE_ABILITY  Size = 23 
|------------------------------------------------|----------------|
|00 01 02 03 04 05 06 07 08 09 0A 0B 0C 0D 0E 0F |0123456789ABCDEF|
|------------------------------------------------|----------------|
|00 14 DA 00 00 60 A0 39 CF 12 1E 39 CF 01 01 00 |.....`.9...9....|
|00 00 00 00 00 00 00                            |.......         |
-------------------------------------------------------------------
[Server] packet : (0xDA) F_USE_ABILITY  Size = 23 
|------------------------------------------------|----------------|
|00 01 02 03 04 05 06 07 08 09 0A 0B 0C 0D 0E 0F |0123456789ABCDEF|
|------------------------------------------------|----------------|
|00 14 DA 00 00 60 A0 39 CF 12 1E 39 CF 02 01 00 |.....`.9...9....|
|00 00 00 00 00 00 00                            |.......         |
-------------------------------------------------------------------
[Client] packet : (0x5A) F_PING_DATAGRAM  Size = 13 
|------------------------------------------------|----------------|
|00 01 02 03 04 05 06 07 08 09 0A 0B 0C 0D 0E 0F |0123456789ABCDEF|
|------------------------------------------------|----------------|
|00 01 0F D6 00 36 FF FF 00 5A 00 28 08          |.............   |
-------------------------------------------------------------------
[Client] packet : (0x0B) F_PING  Size = 32 
|------------------------------------------------|----------------|
|00 01 02 03 04 05 06 07 08 09 0A 0B 0C 0D 0E 0F |0123456789ABCDEF|
|------------------------------------------------|----------------|
|00 14 0F D7 00 36 00 00 00 0B 00 15 AE BB 68 BF |.....6........h.|
|EE 6E 98 3D F1 7E 00 00 00 00 00 00 00 00 02 E8 |.n.=.~..........|                                                
-------------------------------------------------------------------
[Server] packet : (0x81) S_PONG  Size = 23 
|------------------------------------------------|----------------|
|00 01 02 03 04 05 06 07 08 09 0A 0B 0C 0D 0E 0F |0123456789ABCDEF|
|------------------------------------------------|----------------|
|00 14 81 00 15 AE BB 52 84 B1 17 00 00 00 00 00 |.......R........|
|00 0F D8 00 00 00 00                            |.......         |
-------------------------------------------------------------------
[Server] packet : (0xDA) F_USE_ABILITY  Size = 23 
|------------------------------------------------|----------------|
|00 01 02 03 04 05 06 07 08 09 0A 0B 0C 0D 0E 0F |0123456789ABCDEF|
|------------------------------------------------|----------------|
|00 14 DA 00 00 60 A0 39 CF 12 1E 39 CF 01 01 00 |.....`.9...9....|
|00 00 00 00 00 00 00                            |.......         |
-------------------------------------------------------------------
[Server] packet : (0xDA) F_USE_ABILITY  Size = 23 
|------------------------------------------------|----------------|
|00 01 02 03 04 05 06 07 08 09 0A 0B 0C 0D 0E 0F |0123456789ABCDEF|
|------------------------------------------------|----------------|
|00 14 DA 00 00 60 A0 39 CF 12 1E 39 CF 02 01 00 |.....`.9...9....|
|00 00 00 00 00 00 00                            |.......         |
-------------------------------------------------------------------
[Server] packet : (0x1B) F_REQ_CAMPAIGN_STATUS  Size = 15 
|------------------------------------------------|----------------|
|00 01 02 03 04 05 06 07 08 09 0A 0B 0C 0D 0E 0F |0123456789ABCDEF|
|------------------------------------------------|----------------|
|00 0C 1B 00 39 CF 00 00 12 D5 C2 00 0D 7E 00    |............... |
-------------------------------------------------------------------
[Server] packet : (0xDA) F_USE_ABILITY  Size = 23 
|------------------------------------------------|----------------|
|00 01 02 03 04 05 06 07 08 09 0A 0B 0C 0D 0E 0F |0123456789ABCDEF|
|------------------------------------------------|----------------|
|00 14 DA 00 00 60 A0 39 CF 12 1E 39 CF 01 01 00 |.....`.9...9....|
|00 00 00 00 00 00 00                            |.......         |
-------------------------------------------------------------------
[Server] packet : (0xDA) F_USE_ABILITY  Size = 23 
|------------------------------------------------|----------------|
|00 01 02 03 04 05 06 07 08 09 0A 0B 0C 0D 0E 0F |0123456789ABCDEF|
|------------------------------------------------|----------------|
|00 14 DA 00 00 60 A0 39 CF 12 1E 39 CF 02 01 00 |.....`.9...9....|
|00 00 00 00 00 00 00                            |.......         |
-------------------------------------------------------------------
[Server] packet : (0xDA) F_USE_ABILITY  Size = 23 
|------------------------------------------------|----------------|
|00 01 02 03 04 05 06 07 08 09 0A 0B 0C 0D 0E 0F |0123456789ABCDEF|
|------------------------------------------------|----------------|
|00 14 DA 00 00 60 A0 39 CF 12 1E 39 CF 01 01 00 |.....`.9...9....|
|00 00 00 00 00 00 00                            |.......         |
-------------------------------------------------------------------
[Server] packet : (0xDA) F_USE_ABILITY  Size = 23 
|------------------------------------------------|----------------|
|00 01 02 03 04 05 06 07 08 09 0A 0B 0C 0D 0E 0F |0123456789ABCDEF|
|------------------------------------------------|----------------|
|00 14 DA 00 00 60 A0 39 CF 12 1E 39 CF 02 01 00 |.....`.9...9....|
|00 00 00 00 00 00 00                            |.......         |
-------------------------------------------------------------------
[Client] packet : (0x0B) F_PING  Size = 32 
|------------------------------------------------|----------------|
|00 01 02 03 04 05 06 07 08 09 0A 0B 0C 0D 0E 0F |0123456789ABCDEF|
|------------------------------------------------|----------------|
|00 14 0F E2 00 36 00 00 00 0B 00 15 C2 49 8D B8 |.....6.......I..|
|D0 95 01 C4 23 11 00 00 00 00 00 00 00 00 02 E8 |....#...........|                                                
-------------------------------------------------------------------
[Server] packet : (0x81) S_PONG  Size = 23 
|------------------------------------------------|----------------|
|00 01 02 03 04 05 06 07 08 09 0A 0B 0C 0D 0E 0F |0123456789ABCDEF|
|------------------------------------------------|----------------|
|00 14 81 00 15 C2 49 52 84 B1 1C 00 00 00 00 00 |......IR........|
|00 0F E3 00 00 00 00                            |.......         |
-------------------------------------------------------------------
[Client] packet : (0x01) UNKNOWN  Size = 32 
|------------------------------------------------|----------------|
|00 01 02 03 04 05 06 07 08 09 0A 0B 0C 0D 0E 0F |0123456789ABCDEF|
|------------------------------------------------|----------------|
|00 14 0F E3 00 36 00 00 00 01 00 15 BE A5 00 00 |.....6..........|
|00 00 00 00 00 00 00 00 10 82 00 00 16 81 00 00 |................|                                                
-------------------------------------------------------------------
[Server] packet : (0x00) UNKNOWN  Size = 23 
|------------------------------------------------|----------------|
|00 01 02 03 04 05 06 07 08 09 0A 0B 0C 0D 0E 0F |0123456789ABCDEF|
|------------------------------------------------|----------------|
|00 14 00 00 15 BE A5 B7 D3 BF 5D 00 00 00 00 00 |..........].....|
|00 10 82 00 00 16 00                            |.......         |
-------------------------------------------------------------------
[Server] packet : (0x1B) F_REQ_CAMPAIGN_STATUS  Size = 15 
|------------------------------------------------|----------------|
|00 01 02 03 04 05 06 07 08 09 0A 0B 0C 0D 0E 0F |0123456789ABCDEF|
|------------------------------------------------|----------------|
|00 0C 1B 00 39 CF 00 00 12 CF 8E 00 0D 7E 00    |............... |
-------------------------------------------------------------------
[Server] packet : (0xDA) F_USE_ABILITY  Size = 23 
|------------------------------------------------|----------------|
|00 01 02 03 04 05 06 07 08 09 0A 0B 0C 0D 0E 0F |0123456789ABCDEF|
|------------------------------------------------|----------------|
|00 14 DA 00 00 60 A0 39 CF 12 1E 39 CF 01 01 00 |.....`.9...9....|
|00 00 00 00 00 00 00                            |.......         |
-------------------------------------------------------------------
[Server] packet : (0xDA) F_USE_ABILITY  Size = 23 
|------------------------------------------------|----------------|
|00 01 02 03 04 05 06 07 08 09 0A 0B 0C 0D 0E 0F |0123456789ABCDEF|
|------------------------------------------------|----------------|
|00 14 DA 00 00 60 A0 39 CF 12 1E 39 CF 02 01 00 |.....`.9...9....|
|00 00 00 00 00 00 00                            |.......         |
-------------------------------------------------------------------
[Server] packet : (0xA9) F_UPDATE_HOT_SPOT  Size = 406 
|------------------------------------------------|----------------|
|00 01 02 03 04 05 06 07 08 09 0A 0B 0C 0D 0E 0F |0123456789ABCDEF|
|------------------------------------------------|----------------|
|01 93 A9 50 02 00 01 00 00 00 00 02 00 00 00 00 |...P............|
|03 00 00 00 00 04 00 00 00 00 05 00 00 00 00 06 |................|
|00 00 00 00 07 00 00 00 00 08 00 00 00 00 09 00 |................|
|00 00 00 0A 00 00 00 00 0B 00 00 00 00 1A 00 00 |................|
|00 00 1B 00 00 00 00 44 00 00 00 00 46 00 00 00 |.......D....F...|
|00 47 00 00 00 00 4A 00 00 00 00 4B 00 00 00 00 |.G....J....K....|
|58 00 00 00 00 64 00 00 00 00 65 00 00 00 00 66 |X....d....e....f|
|00 00 00 00 67 00 00 00 00 68 00 00 00 00 69 04 |....g....h....i.|
|00 00 00 6A 00 00 00 00 6B 00 00 00 00 6C 00 00 |...j....k....l..|
|00 00 6D 00 00 00 00 6E 00 00 00 00 75 00 00 00 |..m....n....u...|
|00 76 00 00 00 00 78 00 00 00 00 81 00 00 00 00 |.v....x.........|
|90 00 00 00 00 91 00 00 00 00 A1 00 00 00 00 A2 |................|
|00 00 00 00 AF 00 00 00 00 B2 00 00 00 00 BE 00 |................|
|00 00 00 BF 00 00 00 00 C0 00 00 00 00 C1 00 00 |................|
|00 00 C6 00 00 00 00 C8 00 00 00 00 C9 00 00 00 |................|
|00 CA 00 00 00 00 CB 00 00 00 00 CC 00 00 00 00 |................|
|CD 00 00 00 00 CE 00 00 00 00 CF 00 00 00 00 D0 |................|
|00 00 00 00 D1 00 00 00 00 D2 00 00 00 00 D3 00 |................|
|00 00 00 D5 00 00 00 00 D7 00 00 00 00 D8 00 00 |................|
|00 00 D9 00 00 00 00 DC 00 00 00 00 DD 00 00 00 |................|
|00 DE 00 00 00 00 E3 00 00 00 00 E4 00 00 00 00 |................|
|FA 00 00 00 00 FB 00 00 00 00 FC 00 00 00 00 FD |................|
|00 00 00 01 15 00 00 00 01 16 00 00 00 01 18 00 |................|
|00 00 01 1B 00 00 00 01 1C 00 00 00 01 1D 00 00 |................|
|00 01 1F 00 00 00 01 22 00 00 00 01 23 00 00 00 |......."....#...|
|01 24 00 00 00 00                               |......          |
-------------------------------------------------------------------
[Client] packet : (0x0B) F_PING  Size = 32 
|------------------------------------------------|----------------|
|00 01 02 03 04 05 06 07 08 09 0A 0B 0C 0D 0E 0F |0123456789ABCDEF|
|------------------------------------------------|----------------|
|00 14 0F ED 00 36 00 00 00 0B 00 15 D5 D9 11 90 |.....6..........|
|51 15 60 04 9D 73 00 00 00 00 00 00 00 00 02 E8 |Q.`..s..........|                                                
-------------------------------------------------------------------
[Server] packet : (0x81) S_PONG  Size = 23 
|------------------------------------------------|----------------|
|00 01 02 03 04 05 06 07 08 09 0A 0B 0C 0D 0E 0F |0123456789ABCDEF|
|------------------------------------------------|----------------|
|00 14 81 00 15 D5 D9 52 84 B1 21 00 00 00 00 00 |.......R..!.....|
|00 0F EE 00 00 00 00                            |.......         |
-------------------------------------------------------------------
[Server] packet : (0x6F) F_LOCALIZED_STRING  Size = 58 
|------------------------------------------------|----------------|
|00 01 02 03 04 05 06 07 08 09 0A 0B 0C 0D 0E 0F |0123456789ABCDEF|
|------------------------------------------------|----------------|
|00 37 6F 01 17 00 00 00 44 00 00 00 01 01 00 2A |.7o.....D......*|
|47 75 74 74 65 72 20 52 75 6E 6E 65 72 20 73 70 |Gutter Runner sp|
|6F 74 74 65 64 20 6E 65 61 72 20 46 65 69 74 65 |otted near Feite|
|6E 27 73 20 4C 6F 63 6B 21 00                   |..........      |
-------------------------------------------------------------------
[Server] packet : (0x6F) F_LOCALIZED_STRING  Size = 58 
|------------------------------------------------|----------------|
|00 01 02 03 04 05 06 07 08 09 0A 0B 0C 0D 0E 0F |0123456789ABCDEF|
|------------------------------------------------|----------------|
|00 37 6F 02 11 00 00 00 44 00 00 00 01 01 00 2A |.7o.....D......*|
|47 75 74 74 65 72 20 52 75 6E 6E 65 72 20 73 70 |Gutter Runner sp|
|6F 74 74 65 64 20 6E 65 61 72 20 46 65 69 74 65 |otted near Feite|
|6E 27 73 20 4C 6F 63 6B 21 00                   |..........      |
-------------------------------------------------------------------
[Server] packet : (0x1B) F_REQ_CAMPAIGN_STATUS  Size = 15 
|------------------------------------------------|----------------|
|00 01 02 03 04 05 06 07 08 09 0A 0B 0C 0D 0E 0F |0123456789ABCDEF|
|------------------------------------------------|----------------|
|00 0C 1B 00 39 CF 00 00 12 C7 6C 00 0D 7C 00    |............... |
-------------------------------------------------------------------
[Client] packet : (0x5A) F_PING_DATAGRAM  Size = 13 
|------------------------------------------------|----------------|
|00 01 02 03 04 05 06 07 08 09 0A 0B 0C 0D 0E 0F |0123456789ABCDEF|
|------------------------------------------------|----------------|
|00 01 0F F7 00 36 FF FF 00 5A 00 F6 18          |.............   |
-------------------------------------------------------------------
[Client] packet : (0x0B) F_PING  Size = 32 
|------------------------------------------------|----------------|
|00 01 02 03 04 05 06 07 08 09 0A 0B 0C 0D 0E 0F |0123456789ABCDEF|
|------------------------------------------------|----------------|
|00 14 0F F8 00 36 00 00 00 0B 00 15 E9 64 B6 08 |.....6.......d..|
|C2 41 D4 A4 13 11 00 00 00 00 00 00 00 00 02 E8 |.A..............|                                                
-------------------------------------------------------------------
[Server] packet : (0x81) S_PONG  Size = 23 
|------------------------------------------------|----------------|
|00 01 02 03 04 05 06 07 08 09 0A 0B 0C 0D 0E 0F |0123456789ABCDEF|
|------------------------------------------------|----------------|
|00 14 81 00 15 E9 64 52 84 B1 26 00 00 00 00 00 |......dR..&.....|
|00 0F F9 00 00 00 00                            |.......         |
-------------------------------------------------------------------
[Client] packet : (0x01) UNKNOWN  Size = 32 
|------------------------------------------------|----------------|
|00 01 02 03 04 05 06 07 08 09 0A 0B 0C 0D 0E 0F |0123456789ABCDEF|
|------------------------------------------------|----------------|
|00 14 0F FA 00 36 00 00 00 01 00 15 E6 E5 00 00 |.....6..........|
|00 00 00 00 00 00 00 00 44 85 00 00 0C 81 00 00 |........D.......|                                                
-------------------------------------------------------------------
[Server] packet : (0x00) UNKNOWN  Size = 23 
|------------------------------------------------|----------------|
|00 01 02 03 04 05 06 07 08 09 0A 0B 0C 0D 0E 0F |0123456789ABCDEF|
|------------------------------------------------|----------------|
|00 14 00 00 15 E6 E5 B7 D3 E7 D2 00 00 00 00 00 |................|
|00 44 85 00 00 0C 00                            |.......         |
-------------------------------------------------------------------
[Server] packet : (0x1B) F_REQ_CAMPAIGN_STATUS  Size = 15 
|------------------------------------------------|----------------|
|00 01 02 03 04 05 06 07 08 09 0A 0B 0C 0D 0E 0F |0123456789ABCDEF|
|------------------------------------------------|----------------|
|00 0C 1B 00 39 CF 00 00 12 BF EB 00 0D 7B 00    |............... |
-------------------------------------------------------------------
[Server] packet : (0xD7) F_INIT_EFFECTS  Size = 14 
|------------------------------------------------|----------------|
|00 01 02 03 04 05 06 07 08 09 0A 0B 0C 0D 0E 0F |0123456789ABCDEF|
|------------------------------------------------|----------------|
|00 0B D7 01 02 00 00 20 C9 0B 00 54 60 00       |..............  |
-------------------------------------------------------------------
[Server] packet : (0xD7) F_INIT_EFFECTS  Size = 20 
|------------------------------------------------|----------------|
|00 01 02 03 04 05 06 07 08 09 0A 0B 0C 0D 0E 0F |0123456789ABCDEF|
|------------------------------------------------|----------------|
|00 11 D7 01 01 AF 31 20 C9 0F 00 54 60 00 C9 20 |......1 ...T`.. |
|01 00 64 00                                     |....            |
-------------------------------------------------------------------
[Client] packet : (0x0B) F_PING  Size = 32 
|------------------------------------------------|----------------|
|00 01 02 03 04 05 06 07 08 09 0A 0B 0C 0D 0E 0F |0123456789ABCDEF|
|------------------------------------------------|----------------|
|00 14 10 03 00 36 00 00 00 0B 00 15 FC F3 37 87 |.....6........7.|
|6A EF BB BC 46 3F 00 00 00 00 00 00 00 00 02 E8 |j...F?..........|                                                
-------------------------------------------------------------------
[Server] packet : (0x81) S_PONG  Size = 23 
|------------------------------------------------|----------------|
|00 01 02 03 04 05 06 07 08 09 0A 0B 0C 0D 0E 0F |0123456789ABCDEF|
|------------------------------------------------|----------------|
|00 14 81 00 15 FC F3 52 84 B1 2B 00 00 00 00 00 |.......R..+.....|
|00 10 04 00 00 00 00                            |.......         |
-------------------------------------------------------------------
[Client] packet : (0xFE) F_PLAY_VOICE_OVER  Size = 16 
|------------------------------------------------|----------------|
|00 01 02 03 04 05 06 07 08 09 0A 0B 0C 0D 0E 0F |0123456789ABCDEF|
|------------------------------------------------|----------------|
|00 04 10 07 00 36 FF FF 00 FE 02 00 00 00 58 94 |.....6........X.|                                                
-------------------------------------------------------------------
[Server] packet : (0x74) UNKNOWN  Size = 44 
|------------------------------------------------|----------------|
|00 01 02 03 04 05 06 07 08 09 0A 0B 0C 0D 0E 0F |0123456789ABCDEF|
|------------------------------------------------|----------------|
|00 29 74 01 01 00 00 00 04 02 00 00 02 00 03 00 |.)t.............|
|00 00 00 00 00 00 01 00 01 00 00 01 F4 00 00 01 |................|
|B5 02 00 01 00 00 01 F4 00 00 01 00             |............    |
-------------------------------------------------------------------
[Server] packet : (0x1B) F_REQ_CAMPAIGN_STATUS  Size = 15 
|------------------------------------------------|----------------|
|00 01 02 03 04 05 06 07 08 09 0A 0B 0C 0D 0E 0F |0123456789ABCDEF|
|------------------------------------------------|----------------|
|00 0C 1B 00 39 CF 00 00 12 B9 B6 00 0D 77 00    |............... |
-------------------------------------------------------------------
[Client] packet : (0x0B) F_PING  Size = 32 
|------------------------------------------------|----------------|
|00 01 02 03 04 05 06 07 08 09 0A 0B 0C 0D 0E 0F |0123456789ABCDEF|
|------------------------------------------------|----------------|
|00 14 10 0F 00 36 00 00 00 0B 00 16 10 83 39 17 |.....6........9.|
|7F EA D0 3A C9 55 00 00 00 00 00 00 00 00 02 E8 |...:.U..........|                                                
-------------------------------------------------------------------
[Server] packet : (0x81) S_PONG  Size = 23 
|------------------------------------------------|----------------|
|00 01 02 03 04 05 06 07 08 09 0A 0B 0C 0D 0E 0F |0123456789ABCDEF|
|------------------------------------------------|----------------|
|00 14 81 00 16 10 83 52 84 B1 30 00 00 00 00 00 |.......R..0.....|
|00 10 10 00 00 00 00                            |.......         |
-------------------------------------------------------------------
[Client] packet : (0x01) UNKNOWN  Size = 32 
|------------------------------------------------|----------------|
|00 01 02 03 04 05 06 07 08 09 0A 0B 0C 0D 0E 0F |0123456789ABCDEF|
|------------------------------------------------|----------------|
|00 14 10 12 00 36 00 00 00 01 00 16 0F 1F 00 23 |.....6.........#|
|39 B0 08 18 C0 4A 20 07 2A 7C 90 38 49 F4 11 BA |9....J .*|.8I...|                                                
-------------------------------------------------------------------
[Server] packet : (0x00) UNKNOWN  Size = 23 
|------------------------------------------------|----------------|
|00 01 02 03 04 05 06 07 08 09 0A 0B 0C 0D 0E 0F |0123456789ABCDEF|
|------------------------------------------------|----------------|
|00 14 00 00 16 0F 1F B7 D4 0F F2 00 00 00 00 20 |............... |
|07 2A 7C 90 38 49 00                            |.......         |
-------------------------------------------------------------------
[Server] packet : (0x1B) F_REQ_CAMPAIGN_STATUS  Size = 42 
|------------------------------------------------|----------------|
|00 01 02 03 04 05 06 07 08 09 0A 0B 0C 0D 0E 0F |0123456789ABCDEF|
|------------------------------------------------|----------------|
|00 27 1B 00 13 41 18 43 68 61 6F 73 20 52 65 73 |.'...A.Chaos Res|
|6F 75 72 63 65 20 43 61 72 72 69 65 72 5E 6D 00 |ource Carrier^m.|
|05 AD 00 12 EB 6A 00 0D 6D 00                   |..........      |
-------------------------------------------------------------------
[Server] packet : (0x6F) F_LOCALIZED_STRING  Size = 72 
|------------------------------------------------|----------------|
|00 01 02 03 04 05 06 07 08 09 0A 0B 0C 0D 0E 0F |0123456789ABCDEF|
|------------------------------------------------|----------------|
|00 45 6F 02 11 00 00 00 44 00 00 00 01 01 00 38 |.Eo.....D......8|
|52 65 73 6F 75 72 63 65 20 43 61 72 72 69 65 72 |Resource Carrier|
|20 69 73 20 61 77 61 69 74 69 6E 67 20 6F 72 64 | is awaiting ord|
|65 72 73 20 61 74 20 4F 67 72 75 6E 64 27 73 20 |ers at Ogrund's |
|54 61 76 65 72 6E 21 00                         |........        |
-------------------------------------------------------------------
[Server] packet : (0x6F) F_LOCALIZED_STRING  Size = 72 
|------------------------------------------------|----------------|
|00 01 02 03 04 05 06 07 08 09 0A 0B 0C 0D 0E 0F |0123456789ABCDEF|
|------------------------------------------------|----------------|
|00 45 6F 01 16 00 00 00 44 00 00 00 01 01 00 38 |.Eo.....D......8|
|52 65 73 6F 75 72 63 65 20 43 61 72 72 69 65 72 |Resource Carrier|
|20 69 73 20 61 77 61 69 74 69 6E 67 20 6F 72 64 | is awaiting ord|
|65 72 73 20 61 74 20 4F 67 72 75 6E 64 27 73 20 |ers at Ogrund's |
|54 61 76 65 72 6E 21 00                         |........        |
-------------------------------------------------------------------
[Client] packet : (0x5A) F_PING_DATAGRAM  Size = 13 
|------------------------------------------------|----------------|
|00 01 02 03 04 05 06 07 08 09 0A 0B 0C 0D 0E 0F |0123456789ABCDEF|
|------------------------------------------------|----------------|
|00 01 10 19 00 36 FF FF 00 5A 00 CD 20          |.............   |
-------------------------------------------------------------------
[Client] packet : (0x0B) F_PING  Size = 32 
|------------------------------------------------|----------------|
|00 01 02 03 04 05 06 07 08 09 0A 0B 0C 0D 0E 0F |0123456789ABCDEF|
|------------------------------------------------|----------------|
|00 14 10 1A 00 36 00 00 00 0B 00 16 24 1B 6A F7 |.....6......$.j.|
|EF 6D 99 38 5E BE 00 00 00 00 00 00 00 00 02 E8 |.m.8^...........|                                                
-------------------------------------------------------------------
[Server] packet : (0x81) S_PONG  Size = 23 
|------------------------------------------------|----------------|
|00 01 02 03 04 05 06 07 08 09 0A 0B 0C 0D 0E 0F |0123456789ABCDEF|
|------------------------------------------------|----------------|
|00 14 81 00 16 24 1B 52 84 B1 35 00 00 00 00 00 |.....$.R..5.....|
|00 10 1B 00 00 00 00                            |.......         |
-------------------------------------------------------------------
[Server] packet : (0x1B) F_REQ_CAMPAIGN_STATUS  Size = 15 
|------------------------------------------------|----------------|
|00 01 02 03 04 05 06 07 08 09 0A 0B 0C 0D 0E 0F |0123456789ABCDEF|
|------------------------------------------------|----------------|
|00 0C 1B 00 39 CF 00 00 12 B2 C2 00 0D 76 00    |............... |
-------------------------------------------------------------------
[Client] packet : (0x0B) F_PING  Size = 32 
|------------------------------------------------|----------------|
|00 01 02 03 04 05 06 07 08 09 0A 0B 0C 0D 0E 0F |0123456789ABCDEF|
|------------------------------------------------|----------------|
|00 14 10 25 00 36 00 00 00 0B 00 16 37 A9 C4 10 |...%.6......7...|
|D0 83 62 03 15 29 00 00 00 00 00 00 00 00 02 E8 |..b..)..........|                                                
-------------------------------------------------------------------
[Server] packet : (0x81) S_PONG  Size = 23 
|------------------------------------------------|----------------|
|00 01 02 03 04 05 06 07 08 09 0A 0B 0C 0D 0E 0F |0123456789ABCDEF|
|------------------------------------------------|----------------|
|00 14 81 00 16 37 A9 52 84 B1 3A 00 00 00 00 00 |.....7.R..:.....|
|00 10 26 00 00 00 00                            |.......         |
-------------------------------------------------------------------
[Server] packet : (0x1B) F_REQ_CAMPAIGN_STATUS  Size = 15 
|------------------------------------------------|----------------|
|00 01 02 03 04 05 06 07 08 09 0A 0B 0C 0D 0E 0F |0123456789ABCDEF|
|------------------------------------------------|----------------|
|00 0C 1B 00 39 CF 00 00 12 AC 2B 00 0D 76 00    |............... |
-------------------------------------------------------------------
[Client] packet : (0x01) UNKNOWN  Size = 32 
|------------------------------------------------|----------------|
|00 01 02 03 04 05 06 07 08 09 0A 0B 0C 0D 0E 0F |0123456789ABCDEF|
|------------------------------------------------|----------------|
|00 14 10 29 00 36 00 00 00 01 00 16 37 66 20 07 |...).6......7f .|
|2A 68 90 38 40 04 00 23 39 BF 08 18 DD FF 00 00 |*h.8@..#9.......|                                                
-------------------------------------------------------------------
[Server] packet : (0x00) UNKNOWN  Size = 23 
|------------------------------------------------|----------------|
|00 01 02 03 04 05 06 07 08 09 0A 0B 0C 0D 0E 0F |0123456789ABCDEF|
|------------------------------------------------|----------------|
|00 14 00 00 16 37 66 B7 D4 38 53 00 00 00 00 00 |.....7f..8S.....|
|23 39 BF 08 18 DD 00                            |.......         |
-------------------------------------------------------------------
[Server] packet : (0xD7) F_INIT_EFFECTS  Size = 14 
|------------------------------------------------|----------------|
|00 01 02 03 04 05 06 07 08 09 0A 0B 0C 0D 0E 0F |0123456789ABCDEF|
|------------------------------------------------|----------------|
|00 0B D7 01 02 00 00 20 C9 0A 00 2B 3B 00       |..............  |
-------------------------------------------------------------------
[Server] packet : (0x0A) F_OBJECT_DEATH  Size = 15 
|------------------------------------------------|----------------|
|00 01 02 03 04 05 06 07 08 09 0A 0B 0C 0D 0E 0F |0123456789ABCDEF|
|------------------------------------------------|----------------|
|00 0C 0A 20 F9 00 00 00 00 00 00 00 00 00 00    |............... |
-------------------------------------------------------------------
[Server] packet : (0x1D) F_GUILD_DATA  Size = 29 
|------------------------------------------------|----------------|
|00 01 02 03 04 05 06 07 08 09 0A 0B 0C 0D 0E 0F |0123456789ABCDEF|
|------------------------------------------------|----------------|
|00 1A 1D 03 00 00 00 00 03 00 28 98 64 00 2D C6 |..........(.d.-.|
|C0 00 00 00 00 00 0A 2D 38 00 11 B5 00          |.............   |
-------------------------------------------------------------------
[Client] packet : (0x0B) F_PING  Size = 32 
|------------------------------------------------|----------------|
|00 01 02 03 04 05 06 07 08 09 0A 0B 0C 0D 0E 0F |0123456789ABCDEF|
|------------------------------------------------|----------------|
|00 14 10 31 00 36 00 00 00 0B 00 16 4B 3C D6 D0 |...1.6......K<..|
|02 40 A7 43 0E 14 00 00 00 00 00 00 00 00 02 E8 |.@.C............|                                                
-------------------------------------------------------------------
[Server] packet : (0x81) S_PONG  Size = 23 
|------------------------------------------------|----------------|
|00 01 02 03 04 05 06 07 08 09 0A 0B 0C 0D 0E 0F |0123456789ABCDEF|
|------------------------------------------------|----------------|
|00 14 81 00 16 4B 3C 52 84 B1 3F 00 00 00 00 00 |.....K<R..?.....|
|00 10 32 00 00 00 00                            |.......         |
-------------------------------------------------------------------
[Server] packet : (0x1B) F_REQ_CAMPAIGN_STATUS  Size = 15 
|------------------------------------------------|----------------|
|00 01 02 03 04 05 06 07 08 09 0A 0B 0C 0D 0E 0F |0123456789ABCDEF|
|------------------------------------------------|----------------|
|00 0C 1B 00 39 CF 00 00 12 A7 0A 00 0D 79 00    |............... |
-------------------------------------------------------------------