
[Server] packet : (0x81) S_PONG  Size = 23 
|------------------------------------------------|----------------|
|00 01 02 03 04 05 06 07 08 09 0A 0B 0C 0D 0E 0F |0123456789ABCDEF|
|------------------------------------------------|----------------|
|00 14 81 00 73 26 6A 52 75 76 C7 00 00 00 00 00 |....s&jRuv......|
|00 88 04 00 00 00 00                            |.......         |
-------------------------------------------------------------------
[Server] packet : (0x0A) F_OBJECT_DEATH  Size = 15 
|------------------------------------------------|----------------|
|00 01 02 03 04 05 06 07 08 09 0A 0B 0C 0D 0E 0F |0123456789ABCDEF|
|------------------------------------------------|----------------|
|00 0C 0A 14 D8 00 00 00 00 00 00 00 00 00 00    |............... |
-------------------------------------------------------------------
[Server] packet : (0x51) F_ANIMATION  Size = 9 
|------------------------------------------------|----------------|
|00 01 02 03 04 05 06 07 08 09 0A 0B 0C 0D 0E 0F |0123456789ABCDEF|
|------------------------------------------------|----------------|
|00 06 51 00 EF 00 00 00 00                      |.........       |
-------------------------------------------------------------------
[Client] packet : (0xD2) F_INTERACT  Size = 24 
|------------------------------------------------|----------------|
|00 01 02 03 04 05 06 07 08 09 0A 0B 0C 0D 0E 0F |0123456789ABCDEF|
|------------------------------------------------|----------------|
|00 0C 88 0C 00 1F 00 00 00 D2 00 00 00 93 00 00 |................|
|00 00 00 00 00 00 00 00                         |........        |
-------------------------------------------------------------------
[Client] packet : (0x01) UNKNOWN  Size = 32 
|------------------------------------------------|----------------|
|00 01 02 03 04 05 06 07 08 09 0A 0B 0C 0D 0E 0F |0123456789ABCDEF|
|------------------------------------------------|----------------|
|00 14 88 0D 00 1F 00 00 00 01 00 73 33 E2 20 07 |...........s3. .|
|2A 68 90 38 40 04 00 23 3B B8 08 18 CE 6E 7B 9B |*h.8@..#;....n{.|                                                
-------------------------------------------------------------------
[Server] packet : (0x7E) F_SET_ABILITY_TIMER  Size = 15 
|------------------------------------------------|----------------|
|00 01 02 03 04 05 06 07 08 09 0A 0B 0C 0D 0E 0F |0123456789ABCDEF|
|------------------------------------------------|----------------|
|00 0C 7E 00 01 01 00 00 00 00 00 00 00 00 00    |............... |
-------------------------------------------------------------------
[Server] packet : (0xE9) F_INTERACT_RESPONSE  Size = 94 
|------------------------------------------------|----------------|
|00 01 02 03 04 05 06 07 08 09 0A 0B 0C 0D 0E 0F |0123456789ABCDEF|
|------------------------------------------------|----------------|
|00 5B E9 00 00 93 00 00 40 22 00 51 4D 79 73 74 |.[......@".QMyst|
|69 63 61 6C 20 74 61 6C 69 73 6D 61 6E 73 2C 20 |ical talismans, |
|63 72 79 70 74 69 63 20 73 69 67 69 6C 73 20 61 |cryptic sigils a|
|6E 64 20 72 75 6E 65 64 20 61 6D 75 6C 65 74 73 |nd runed amulets|
|2C 20 61 6C 6C 20 63 61 6E 20 62 65 20 68 61 64 |, all can be had|
|20 66 6F 72 20 61 20 70 72 69 63 65 21 00       |..............  |
-------------------------------------------------------------------
[Server] packet : (0x00) UNKNOWN  Size = 23 
|------------------------------------------------|----------------|
|00 01 02 03 04 05 06 07 08 09 0A 0B 0C 0D 0E 0F |0123456789ABCDEF|
|------------------------------------------------|----------------|
|00 14 00 00 73 33 E2 7C 57 C1 1E 00 00 00 00 00 |....s3.|W.......|
|23 3B B8 08 18 CE 00                            |.......         |
-------------------------------------------------------------------
[Client] packet : (0x0B) F_PING  Size = 32 
|------------------------------------------------|----------------|
|00 01 02 03 04 05 06 07 08 09 0A 0B 0C 0D 0E 0F |0123456789ABCDEF|
|------------------------------------------------|----------------|
|00 14 88 0F 00 1F 00 00 00 0B 00 73 39 7C 74 5C |...........s9|t\|
|44 0E F1 23 2E 25 00 00 00 00 00 00 00 00 C0 88 |D..#.%..........|                                                
-------------------------------------------------------------------
[Server] packet : (0x81) S_PONG  Size = 23 
|------------------------------------------------|----------------|
|00 01 02 03 04 05 06 07 08 09 0A 0B 0C 0D 0E 0F |0123456789ABCDEF|
|------------------------------------------------|----------------|
|00 14 81 00 73 39 7C 52 75 76 CC 00 00 00 00 00 |....s9|Ruv......|
|00 88 10 00 00 00 00                            |.......         |
-------------------------------------------------------------------
[Client] packet : (0xD2) F_INTERACT  Size = 24 
|------------------------------------------------|----------------|
|00 01 02 03 04 05 06 07 08 09 0A 0B 0C 0D 0E 0F |0123456789ABCDEF|
|------------------------------------------------|----------------|
|00 0C 88 14 00 1F 00 00 00 D2 00 00 00 93 00 09 |................|
|00 00 00 00 00 00 00 00                         |........        |
-------------------------------------------------------------------
[Server] packet : (0xBF) F_INIT_STORE  Size = 4691 
|------------------------------------------------|----------------|
|00 01 02 03 04 05 06 07 08 09 0A 0B 0C 0D 0E 0F |0123456789ABCDEF|
|------------------------------------------------|----------------|
|12 50 BF 00 00 00 10 01 00 00 00 01 03 00 00 00 |.P..............|
|00 00 00 1E 98 5C 20 98 00 00 00 00 00 00 00 00 |.....\ .........|
|00 17 00 00 00 00 00 02 00 00 00 00 00 00 00 00 |................|
|00 00 00 00 00 00 00 00 00 00 00 14 00 01 00 00 |................|
|00 00 00 00 00 00 00 00 00 00 16 56 69 6F 6C 65 |...........Viole|
|6E 74 20 53 6F 6C 64 69 65 72 27 73 20 53 6F 75 |nt Soldier's Sou|
|6C 01 01 00 19 00 00 00 38 40 00 00 00 00 00 7F |l.......8@......|
|54 68 69 73 20 74 61 6C 69 73 6D 61 6E 20 63 61 |This talisman ca|
|6E 20 6F 6E 6C 79 20 62 65 20 75 73 65 64 20 77 |n only be used w|
|69 74 68 20 61 20 6E 6F 72 6D 61 6C 20 76 65 73 |ith a normal ves|
|73 65 6C 20 77 65 61 70 6F 6E 2E 20 43 54 4C 2B |sel weapon. CTL+|
|52 69 67 68 74 20 43 6C 69 63 6B 20 74 6F 20 63 |Right Click to c|
|6F 6E 76 65 72 74 20 62 65 74 77 65 65 6E 20 6E |onvert between n|
|6F 72 6D 61 6C 20 6F 72 20 6C 61 72 67 65 20 77 |ormal or large w|
|65 61 70 6F 6E 20 76 65 72 73 69 6F 6E 73 2E 00 |eapon versions..|
|01 00 00 03 0A A0 00 00 00 00 00 00 00 00 00 00 |................|
|00 00 00 00 00 00 00 00 00 00 01 00 03 2E 18 1F |................|
|C7 0D 53 69 6C 76 65 72 20 53 63 61 72 61 62 00 |..Silver Scarab.|
|01 00 00 00 00 00 00 00 00 00 00 00 00 00 00 00 |................|
|00 00 00 02 03 00 00 00 00 00 00 1E 98 5D 20 9B |.............] .|
|00 00 00 00 00 00 00 00 00 17 00 00 00 00 00 02 |................|
|00 00 00 00 00 00 00 00 00 00 00 00 00 00 00 00 |................|
|00 00 00 14 00 01 00 00 00 00 00 00 00 00 00 00 |................|
|00 00 19 44 65 74 65 72 6D 69 6E 65 64 20 53 6F |...Determined So|
|6C 64 69 65 72 27 73 20 53 6F 75 6C 01 03 00 19 |ldier's Soul....|
|00 00 00 38 40 00 00 00 00 00 7F 54 68 69 73 20 |...8@......This |
|74 61 6C 69 73 6D 61 6E 20 63 61 6E 20 6F 6E 6C |talisman can onl|
|79 20 62 65 20 75 73 65 64 20 77 69 74 68 20 61 |y be used with a|
|20 6E 6F 72 6D 61 6C 20 76 65 73 73 65 6C 20 77 | normal vessel w|
|65 61 70 6F 6E 2E 20 43 54 4C 2B 52 69 67 68 74 |eapon. CTL+Right|
|20 43 6C 69 63 6B 20 74 6F 20 63 6F 6E 76 65 72 | Click to conver|
|74 20 62 65 74 77 65 65 6E 20 6E 6F 72 6D 61 6C |t between normal|
|20 6F 72 20 6C 61 72 67 65 20 77 65 61 70 6F 6E | or large weapon|
|20 76 65 72 73 69 6F 6E 73 2E 00 01 00 00 03 0A | versions.......|
|A0 00 00 00 00 00 00 00 00 00 00 00 00 00 00 00 |................|
|00 00 00 00 00 01 00 03 2E 18 1F C7 0D 53 69 6C |.............Sil|
|76 65 72 20 53 63 61 72 61 62 00 01 00 00 00 00 |ver Scarab......|
|00 00 00 00 00 00 00 00 00 00 00 00 00 00 03 03 |................|
|00 00 00 00 00 00 1E 98 5E 20 99 00 00 00 00 00 |........^ ......|
|00 00 00 00 17 00 00 00 00 00 02 00 00 00 00 00 |................|
|00 00 00 00 00 00 00 00 00 00 00 00 00 00 14 00 |................|
|01 00 00 00 00 00 00 00 00 00 00 00 00 17 48 61 |..............Ha|
|72 64 65 6E 65 64 20 53 6F 6C 64 69 65 72 27 73 |rdened Soldier's|
|20 53 6F 75 6C 01 04 00 19 00 00 00 38 40 00 00 | Soul.......8@..|
|00 00 00 7F 54 68 69 73 20 74 61 6C 69 73 6D 61 |....This talisma|
|6E 20 63 61 6E 20 6F 6E 6C 79 20 62 65 20 75 73 |n can only be us|
|65 64 20 77 69 74 68 20 61 20 6E 6F 72 6D 61 6C |ed with a normal|
|20 76 65 73 73 65 6C 20 77 65 61 70 6F 6E 2E 20 | vessel weapon. |
|43 54 4C 2B 52 69 67 68 74 20 43 6C 69 63 6B 20 |CTL+Right Click |
|74 6F 20 63 6F 6E 76 65 72 74 20 62 65 74 77 65 |to convert betwe|
|65 6E 20 6E 6F 72 6D 61 6C 20 6F 72 20 6C 61 72 |en normal or lar|
|67 65 20 77 65 61 70 6F 6E 20 76 65 72 73 69 6F |ge weapon versio|
|6E 73 2E 00 01 00 00 03 0A A0 00 00 00 00 00 00 |ns..............|
|00 00 00 00 00 00 00 00 00 00 00 00 00 00 01 00 |................|
|03 2E 18 1F C7 0D 53 69 6C 76 65 72 20 53 63 61 |......Silver Sca|
|72 61 62 00 01 00 00 00 00 00 00 00 00 00 00 00 |rab.............|
|00 00 00 00 00 00 00 04 03 00 00 00 00 00 00 1E |................|
|98 5F 20 9C 00 00 00 00 00 00 00 00 00 17 00 00 |._ .............|
|00 00 00 02 00 00 00 00 00 00 00 00 00 00 00 00 |................|
|00 00 00 00 00 00 00 14 00 01 00 00 00 00 00 00 |................|
|00 00 00 00 00 00 17 45 6E 64 75 72 69 6E 67 20 |.......Enduring |
|53 6F 6C 64 69 65 72 27 73 20 53 6F 75 6C 01 05 |Soldier's Soul..|
|00 19 00 00 00 38 40 00 00 00 00 00 7F 54 68 69 |.....8@......Thi|
|73 20 74 61 6C 69 73 6D 61 6E 20 63 61 6E 20 6F |s talisman can o|
|6E 6C 79 20 62 65 20 75 73 65 64 20 77 69 74 68 |nly be used with|
|20 61 20 6E 6F 72 6D 61 6C 20 76 65 73 73 65 6C | a normal vessel|
|20 77 65 61 70 6F 6E 2E 20 43 54 4C 2B 52 69 67 | weapon. CTL+Rig|
|68 74 20 43 6C 69 63 6B 20 74 6F 20 63 6F 6E 76 |ht Click to conv|
|65 72 74 20 62 65 74 77 65 65 6E 20 6E 6F 72 6D |ert between norm|
|61 6C 20 6F 72 20 6C 61 72 67 65 20 77 65 61 70 |al or large weap|
|6F 6E 20 76 65 72 73 69 6F 6E 73 2E 00 01 00 00 |on versions.....|
|03 0A A0 00 00 00 00 00 00 00 00 00 00 00 00 00 |................|
|00 00 00 00 00 00 00 01 00 03 2E 18 1F C7 0D 53 |...............S|
|69 6C 76 65 72 20 53 63 61 72 61 62 00 01 00 00 |ilver Scarab....|
|00 00 00 00 00 00 00 00 00 00 00 00 00 00 00 00 |................|
|05 03 00 00 00 00 00 00 1E 98 60 20 8D 00 00 00 |..........` ....|
|00 00 00 00 00 00 17 00 00 00 00 00 02 00 00 00 |................|
|00 00 00 00 00 00 00 00 00 00 00 00 00 00 00 00 |................|
|14 00 01 00 00 00 00 00 00 00 00 00 00 00 00 15 |................|
|4E 69 6D 62 6C 65 20 53 6F 6C 64 69 65 72 27 73 |Nimble Soldier's|
|20 53 6F 75 6C 01 06 00 19 00 00 00 38 40 00 00 | Soul.......8@..|
|00 00 00 7F 54 68 69 73 20 74 61 6C 69 73 6D 61 |....This talisma|
|6E 20 63 61 6E 20 6F 6E 6C 79 20 62 65 20 75 73 |n can only be us|
|65 64 20 77 69 74 68 20 61 20 6E 6F 72 6D 61 6C |ed with a normal|
|20 76 65 73 73 65 6C 20 77 65 61 70 6F 6E 2E 20 | vessel weapon. |
|43 54 4C 2B 52 69 67 68 74 20 43 6C 69 63 6B 20 |CTL+Right Click |
|74 6F 20 63 6F 6E 76 65 72 74 20 62 65 74 77 65 |to convert betwe|
|65 6E 20 6E 6F 72 6D 61 6C 20 6F 72 20 6C 61 72 |en normal or lar|
|67 65 20 77 65 61 70 6F 6E 20 76 65 72 73 69 6F |ge weapon versio|
|6E 73 2E 00 01 00 00 03 0A A0 00 00 00 00 00 00 |ns..............|
|00 00 00 00 00 00 00 00 00 00 00 00 00 00 01 00 |................|
|03 2E 18 1F C7 0D 53 69 6C 76 65 72 20 53 63 61 |......Silver Sca|
|72 61 62 00 01 00 00 00 00 00 00 00 00 00 00 00 |rab.............|
|00 00 00 00 00 00 00 06 03 00 00 00 00 00 00 1E |................|
|98 61 20 9A 00 00 00 00 00 00 00 00 00 17 00 00 |.a .............|
|00 00 00 02 00 00 00 00 00 00 00 00 00 00 00 00 |................|
|00 00 00 00 00 00 00 14 00 01 00 00 00 00 00 00 |................|
|00 00 00 00 00 00 18 44 65 78 65 72 74 6F 75 73 |.......Dexertous|
|20 53 6F 6C 64 69 65 72 27 73 20 53 6F 75 6C 01 | Soldier's Soul.|
|07 00 19 00 00 00 38 40 00 00 00 00 00 7F 54 68 |......8@......Th|
|69 73 20 74 61 6C 69 73 6D 61 6E 20 63 61 6E 20 |is talisman can |
|6F 6E 6C 79 20 62 65 20 75 73 65 64 20 77 69 74 |only be used wit|
|68 20 61 20 6E 6F 72 6D 61 6C 20 76 65 73 73 65 |h a normal vesse|
|6C 20 77 65 61 70 6F 6E 2E 20 43 54 4C 2B 52 69 |l weapon. CTL+Ri|
|67 68 74 20 43 6C 69 63 6B 20 74 6F 20 63 6F 6E |ght Click to con|
|76 65 72 74 20 62 65 74 77 65 65 6E 20 6E 6F 72 |vert between nor|
|6D 61 6C 20 6F 72 20 6C 61 72 67 65 20 77 65 61 |mal or large wea|
|70 6F 6E 20 76 65 72 73 69 6F 6E 73 2E 00 01 00 |pon versions....|
|00 03 0A A0 00 00 00 00 00 00 00 00 00 00 00 00 |................|
|00 00 00 00 00 00 00 00 01 00 03 2E 18 1F C7 0D |................|
|53 69 6C 76 65 72 20 53 63 61 72 61 62 00 01 00 |Silver Scarab...|
|00 00 00 00 00 00 00 00 00 00 00 00 00 00 00 00 |................|
|00 07 03 00 00 00 00 00 00 1E 98 62 20 83 00 00 |...........b ...|
|00 00 00 00 00 00 00 17 00 00 00 00 00 02 00 00 |................|
|00 00 00 00 00 00 00 00 00 00 00 00 00 00 00 00 |................|
|00 14 00 01 00 00 00 00 00 00 00 00 00 00 00 00 |................|
|16 46 6F 63 75 73 65 64 20 53 6F 6C 64 69 65 72 |.Focused Soldier|
|27 73 20 53 6F 75 6C 01 08 00 19 00 00 00 38 40 |'s Soul.......8@|
|00 00 00 00 00 7F 54 68 69 73 20 74 61 6C 69 73 |......This talis|
|6D 61 6E 20 63 61 6E 20 6F 6E 6C 79 20 62 65 20 |man can only be |
|75 73 65 64 20 77 69 74 68 20 61 20 6E 6F 72 6D |used with a norm|
|61 6C 20 76 65 73 73 65 6C 20 77 65 61 70 6F 6E |al vessel weapon|
|2E 20 43 54 4C 2B 52 69 67 68 74 20 43 6C 69 63 |. CTL+Right Clic|
|6B 20 74 6F 20 63 6F 6E 76 65 72 74 20 62 65 74 |k to convert bet|
|77 65 65 6E 20 6E 6F 72 6D 61 6C 20 6F 72 20 6C |ween normal or l|
|61 72 67 65 20 77 65 61 70 6F 6E 20 76 65 72 73 |arge weapon vers|
|69 6F 6E 73 2E 00 01 00 00 03 0A A0 00 00 00 00 |ions............|
|00 00 00 00 00 00 00 00 00 00 00 00 00 00 00 00 |................|
|01 00 03 2E 18 1F C7 0D 53 69 6C 76 65 72 20 53 |........Silver S|
|63 61 72 61 62 00 01 00 00 00 00 00 00 00 00 00 |carab...........|
|00 00 00 00 00 00 00 00 00 08 03 00 00 00 00 00 |................|
|00 1E 98 63 20 8E 00 00 00 00 00 00 00 00 00 17 |...c ...........|
|00 00 00 00 00 02 00 00 00 00 00 00 00 00 00 00 |................|
|00 00 00 00 00 00 00 00 00 14 00 01 00 00 00 00 |................|
|00 00 00 00 00 00 00 00 12 53 6C 79 20 53 6F 6C |.........Sly Sol|
|64 69 65 72 27 73 20 53 6F 75 6C 01 09 00 19 00 |dier's Soul.....|
|00 00 38 40 00 00 00 00 00 7F 54 68 69 73 20 74 |..8@......This t|
|61 6C 69 73 6D 61 6E 20 63 61 6E 20 6F 6E 6C 79 |alisman can only|
|20 62 65 20 75 73 65 64 20 77 69 74 68 20 61 20 | be used with a |
|6E 6F 72 6D 61 6C 20 76 65 73 73 65 6C 20 77 65 |normal vessel we|
|61 70 6F 6E 2E 20 43 54 4C 2B 52 69 67 68 74 20 |apon. CTL+Right |
|43 6C 69 63 6B 20 74 6F 20 63 6F 6E 76 65 72 74 |Click to convert|
|20 62 65 74 77 65 65 6E 20 6E 6F 72 6D 61 6C 20 | between normal |
|6F 72 20 6C 61 72 67 65 20 77 65 61 70 6F 6E 20 |or large weapon |
|76 65 72 73 69 6F 6E 73 2E 00 01 00 00 03 0A A0 |versions........|
|00 00 00 00 00 00 00 00 00 00 00 00 00 00 00 00 |................|
|00 00 00 00 01 00 03 2E 18 1F C7 0D 53 69 6C 76 |............Silv|
|65 72 20 53 63 61 72 61 62 00 01 00 00 00 00 00 |er Scarab.......|
|00 00 00 00 00 00 00 00 00 00 00 00 00 09 03 00 |................|
|00 00 00 00 00 1E 98 64 20 90 00 00 00 00 00 00 |.......d .......|
|00 00 00 17 00 00 00 00 00 02 00 00 00 00 00 00 |................|
|00 00 00 00 00 00 00 00 00 00 00 00 00 14 00 01 |................|
|00 00 00 00 00 00 00 00 00 00 00 00 11 53 6C 79 |.............Sly|
|20 50 72 69 65 73 74 27 73 20 53 6F 75 6C 01 50 | Priest's Soul.P|
|00 32 00 00 00 38 40 00 00 00 00 00 7F 54 68 69 |.2...8@......Thi|
|73 20 74 61 6C 69 73 6D 61 6E 20 63 61 6E 20 6F |s talisman can o|
|6E 6C 79 20 62 65 20 75 73 65 64 20 77 69 74 68 |nly be used with|
|20 61 20 6E 6F 72 6D 61 6C 20 76 65 73 73 65 6C | a normal vessel|
|20 77 65 61 70 6F 6E 2E 20 43 54 4C 2B 52 69 67 | weapon. CTL+Rig|
|68 74 20 43 6C 69 63 6B 20 74 6F 20 63 6F 6E 76 |ht Click to conv|
|65 72 74 20 62 65 74 77 65 65 6E 20 6E 6F 72 6D |ert between norm|
|61 6C 20 6F 72 20 6C 61 72 67 65 20 77 65 61 70 |al or large weap|
|6F 6E 20 76 65 72 73 69 6F 6E 73 2E 00 01 00 00 |on versions.....|
|03 0A A0 00 00 00 00 00 00 00 00 00 00 00 00 00 |................|
|00 00 00 00 00 00 00 01 00 03 2E 18 1F C7 0D 53 |...............S|
|69 6C 76 65 72 20 53 63 61 72 61 62 00 02 00 00 |ilver Scarab....|
|00 00 00 00 00 00 00 00 00 00 00 00 00 00 00 00 |................|
|0A 03 00 00 00 00 00 00 1E 98 65 20 8F 00 00 00 |..........e ....|
|00 00 00 00 00 00 17 00 00 00 00 00 02 00 00 00 |................|
|00 00 00 00 00 00 00 00 00 00 00 00 00 00 00 00 |................|
|14 00 01 00 00 00 00 00 00 00 00 00 00 00 00 12 |................|
|44 61 72 6B 20 50 72 69 65 73 74 27 73 20 53 6F |Dark Priest's So|
|75 6C 01 51 00 32 00 00 00 38 40 00 00 00 00 00 |ul.Q.2...8@.....|
|7F 54 68 69 73 20 74 61 6C 69 73 6D 61 6E 20 63 |.This talisman c|
|61 6E 20 6F 6E 6C 79 20 62 65 20 75 73 65 64 20 |an only be used |
|77 69 74 68 20 61 20 6E 6F 72 6D 61 6C 20 76 65 |with a normal ve|
|73 73 65 6C 20 77 65 61 70 6F 6E 2E 20 43 54 4C |ssel weapon. CTL|
|2B 52 69 67 68 74 20 43 6C 69 63 6B 20 74 6F 20 |+Right Click to |
|63 6F 6E 76 65 72 74 20 62 65 74 77 65 65 6E 20 |convert between |
|6E 6F 72 6D 61 6C 20 6F 72 20 6C 61 72 67 65 20 |normal or large |
|77 65 61 70 6F 6E 20 76 65 72 73 69 6F 6E 73 2E |weapon versions.|
|00 01 00 00 03 0A A0 00 00 00 00 00 00 00 00 00 |................|
|00 00 00 00 00 00 00 00 00 00 00 01 00 03 2E 18 |................|
|1F C7 0D 53 69 6C 76 65 72 20 53 63 61 72 61 62 |...Silver Scarab|
|00 02 00 00 00 00 00 00 00 00 00 00 00 00 00 00 |................|
|00 00 00 00 0B 03 00 00 00 00 00 00 1E 98 66 20 |..............f |
|97 00 00 00 00 00 00 00 00 00 17 00 00 00 00 00 |................|
|02 00 00 00 00 00 00 00 00 00 00 00 00 00 00 00 |................|
|00 00 00 00 14 00 01 00 00 00 00 00 00 00 00 00 |................|
|00 00 00 17 54 6F 72 6D 65 6E 74 65 64 20 50 72 |....Tormented Pr|
|69 65 73 74 27 73 20 53 6F 75 6C 01 52 00 32 00 |iest's Soul.R.2.|
|00 00 38 40 00 00 00 00 00 7F 54 68 69 73 20 74 |..8@......This t|
|61 6C 69 73 6D 61 6E 20 63 61 6E 20 6F 6E 6C 79 |alisman can only|
|20 62 65 20 75 73 65 64 20 77 69 74 68 20 61 20 | be used with a |
|6E 6F 72 6D 61 6C 20 76 65 73 73 65 6C 20 77 65 |normal vessel we|
|61 70 6F 6E 2E 20 43 54 4C 2B 52 69 67 68 74 20 |apon. CTL+Right |
|43 6C 69 63 6B 20 74 6F 20 63 6F 6E 76 65 72 74 |Click to convert|
|20 62 65 74 77 65 65 6E 20 6E 6F 72 6D 61 6C 20 | between normal |
|6F 72 20 6C 61 72 67 65 20 77 65 61 70 6F 6E 20 |or large weapon |
|76 65 72 73 69 6F 6E 73 2E 00 01 00 00 03 0A A0 |versions........|
|00 00 00 00 00 00 00 00 00 00 00 00 00 00 00 00 |................|
|00 00 00 00 01 00 03 2E 18 1F C7 0D 53 69 6C 76 |............Silv|
|65 72 20 53 63 61 72 61 62 00 02 00 00 00 00 00 |er Scarab.......|
|00 00 00 00 00 00 00 00 00 00 00 00 00 0C 03 00 |................|
|00 00 00 00 00 1E 98 67 20 8C 00 00 00 00 00 00 |.......g .......|
|00 00 00 17 00 00 00 00 00 02 00 00 00 00 00 00 |................|
|00 00 00 00 00 00 00 00 00 00 00 00 00 14 00 01 |................|
|00 00 00 00 00 00 00 00 00 00 00 00 16 43 72 65 |.............Cre|
|65 70 69 6E 67 20 50 72 69 65 73 74 27 73 20 53 |eping Priest's S|
|6F 75 6C 01 5E 00 32 00 00 00 38 40 00 00 00 00 |oul.^.2...8@....|
|00 7F 54 68 69 73 20 74 61 6C 69 73 6D 61 6E 20 |..This talisman |
|63 61 6E 20 6F 6E 6C 79 20 62 65 20 75 73 65 64 |can only be used|
|20 77 69 74 68 20 61 20 6E 6F 72 6D 61 6C 20 76 | with a normal v|
|65 73 73 65 6C 20 77 65 61 70 6F 6E 2E 20 43 54 |essel weapon. CT|
|4C 2B 52 69 67 68 74 20 43 6C 69 63 6B 20 74 6F |L+Right Click to|
|20 63 6F 6E 76 65 72 74 20 62 65 74 77 65 65 6E | convert between|
|20 6E 6F 72 6D 61 6C 20 6F 72 20 6C 61 72 67 65 | normal or large|
|20 77 65 61 70 6F 6E 20 76 65 72 73 69 6F 6E 73 | weapon versions|
|2E 00 01 00 00 03 0A A0 00 00 00 00 00 00 00 00 |................|
|00 00 00 00 00 00 00 00 00 00 00 00 01 00 03 2E |................|
|18 1F C7 0D 53 69 6C 76 65 72 20 53 63 61 72 61 |....Silver Scara|
|62 00 02 00 00 00 00 00 00 00 00 00 00 00 00 00 |b...............|
|00 00 00 00 00 0D 03 00 00 00 00 00 00 1E 98 68 |...............h|
|20 91 00 00 00 00 00 00 00 00 00 17 00 00 00 00 | ...............|
|00 02 00 00 00 00 00 00 00 00 1E 00 00 00 00 00 |................|
|00 00 00 00 00 14 00 01 00 00 00 00 00 00 00 00 |................|
|00 00 00 00 18 52 65 73 74 6C 65 73 73 20 41 73 |.....Restless As|
|73 61 73 73 69 6E 27 73 20 53 6F 75 6C 00 01 46 |sassin's Soul..F|
|57 00 00 38 40 00 00 00 00 7F 54 68 69 73 20 74 |W..8@.....This t|
|61 6C 69 73 6D 61 6E 20 63 61 6E 20 6F 6E 6C 79 |alisman can only|
|20 62 65 20 75 73 65 64 20 77 69 74 68 20 61 20 | be used with a |
|6E 6F 72 6D 61 6C 20 76 65 73 73 65 6C 20 77 65 |normal vessel we|
|61 70 6F 6E 2E 20 43 54 4C 2B 52 69 67 68 74 20 |apon. CTL+Right |
|43 6C 69 63 6B 20 74 6F 20 63 6F 6E 76 65 72 74 |Click to convert|
|20 62 65 74 77 65 65 6E 20 6E 6F 72 6D 61 6C 20 | between normal |
|6F 72 20 6C 61 72 67 65 20 77 65 61 70 6F 6E 20 |or large weapon |
|76 65 72 73 69 6F 6E 73 2E 00 01 00 00 03 0A A0 |versions........|
|00 00 00 00 00 00 00 00 00 00 00 00 00 00 00 00 |................|
|00 00 00 00 01 00 03 2E 18 1F C7 0D 53 69 6C 76 |............Silv|
|65 72 20 53 63 61 72 61 62 00 02 00 00 00 00 00 |er Scarab.......|
|00 00 00 00 00 00 00 00 00 00 00 00 00 0E 03 00 |................|
|00 00 00 00 00 1E 98 69 20 92 00 00 00 00 00 00 |.......i .......|
|00 00 00 17 00 00 00 00 00 02 00 00 00 00 00 00 |................|
|00 00 1E 00 00 00 00 00 00 00 00 00 00 14 00 01 |................|
|00 00 00 00 00 00 00 00 00 00 00 00 19 53 75 66 |.............Suf|
|66 65 72 69 6E 67 20 41 73 73 61 73 73 69 6E 27 |fering Assassin'|
|73 20 53 6F 75 6C 00 02 27 6A 00 00 38 40 3D 0D |s Soul..'j..8@=.|
|00 00 38 40 00 00 00 00 5F 4E 65 68 65 6B 68 61 |..8@...._Nehekha|
|72 61 6E 20 53 6F 75 6C 3A 20 53 65 66 75 20 2D |ran Soul: Sefu -|
|20 54 68 65 20 74 72 61 70 70 65 64 20 73 6F 75 | The trapped sou|
|6C 20 6F 66 20 61 20 4E 65 68 65 6B 68 61 72 61 |l of a Nehekhara|
|6E 20 64 77 65 6C 6C 73 20 77 69 74 68 69 6E 20 |n dwells within |
|61 6E 20 61 72 74 69 66 61 63 74 20 6D 61 72 6B |an artifact mark|
|65 64 20 53 65 66 75 2E 00 01 00 00 03 0A A0 00 |ed Sefu.........|
|00 00 00 00 00 00 00 00 00 00 00 00 00 00 00 00 |................|
|00 00 00 01 00 03 2E 18 1F C7 0D 53 69 6C 76 65 |...........Silve|
|72 20 53 63 61 72 61 62 00 02 00 00 00 00 00 00 |r Scarab........|
|00 00 00 00 00 00 00 00 00 00 00 00 0F 03 00 00 |................|
|00 00 00 00 1E 98 6A 20 88 00 00 00 00 00 00 00 |......j ........|
|00 00 17 00 00 00 00 00 02 00 00 00 00 00 00 00 |................|
|00 1E 00 00 00 00 00 00 00 00 00 00 14 00 01 00 |................|
|00 00 00 00 00 00 00 00 00 00 00 1A 46 6F 72 62 |............Forb|
|65 61 72 69 6E 67 20 41 73 73 61 73 73 69 6E 27 |earing Assassin'|
|73 20 53 6F 75 6C 00 01 3D 40 00 00 38 40 00 00 |s Soul..=@..8@..|
|00 00 7F 54 68 69 73 20 74 61 6C 69 73 6D 61 6E |...This talisman|
|20 63 61 6E 20 6F 6E 6C 79 20 62 65 20 75 73 65 | can only be use|
|64 20 77 69 74 68 20 61 20 6E 6F 72 6D 61 6C 20 |d with a normal |
|76 65 73 73 65 6C 20 77 65 61 70 6F 6E 2E 20 43 |vessel weapon. C|
|54 4C 2B 52 69 67 68 74 20 43 6C 69 63 6B 20 74 |TL+Right Click t|
|6F 20 63 6F 6E 76 65 72 74 20 62 65 74 77 65 65 |o convert betwee|
|6E 20 6E 6F 72 6D 61 6C 20 6F 72 20 6C 61 72 67 |n normal or larg|
|65 20 77 65 61 70 6F 6E 20 76 65 72 73 69 6F 6E |e weapon version|
|73 2E 00 01 00 00 03 0A A0 00 00 00 00 00 00 00 |s...............|
|00 00 00 00 00 00 00 00 00 00 00 00 00 01 00 03 |................|
|2E 18 1F C7 0D 53 69 6C 76 65 72 20 53 63 61 72 |.....Silver Scar|
|61 62 00 02 00 00 00 00 00 00 00 00 00 00 00 00 |ab..............|
|00 00 00 00 00 00 10 03 00 00 00 00 00 00 1E 98 |................|
|6E 20 85 00 00 00 00 00 00 00 00 00 17 00 00 00 |n ..............|
|00 00 02 00 00 00 00 00 00 00 00 1E 00 00 00 00 |................|
|00 00 00 00 00 00 14 00 01 00 00 00 00 00 00 00 |................|
|00 00 00 00 00 16 53 65 6C 66 6C 65 73 73 20 4B |......Selfless K|
|6E 69 67 68 74 27 73 20 53 6F 75 6C 00 02 3C BF |night's Soul..<.|
|00 00 38 40 28 31 00 00 00 01 00 00 00 00 5F 4E |..8@(1........_N|
|65 68 65 6B 68 61 72 61 6E 20 53 6F 75 6C 3A 20 |ehekharan Soul: |
|53 65 66 75 20 2D 20 54 68 65 20 74 72 61 70 70 |Sefu - The trapp|
|65 64 20 73 6F 75 6C 20 6F 66 20 61 20 4E 65 68 |ed soul of a Neh|
|65 6B 68 61 72 61 6E 20 64 77 65 6C 6C 73 20 77 |ekharan dwells w|
|69 74 68 69 6E 20 61 6E 20 61 72 74 69 66 61 63 |ithin an artifac|
|74 20 6D 61 72 6B 65 64 20 53 65 66 75 2E 00 01 |t marked Sefu...|
|00 00 03 0A A0 00 00 00 00 00 00 00 00 00 00 00 |................|
|00 00 00 00 00 00 00 00 00 01 00 03 2E 18 1F C7 |................|
|0D 53 69 6C 76 65 72 20 53 63 61 72 61 62 00 02 |.Silver Scarab..|
|00 00 00 00 00 00 00 00 00 00 00 00 00 00 00 00 |................|
|00 00 00                                        |...             |
-------------------------------------------------------------------
[Server] packet : (0xC0) F_STORE_BUY_BACK  Size = 5 
|------------------------------------------------|----------------|
|00 01 02 03 04 05 06 07 08 09 0A 0B 0C 0D 0E 0F |0123456789ABCDEF|
|------------------------------------------------|----------------|
|00 02 C0 00 00                                  |.....           |
-------------------------------------------------------------------
[Client] packet : (0xFE) F_PLAY_VOICE_OVER  Size = 16 
|------------------------------------------------|----------------|
|00 01 02 03 04 05 06 07 08 09 0A 0B 0C 0D 0E 0F |0123456789ABCDEF|
|------------------------------------------------|----------------|
|00 04 88 1A 00 1F FF FF 00 FE 02 00 00 00 18 F9 |................|                                                
-------------------------------------------------------------------
[Server] packet : (0x74) UNKNOWN  Size = 44 
|------------------------------------------------|----------------|
|00 01 02 03 04 05 06 07 08 09 0A 0B 0C 0D 0E 0F |0123456789ABCDEF|
|------------------------------------------------|----------------|
|00 29 74 01 01 00 00 00 04 02 00 1A 02 00 03 00 |.)t.............|
|00 00 00 00 00 00 01 00 01 00 00 01 F4 00 00 01 |................|
|3F 02 00 01 00 00 01 F4 00 00 00 00             |............    |
-------------------------------------------------------------------
[Client] packet : (0x0B) F_PING  Size = 32 
|------------------------------------------------|----------------|
|00 01 02 03 04 05 06 07 08 09 0A 0B 0C 0D 0E 0F |0123456789ABCDEF|
|------------------------------------------------|----------------|
|00 14 88 1B 00 1F 00 00 00 0B 00 73 4D 0F 62 07 |...........sM.b.|
|FA 7B B9 BD 74 D4 00 00 00 00 00 00 00 00 6A 4D |.{..t.........jM|                                                
-------------------------------------------------------------------
[Server] packet : (0x81) S_PONG  Size = 23 
|------------------------------------------------|----------------|
|00 01 02 03 04 05 06 07 08 09 0A 0B 0C 0D 0E 0F |0123456789ABCDEF|
|------------------------------------------------|----------------|
|00 14 81 00 73 4D 0F 52 75 76 D1 00 00 00 00 00 |....sM.Ruv......|
|00 88 1C 00 00 00 00                            |.......         |
-------------------------------------------------------------------
[Client] packet : (0x5A) F_PING_DATAGRAM  Size = 13 
|------------------------------------------------|----------------|
|00 01 02 03 04 05 06 07 08 09 0A 0B 0C 0D 0E 0F |0123456789ABCDEF|
|------------------------------------------------|----------------|
|00 01 88 1E 00 1F FF FF 00 5A 00 C7 C6          |.............   |
-------------------------------------------------------------------
[Server] packet : (0x51) F_ANIMATION  Size = 9 
|------------------------------------------------|----------------|
|00 01 02 03 04 05 06 07 08 09 0A 0B 0C 0D 0E 0F |0123456789ABCDEF|
|------------------------------------------------|----------------|
|00 06 51 00 EF 00 00 00 00                      |.........       |
-------------------------------------------------------------------
[Client] packet : (0x01) UNKNOWN  Size = 32 
|------------------------------------------------|----------------|
|00 01 02 03 04 05 06 07 08 09 0A 0B 0C 0D 0E 0F |0123456789ABCDEF|
|------------------------------------------------|----------------|
|00 14 88 26 00 1F 00 00 00 01 00 73 5C 6B 00 23 |...&.......s\k.#|
|39 B0 08 18 C0 4A 20 07 7B E9 90 38 51 8E 00 00 |9....J .{..8Q...|                                                
-------------------------------------------------------------------
[Client] packet : (0x0B) F_PING  Size = 32 
|------------------------------------------------|----------------|
|00 01 02 03 04 05 06 07 08 09 0A 0B 0C 0D 0E 0F |0123456789ABCDEF|
|------------------------------------------------|----------------|
|00 14 88 27 00 1F 00 00 00 0B 00 73 60 A4 61 4C |...'.......s`.aL|
|06 0A B3 A1 06 30 00 00 00 00 00 00 00 00 2C BE |.....0........,.|                                                
-------------------------------------------------------------------
[Server] packet : (0x81) S_PONG  Size = 23 
|------------------------------------------------|----------------|
|00 01 02 03 04 05 06 07 08 09 0A 0B 0C 0D 0E 0F |0123456789ABCDEF|
|------------------------------------------------|----------------|
|00 14 81 00 73 60 A4 52 75 76 D6 00 00 00 00 00 |....s`.Ruv......|
|00 88 28 00 00 00 00                            |.......         |
-------------------------------------------------------------------
[Server] packet : (0x00) UNKNOWN  Size = 23 
|------------------------------------------------|----------------|
|00 01 02 03 04 05 06 07 08 09 0A 0B 0C 0D 0E 0F |0123456789ABCDEF|
|------------------------------------------------|----------------|
|00 14 00 00 73 5C 6B 7C 57 E9 8F 00 00 00 00 20 |....s\k|W...... |
|07 7B E9 90 38 51 00                            |.......         |
-------------------------------------------------------------------
[Client] packet : (0x0B) F_PING  Size = 32 
|------------------------------------------------|----------------|
|00 01 02 03 04 05 06 07 08 09 0A 0B 0C 0D 0E 0F |0123456789ABCDEF|
|------------------------------------------------|----------------|
|00 14 88 32 00 1F 00 00 00 0B 00 73 74 36 13 2F |...2.......st6./|
|B9 BA A9 9F E5 EB 00 00 00 00 00 00 00 00 C0 88 |................|                                                
-------------------------------------------------------------------
[Server] packet : (0x81) S_PONG  Size = 23 
|------------------------------------------------|----------------|
|00 01 02 03 04 05 06 07 08 09 0A 0B 0C 0D 0E 0F |0123456789ABCDEF|
|------------------------------------------------|----------------|
|00 14 81 00 73 74 36 52 75 76 DB 00 00 00 00 00 |....st6Ruv......|
|00 88 33 00 00 00 00                            |.......         |
-------------------------------------------------------------------
[Client] packet : (0x0B) F_PING  Size = 32 
|------------------------------------------------|----------------|
|00 01 02 03 04 05 06 07 08 09 0A 0B 0C 0D 0E 0F |0123456789ABCDEF|
|------------------------------------------------|----------------|
|00 14 88 3C 00 1F 00 00 00 0B 00 73 87 C7 BF 8F |...<.......s....|
|7A 7A 96 7B E4 26 00 00 00 00 00 00 00 00 C0 88 |zz.{.&..........|                                                
-------------------------------------------------------------------
[Server] packet : (0x81) S_PONG  Size = 23 
|------------------------------------------------|----------------|
|00 01 02 03 04 05 06 07 08 09 0A 0B 0C 0D 0E 0F |0123456789ABCDEF|
|------------------------------------------------|----------------|
|00 14 81 00 73 87 C7 52 75 76 E0 00 00 00 00 00 |....s..Ruv......|
|00 88 3D 00 00 00 00                            |.......         |
-------------------------------------------------------------------
[Client] packet : (0x01) UNKNOWN  Size = 32 
|------------------------------------------------|----------------|
|00 01 02 03 04 05 06 07 08 09 0A 0B 0C 0D 0E 0F |0123456789ABCDEF|
|------------------------------------------------|----------------|
|00 14 88 3E 00 1F 00 00 00 01 00 73 84 B1 00 00 |...>.......s....|
|00 00 00 00 00 00 00 00 04 94 00 00 01 12 A8 79 |...............y|                                                
-------------------------------------------------------------------
[Server] packet : (0x00) UNKNOWN  Size = 23 
|------------------------------------------------|----------------|
|00 01 02 03 04 05 06 07 08 09 0A 0B 0C 0D 0E 0F |0123456789ABCDEF|
|------------------------------------------------|----------------|
|00 14 00 00 73 84 B1 7C 58 11 E8 00 00 00 00 00 |....s..|X.......|
|00 04 94 00 00 01 00                            |.......         |
-------------------------------------------------------------------
[Client] packet : (0x5A) F_PING_DATAGRAM  Size = 13 
|------------------------------------------------|----------------|
|00 01 02 03 04 05 06 07 08 09 0A 0B 0C 0D 0E 0F |0123456789ABCDEF|
|------------------------------------------------|----------------|
|00 01 88 40 00 1F FF FF 00 5A 00 55 0F          |.............   |
-------------------------------------------------------------------
[Server] packet : (0x51) F_ANIMATION  Size = 9 
|------------------------------------------------|----------------|
|00 01 02 03 04 05 06 07 08 09 0A 0B 0C 0D 0E 0F |0123456789ABCDEF|
|------------------------------------------------|----------------|
|00 06 51 00 EF 00 00 00 00                      |.........       |
-------------------------------------------------------------------
[Client] packet : (0x0B) F_PING  Size = 32 
|------------------------------------------------|----------------|
|00 01 02 03 04 05 06 07 08 09 0A 0B 0C 0D 0E 0F |0123456789ABCDEF|
|------------------------------------------------|----------------|
|00 14 88 48 00 1F 00 00 00 0B 00 73 9B 57 F4 B7 |...H.......s.W..|
|6B 7C D9 7C 7B D4 00 00 00 00 00 00 00 00 C0 88 |k|.|{...........|                                                
-------------------------------------------------------------------
[Server] packet : (0x81) S_PONG  Size = 23 
|------------------------------------------------|----------------|
|00 01 02 03 04 05 06 07 08 09 0A 0B 0C 0D 0E 0F |0123456789ABCDEF|
|------------------------------------------------|----------------|
|00 14 81 00 73 9B 57 52 75 76 E5 00 00 00 00 00 |....s.WRuv......|
|00 88 49 00 00 00 00                            |.......         |
-------------------------------------------------------------------
[Client] packet : (0x0B) F_PING  Size = 32 
|------------------------------------------------|----------------|
|00 01 02 03 04 05 06 07 08 09 0A 0B 0C 0D 0E 0F |0123456789ABCDEF|
|------------------------------------------------|----------------|
|00 14 88 54 00 1F 00 00 00 0B 00 73 AE EC 7C D8 |...T.......s..|.|
|40 47 F5 02 12 B0 00 00 00 00 00 00 00 00 C0 88 |@G..............|                                                
-------------------------------------------------------------------
[Server] packet : (0x81) S_PONG  Size = 23 
|------------------------------------------------|----------------|
|00 01 02 03 04 05 06 07 08 09 0A 0B 0C 0D 0E 0F |0123456789ABCDEF|
|------------------------------------------------|----------------|
|00 14 81 00 73 AE EC 52 75 76 EA 00 00 00 00 00 |....s..Ruv......|
|00 88 55 00 00 00 00                            |.......         |
-------------------------------------------------------------------
[Client] packet : (0x01) UNKNOWN  Size = 32 
|------------------------------------------------|----------------|
|00 01 02 03 04 05 06 07 08 09 0A 0B 0C 0D 0E 0F |0123456789ABCDEF|
|------------------------------------------------|----------------|
|00 14 88 56 00 1F 00 00 00 01 00 73 AC E8 00 00 |...V.......s....|
|00 00 00 00 00 00 00 00 00 44 00 00 3A 20 00 00 |.........D..: ..|                                                
-------------------------------------------------------------------
[Server] packet : (0x00) UNKNOWN  Size = 23 
|------------------------------------------------|----------------|
|00 01 02 03 04 05 06 07 08 09 0A 0B 0C 0D 0E 0F |0123456789ABCDEF|
|------------------------------------------------|----------------|
|00 14 00 00 73 AC E8 7C 58 3A 75 00 00 00 00 00 |....s..|X:u.....|
|00 00 44 00 00 3A 00                            |.......         |
-------------------------------------------------------------------
[Client] packet : (0x86) F_MAIL  Size = 16 
|------------------------------------------------|----------------|
|00 01 02 03 04 05 06 07 08 09 0A 0B 0C 0D 0E 0F |0123456789ABCDEF|
|------------------------------------------------|----------------|
|00 04 88 57 00 1F FF FF 00 86 00 00 00 00 00 00 |...W............|                                                
-------------------------------------------------------------------
[Server] packet : (0x51) F_ANIMATION  Size = 9 
|------------------------------------------------|----------------|
|00 01 02 03 04 05 06 07 08 09 0A 0B 0C 0D 0E 0F |0123456789ABCDEF|
|------------------------------------------------|----------------|
|00 06 51 00 EF 00 00 00 00                      |.........       |
-------------------------------------------------------------------