
[Server] packet : (0x1A) F_CAMPAIGN_STATUS  Size = 159 
|------------------------------------------------|----------------|
|00 01 02 03 04 05 06 07 08 09 0A 0B 0C 0D 0E 0F |0123456789ABCDEF|
|------------------------------------------------|----------------|
|00 9C 1A 00 09 00 67 00 CB 00 00 00 00 00 32 32 |......g.......22|
|00 32 32 00 32 32 00 42 00 00 32 32 00 32 32 00 |.22.22.B..22.22.|
|32 32 00 00 00 00 32 32 00 32 32 00 32 32 F6 6C |22....22.22.22.l|
|F6 6C F6 6C F6 6C F6 6C 00 00 00 00 00 00 00 00 |.l.l.l.l........|
|00 00 00 00 00 00 00 64 64 00 00 00 00 00 00 00 |.......dd.......|
|00 00 00 00 00 00 00 00 00 00 00 00 00 00 00 00 |................|
|00 00 00 00 00 00 00 00 00 00 00 00 00 00 00 00 |................|
|00 00 00 00 00 00 00 00 00 00 00 00 00 00 00 00 |................|
|00 03 00 02 02 03 03 01 01 00 03 03 01 01 00 03 |................|
|FF 01 3C 28 0A 3C 00 00 00 03 84 00 00 00 00    |............... |
-------------------------------------------------------------------
[Client] packet : (0x5A) F_PING_DATAGRAM  Size = 13 
|------------------------------------------------|----------------|
|00 01 02 03 04 05 06 07 08 09 0A 0B 0C 0D 0E 0F |0123456789ABCDEF|
|------------------------------------------------|----------------|
|00 01 6E 7B 00 DD FF FF 00 5A 00 0B 79          |.............   |
-------------------------------------------------------------------
[Server] packet : (0x51) F_ANIMATION  Size = 9 
|------------------------------------------------|----------------|
|00 01 02 03 04 05 06 07 08 09 0A 0B 0C 0D 0E 0F |0123456789ABCDEF|
|------------------------------------------------|----------------|
|00 06 51 01 3C 00 E5 00 00                      |.........       |
-------------------------------------------------------------------
[Client] packet : (0x16) F_REQUEST_INIT_OBJECT  Size = 16 
|------------------------------------------------|----------------|
|00 01 02 03 04 05 06 07 08 09 0A 0B 0C 0D 0E 0F |0123456789ABCDEF|
|------------------------------------------------|----------------|
|00 04 6E 7D 00 DD 00 00 00 16 31 83 00 00 00 00 |..n}......1.....|                                                
-------------------------------------------------------------------
[Server] packet : (0x72) F_CREATE_MONSTER  Size = 108 
|------------------------------------------------|----------------|
|00 01 02 03 04 05 06 07 08 09 0A 0B 0C 0D 0E 0F |0123456789ABCDEF|
|------------------------------------------------|----------------|
|00 69 72 31 83 00 EB 01 C5 26 FD 00 0F D4 E1 00 |.ir1.....&......|
|10 40 07 FF D6 04 3C 32 07 61 00 00 00 00 00 00 |.@....<2.a......|
|00 00 00 03 E8 00 00 00 00 89 74 00 00 00 00 01 |..........t.....|
|19 00 47 6F 6C 64 65 6E 77 69 6E 67 20 45 61 67 |..Goldenwing Eag|
|6C 65 5E 6D 00 01 0A 00 00 00 1A 05 00 31 83 54 |le^m.........1.T|
|E1 C0 07 26 FD 64 21 C8 00 00 00 00 00 EB 00 8A |...&.d!.........|
|50 52 1B C3 40 26 C8 31 83 00 00 00             |............    |
-------------------------------------------------------------------
[Client] packet : (0x07) F_TEXT  Size = 28 
|------------------------------------------------|----------------|
|00 01 02 03 04 05 06 07 08 09 0A 0B 0C 0D 0E 0F |0123456789ABCDEF|
|------------------------------------------------|----------------|
|00 10 6E 8B 00 DD FF FF 00 07 00 26 70 63 20 67 |..n........&pc g|
|75 69 6C 64 6F 6E 6C 79 00 00 00 00             |............    |
-------------------------------------------------------------------
[Client] packet : (0x01) UNKNOWN  Size = 32 
|------------------------------------------------|----------------|
|00 01 02 03 04 05 06 07 08 09 0A 0B 0C 0D 0E 0F |0123456789ABCDEF|
|------------------------------------------------|----------------|
|00 14 6E 8C 00 DD 00 00 00 01 00 71 C6 82 20 07 |..n........q.. .|
|2A 68 90 38 40 04 00 23 7D B3 08 18 ED DF 00 00 |*h.8@..#}.......|                                                
-------------------------------------------------------------------
[Server] packet : (0x1D) F_GUILD_DATA  Size = 62 
|------------------------------------------------|----------------|
|00 01 02 03 04 05 06 07 08 09 0A 0B 0C 0D 0E 0F |0123456789ABCDEF|
|------------------------------------------------|----------------|
|00 3B 1D 02 01 00 1B 32 1C 00 C8 00 00 07 00 0F |.;.....2........|
|4C 61 6D 65 20 64 75 20 44 65 73 74 69 6E 00 00 |Lame du Destin..|
|00 0A 44 61 73 63 6F 75 62 5E 4D 00 28 00 41 00 |..Dascoub^M.(.A.|
|52 81 54 7A 00 01 04 01 00 01 00 00 01 00       |..............  |
-------------------------------------------------------------------
[Server] packet : (0x1D) F_GUILD_DATA  Size = 86 
|------------------------------------------------|----------------|
|00 01 02 03 04 05 06 07 08 09 0A 0B 0C 0D 0E 0F |0123456789ABCDEF|
|------------------------------------------------|----------------|
|00 53 1D 02 01 00 21 90 EA 00 C8 00 00 07 00 0F |.S....!.........|
|4C 61 6D 65 20 64 75 20 44 65 73 74 69 6E 00 00 |Lame du Destin..|
|00 0F 44 72 6F 6C 65 64 65 66 65 6D 6D 65 5E 46 |..Droledefemme^F|
|00 28 01 6B 00 52 81 5E 14 00 01 04 01 00 14 52 |.(.k.R.^.......R|
|65 72 6F 6C 6C 20 4B 69 70 77 61 20 2D 20 52 52 |eroll Kipwa - RR|
|33 32 00 00 01 00                               |......          |
-------------------------------------------------------------------
[Server] packet : (0x6F) F_LOCALIZED_STRING  Size = 13 
|------------------------------------------------|----------------|
|00 01 02 03 04 05 06 07 08 09 0A 0B 0C 0D 0E 0F |0123456789ABCDEF|
|------------------------------------------------|----------------|
|00 0A 6F 00 00 00 00 02 B2 00 00 00 00          |.............   |
-------------------------------------------------------------------
[Server] packet : (0xD8) F_GROUP_STATUS  Size = 11 
|------------------------------------------------|----------------|
|00 01 02 03 04 05 06 07 08 09 0A 0B 0C 0D 0E 0F |0123456789ABCDEF|
|------------------------------------------------|----------------|
|00 08 D8 3E D5 02 FF 01 01 00 00                |...........     |
-------------------------------------------------------------------
[Server] packet : (0x00) UNKNOWN  Size = 23 
|------------------------------------------------|----------------|
|00 01 02 03 04 05 06 07 08 09 0A 0B 0C 0D 0E 0F |0123456789ABCDEF|
|------------------------------------------------|----------------|
|00 14 00 00 71 C6 82 AA F8 29 54 00 00 00 00 00 |....q....)T.....|
|23 7D B3 08 18 ED 00                            |.......         |
-------------------------------------------------------------------
[Server] packet : (0x1A) F_CAMPAIGN_STATUS  Size = 159 
|------------------------------------------------|----------------|
|00 01 02 03 04 05 06 07 08 09 0A 0B 0C 0D 0E 0F |0123456789ABCDEF|
|------------------------------------------------|----------------|
|00 9C 1A 00 09 00 67 00 CB 00 00 00 00 00 32 32 |......g.......22|
|00 32 32 00 32 32 00 42 00 00 32 32 00 64 00 00 |.22.22.B..22.d..|
|32 32 00 00 00 00 32 32 00 32 32 00 32 32 00 00 |22....22.22.22..|
|00 00 00 00 00 00 00 00 00 00 00 00 00 00 00 00 |................|
|00 00 00 00 00 00 00 64 64 00 00 00 00 00 00 00 |.......dd.......|
|00 00 00 00 00 00 00 00 00 00 00 00 00 00 00 00 |................|
|00 00 00 00 00 00 00 00 00 00 00 00 00 00 00 00 |................|
|00 00 00 00 00 00 00 00 00 00 00 00 00 00 00 00 |................|
|00 03 00 02 02 03 03 01 01 00 03 03 01 01 00 03 |................|
|FF 01 3C 28 0A 3C 00 00 00 03 84 00 00 00 00    |............... |
-------------------------------------------------------------------
[Server] packet : (0x51) F_ANIMATION  Size = 9 
|------------------------------------------------|----------------|
|00 01 02 03 04 05 06 07 08 09 0A 0B 0C 0D 0E 0F |0123456789ABCDEF|
|------------------------------------------------|----------------|
|00 06 51 01 3C 00 B0 00 00                      |.........       |
-------------------------------------------------------------------
[Server] packet : (0x51) F_ANIMATION  Size = 9 
|------------------------------------------------|----------------|
|00 01 02 03 04 05 06 07 08 09 0A 0B 0C 0D 0E 0F |0123456789ABCDEF|
|------------------------------------------------|----------------|
|00 06 51 0D 2B 00 6C 00 00                      |.........       |
-------------------------------------------------------------------
[Client] packet : (0x5A) F_PING_DATAGRAM  Size = 13 
|------------------------------------------------|----------------|
|00 01 02 03 04 05 06 07 08 09 0A 0B 0C 0D 0E 0F |0123456789ABCDEF|
|------------------------------------------------|----------------|
|00 01 6E 9C 00 DD FF FF 00 5A 00 E2 81          |.............   |
-------------------------------------------------------------------
[Client] packet : (0x07) F_TEXT  Size = 28 
|------------------------------------------------|----------------|
|00 01 02 03 04 05 06 07 08 09 0A 0B 0C 0D 0E 0F |0123456789ABCDEF|
|------------------------------------------------|----------------|
|00 10 6E A0 00 DD FF FF 00 07 00 26 70 63 20 67 |..n........&pc g|
|75 69 6C 64 6F 6E 6C 79 00 00 00 00             |............    |
-------------------------------------------------------------------
[Server] packet : (0x1D) F_GUILD_DATA  Size = 62 
|------------------------------------------------|----------------|
|00 01 02 03 04 05 06 07 08 09 0A 0B 0C 0D 0E 0F |0123456789ABCDEF|
|------------------------------------------------|----------------|
|00 3B 1D 02 01 00 1B 32 1C 00 C8 00 00 07 00 0F |.;.....2........|
|4C 61 6D 65 20 64 75 20 44 65 73 74 69 6E 00 00 |Lame du Destin..|
|00 0A 44 61 73 63 6F 75 62 5E 4D 00 28 00 41 00 |..Dascoub^M.(.A.|
|52 81 54 7A 00 01 02 01 00 01 00 00 01 00       |..............  |
-------------------------------------------------------------------
[Server] packet : (0x1D) F_GUILD_DATA  Size = 86 
|------------------------------------------------|----------------|
|00 01 02 03 04 05 06 07 08 09 0A 0B 0C 0D 0E 0F |0123456789ABCDEF|
|------------------------------------------------|----------------|
|00 53 1D 02 01 00 21 90 EA 00 C8 00 00 07 00 0F |.S....!.........|
|4C 61 6D 65 20 64 75 20 44 65 73 74 69 6E 00 00 |Lame du Destin..|
|00 0F 44 72 6F 6C 65 64 65 66 65 6D 6D 65 5E 46 |..Droledefemme^F|
|00 28 01 6B 00 52 81 5E 14 00 01 02 01 00 14 52 |.(.k.R.^.......R|
|65 72 6F 6C 6C 20 4B 69 70 77 61 20 2D 20 52 52 |eroll Kipwa - RR|
|33 32 00 00 01 00                               |......          |
-------------------------------------------------------------------
[Server] packet : (0x6F) F_LOCALIZED_STRING  Size = 13 
|------------------------------------------------|----------------|
|00 01 02 03 04 05 06 07 08 09 0A 0B 0C 0D 0E 0F |0123456789ABCDEF|
|------------------------------------------------|----------------|
|00 0A 6F 00 00 00 00 02 B3 00 00 00 00          |.............   |
-------------------------------------------------------------------
[Server] packet : (0xD8) F_GROUP_STATUS  Size = 11 
|------------------------------------------------|----------------|
|00 01 02 03 04 05 06 07 08 09 0A 0B 0C 0D 0E 0F |0123456789ABCDEF|
|------------------------------------------------|----------------|
|00 08 D8 3E D5 02 FF 01 00 00 00                |...........     |
-------------------------------------------------------------------
[Client] packet : (0x01) UNKNOWN  Size = 32 
|------------------------------------------------|----------------|
|00 01 02 03 04 05 06 07 08 09 0A 0B 0C 0D 0E 0F |0123456789ABCDEF|
|------------------------------------------------|----------------|
|00 14 6E A4 00 DD 00 00 00 01 00 71 EF 90 00 00 |..n........q....|
|00 00 00 00 00 00 00 00 40 08 00 00 30 B4 00 00 |........@...0...|                                                
-------------------------------------------------------------------
[Server] packet : (0x00) UNKNOWN  Size = 23 
|------------------------------------------------|----------------|
|00 01 02 03 04 05 06 07 08 09 0A 0B 0C 0D 0E 0F |0123456789ABCDEF|
|------------------------------------------------|----------------|
|00 14 00 00 71 EF 90 AA F8 53 36 00 00 00 00 00 |....q....S6.....|
|00 40 08 00 00 30 00                            |.......         |
-------------------------------------------------------------------
[Server] packet : (0x51) F_ANIMATION  Size = 9 
|------------------------------------------------|----------------|
|00 01 02 03 04 05 06 07 08 09 0A 0B 0C 0D 0E 0F |0123456789ABCDEF|
|------------------------------------------------|----------------|
|00 06 51 0F E7 00 AC 00 00                      |.........       |
-------------------------------------------------------------------
[Server] packet : (0x51) F_ANIMATION  Size = 9 
|------------------------------------------------|----------------|
|00 01 02 03 04 05 06 07 08 09 0A 0B 0C 0D 0E 0F |0123456789ABCDEF|
|------------------------------------------------|----------------|
|00 06 51 01 3B 00 AC 00 00                      |.........       |
-------------------------------------------------------------------