
[Server] packet : (0x51) F_ANIMATION  Size = 9 
|------------------------------------------------|----------------|
|00 01 02 03 04 05 06 07 08 09 0A 0B 0C 0D 0E 0F |0123456789ABCDEF|
|------------------------------------------------|----------------|
|00 06 51 01 3C 00 B0 00 00                      |.........       |
-------------------------------------------------------------------
[Server] packet : (0x1D) F_GUILD_DATA  Size = 62 
|------------------------------------------------|----------------|
|00 01 02 03 04 05 06 07 08 09 0A 0B 0C 0D 0E 0F |0123456789ABCDEF|
|------------------------------------------------|----------------|
|00 3B 1D 02 01 00 1B 32 1C 00 C8 00 00 07 00 0F |.;.....2........|
|4C 61 6D 65 20 64 75 20 44 65 73 74 69 6E 00 00 |Lame du Destin..|
|00 0A 44 61 73 63 6F 75 62 5E 4D 00 28 00 41 00 |..Dascoub^M.(.A.|
|52 81 54 7A 00 01 01 01 00 01 00 00 01 00       |..............  |
-------------------------------------------------------------------
[Server] packet : (0x1D) F_GUILD_DATA  Size = 86 
|------------------------------------------------|----------------|
|00 01 02 03 04 05 06 07 08 09 0A 0B 0C 0D 0E 0F |0123456789ABCDEF|
|------------------------------------------------|----------------|
|00 53 1D 02 01 00 21 90 EA 00 C8 00 00 07 00 0F |.S....!.........|
|4C 61 6D 65 20 64 75 20 44 65 73 74 69 6E 00 00 |Lame du Destin..|
|00 0F 44 72 6F 6C 65 64 65 66 65 6D 6D 65 5E 46 |..Droledefemme^F|
|00 28 01 6B 00 52 81 5E 14 00 01 01 01 00 14 52 |.(.k.R.^.......R|
|65 72 6F 6C 6C 20 4B 69 70 77 61 20 2D 20 52 52 |eroll Kipwa - RR|
|33 32 00 00 01 00                               |......          |
-------------------------------------------------------------------
[Server] packet : (0x1D) F_GUILD_DATA  Size = 62 
|------------------------------------------------|----------------|
|00 01 02 03 04 05 06 07 08 09 0A 0B 0C 0D 0E 0F |0123456789ABCDEF|
|------------------------------------------------|----------------|
|00 3B 1D 02 01 00 1B 32 1C 00 C8 00 00 07 00 0F |.;.....2........|
|4C 61 6D 65 20 64 75 20 44 65 73 74 69 6E 00 00 |Lame du Destin..|
|00 0A 44 61 73 63 6F 75 62 5E 4D 00 28 00 41 00 |..Dascoub^M.(.A.|
|52 81 54 7A 00 01 01 01 00 01 00 00 01 00       |..............  |
-------------------------------------------------------------------
[Server] packet : (0x1D) F_GUILD_DATA  Size = 86 
|------------------------------------------------|----------------|
|00 01 02 03 04 05 06 07 08 09 0A 0B 0C 0D 0E 0F |0123456789ABCDEF|
|------------------------------------------------|----------------|
|00 53 1D 02 01 00 21 90 EA 00 C8 00 00 07 00 0F |.S....!.........|
|4C 61 6D 65 20 64 75 20 44 65 73 74 69 6E 00 00 |Lame du Destin..|
|00 0F 44 72 6F 6C 65 64 65 66 65 6D 6D 65 5E 46 |..Droledefemme^F|
|00 28 01 6B 00 52 81 5E 14 00 01 01 01 00 14 52 |.(.k.R.^.......R|
|65 72 6F 6C 6C 20 4B 69 70 77 61 20 2D 20 52 52 |eroll Kipwa - RR|
|33 32 00 00 01 00                               |......          |
-------------------------------------------------------------------
[Server] packet : (0xBE) F_CHARACTER_INFO  Size = 186 
|------------------------------------------------|----------------|
|00 01 02 03 04 05 06 07 08 09 0A 0B 0C 0D 0E 0F |0123456789ABCDEF|
|------------------------------------------------|----------------|
|00 B7 BE 06 03 0E C4 7D 03 CC DF 96 01 0F 2A 03 |.......}......*.|
|0F 00 18 02 01 00 01 07 00 00 00 57 61 72 65 6D |...........Warem|
|68 75 07 00 00 00 57 61 72 20 45 6D 75 A0 D0 01 |hu....War Emu...|
|C3 BB 03 DC 24 09 4A 90 40 01 02 90 03 01 64 64 |....$.J.@.....dd|
|00 9C E4 6C 0F 19 03 28 00 0E 02 00 00 01 07 00 |...l...(........|
|00 00 44 61 73 63 6F 75 62 08 00 00 00 56 6F 78 |..Dascoub....Vox|
|20 49 72 61 65 9F D1 01 DD BA 03 DC 24 5F 31 A6 | Irae.......$_1.|
|40 01 02 90 03 01 64 64 00 EA A1 86 01 0F 2A 03 |@.....dd......*.|
|28 00 18 02 01 00 01 0C 00 00 00 44 72 6F 6C 65 |(..........Drole|
|64 65 66 65 6D 6D 65 08 00 00 00 56 6F 78 20 49 |defemme....Vox I|
|72 61 65 CC D1 01 85 BC 03 DC 24 AA 63 26 40 01 |rae.......$.c&@.|
|02 90 03 01 64 64 00 00 00 00                   |..........      |
-------------------------------------------------------------------
[Server] packet : (0xD8) F_GROUP_STATUS  Size = 13 
|------------------------------------------------|----------------|
|00 01 02 03 04 05 06 07 08 09 0A 0B 0C 0D 0E 0F |0123456789ABCDEF|
|------------------------------------------------|----------------|
|00 0A D8 00 00 00 00 0E 01 CC DF 96 00          |.............   |
-------------------------------------------------------------------
[Server] packet : (0xB6) F_SOCIAL_NETWORK  Size = 8 
|------------------------------------------------|----------------|
|00 01 02 03 04 05 06 07 08 09 0A 0B 0C 0D 0E 0F |0123456789ABCDEF|
|------------------------------------------------|----------------|
|00 05 B6 00 00 03 00 00                         |........        |
-------------------------------------------------------------------
[Server] packet : (0x1D) F_GUILD_DATA  Size = 62 
|------------------------------------------------|----------------|
|00 01 02 03 04 05 06 07 08 09 0A 0B 0C 0D 0E 0F |0123456789ABCDEF|
|------------------------------------------------|----------------|
|00 3B 1D 02 01 00 1B 32 1C 00 C8 00 00 07 00 0F |.;.....2........|
|4C 61 6D 65 20 64 75 20 44 65 73 74 69 6E 00 00 |Lame du Destin..|
|00 0A 44 61 73 63 6F 75 62 5E 4D 00 28 00 41 00 |..Dascoub^M.(.A.|
|52 81 54 7A 00 02 02 01 00 01 00 00 01 00       |..............  |
-------------------------------------------------------------------
[Server] packet : (0x1D) F_GUILD_DATA  Size = 86 
|------------------------------------------------|----------------|
|00 01 02 03 04 05 06 07 08 09 0A 0B 0C 0D 0E 0F |0123456789ABCDEF|
|------------------------------------------------|----------------|
|00 53 1D 02 01 00 21 90 EA 00 C8 00 00 07 00 0F |.S....!.........|
|4C 61 6D 65 20 64 75 20 44 65 73 74 69 6E 00 00 |Lame du Destin..|
|00 0F 44 72 6F 6C 65 64 65 66 65 6D 6D 65 5E 46 |..Droledefemme^F|
|00 28 01 6B 00 52 81 5E 14 00 02 02 01 00 14 52 |.(.k.R.^.......R|
|65 72 6F 6C 6C 20 4B 69 70 77 61 20 2D 20 52 52 |eroll Kipwa - RR|
|33 32 00 00 01 00                               |......          |
-------------------------------------------------------------------
[Server] packet : (0xBE) F_CHARACTER_INFO  Size = 186 
|------------------------------------------------|----------------|
|00 01 02 03 04 05 06 07 08 09 0A 0B 0C 0D 0E 0F |0123456789ABCDEF|
|------------------------------------------------|----------------|
|00 B7 BE 06 03 0E C4 7D 03 CC DF 96 01 0F 2A 03 |.......}......*.|
|0F 00 18 02 01 00 01 07 00 00 00 57 61 72 65 6D |...........Warem|
|68 75 07 00 00 00 57 61 72 20 45 6D 75 A0 D0 01 |hu....War Emu...|
|C3 BB 03 DC 24 09 4A 90 40 01 02 90 03 01 64 64 |....$.J.@.....dd|
|00 9C E4 6C 0F 19 03 28 00 0E 02 00 00 01 07 00 |...l...(........|
|00 00 44 61 73 63 6F 75 62 08 00 00 00 56 6F 78 |..Dascoub....Vox|
|20 49 72 61 65 9F D1 01 DD BA 03 DC 24 5F 31 A6 | Irae.......$_1.|
|40 01 02 90 03 01 64 64 00 EA A1 86 01 0F 2A 03 |@.....dd......*.|
|28 00 18 02 01 00 01 0C 00 00 00 44 72 6F 6C 65 |(..........Drole|
|64 65 66 65 6D 6D 65 08 00 00 00 56 6F 78 20 49 |defemme....Vox I|
|72 61 65 CC D1 01 85 BC 03 DC 24 AA 63 26 40 01 |rae.......$.c&@.|
|02 90 03 01 64 64 00 00 00 00                   |..........      |
-------------------------------------------------------------------
[Server] packet : (0xD8) F_GROUP_STATUS  Size = 13 
|------------------------------------------------|----------------|
|00 01 02 03 04 05 06 07 08 09 0A 0B 0C 0D 0E 0F |0123456789ABCDEF|
|------------------------------------------------|----------------|
|00 0A D8 00 00 00 00 0E 01 CC DF 96 00          |.............   |
-------------------------------------------------------------------
[Server] packet : (0xBE) F_CHARACTER_INFO  Size = 30 
|------------------------------------------------|----------------|
|00 01 02 03 04 05 06 07 08 09 0A 0B 0C 0D 0E 0F |0123456789ABCDEF|
|------------------------------------------------|----------------|
|00 1B BE 06 04 C4 7D CC DF 96 01 F5 17 00 9C E4 |......}.........|
|6C 94 4F 00 EA A1 86 01 BD 72 00 00 00 00       |..............  |
-------------------------------------------------------------------
[Server] packet : (0xD8) F_GROUP_STATUS  Size = 23 
|------------------------------------------------|----------------|
|00 01 02 03 04 05 06 07 08 09 0A 0B 0C 0D 0E 0F |0123456789ABCDEF|
|------------------------------------------------|----------------|
|00 14 D8 3E C4 01 00 00 02 00 00 00 00 00 01 00 |...>............|
|1B 32 1C 00 25 AF 00                            |.......         |
-------------------------------------------------------------------
[Server] packet : (0xD8) F_GROUP_STATUS  Size = 11 
|------------------------------------------------|----------------|
|00 01 02 03 04 05 06 07 08 09 0A 0B 0C 0D 0E 0F |0123456789ABCDEF|
|------------------------------------------------|----------------|
|00 08 D8 3E C4 02 00 00 00 00 00                |...........     |
-------------------------------------------------------------------
[Server] packet : (0xBE) F_CHARACTER_INFO  Size = 30 
|------------------------------------------------|----------------|
|00 01 02 03 04 05 06 07 08 09 0A 0B 0C 0D 0E 0F |0123456789ABCDEF|
|------------------------------------------------|----------------|
|00 1B BE 06 04 C4 7D CC DF 96 01 F5 17 00 9C E4 |......}.........|
|6C 94 4F 00 EA A1 86 01 BD 72 00 00 00 00       |..............  |
-------------------------------------------------------------------
[Server] packet : (0xD8) F_GROUP_STATUS  Size = 23 
|------------------------------------------------|----------------|
|00 01 02 03 04 05 06 07 08 09 0A 0B 0C 0D 0E 0F |0123456789ABCDEF|
|------------------------------------------------|----------------|
|00 14 D8 3E C4 01 00 00 02 00 00 00 00 00 01 00 |...>............|
|1B 32 1C 00 25 AF 00                            |.......         |
-------------------------------------------------------------------
[Server] packet : (0xD8) F_GROUP_STATUS  Size = 11 
|------------------------------------------------|----------------|
|00 01 02 03 04 05 06 07 08 09 0A 0B 0C 0D 0E 0F |0123456789ABCDEF|
|------------------------------------------------|----------------|
|00 08 D8 3E C4 02 00 01 00 00 00                |...........     |
-------------------------------------------------------------------
[Server] packet : (0xBE) F_CHARACTER_INFO  Size = 30 
|------------------------------------------------|----------------|
|00 01 02 03 04 05 06 07 08 09 0A 0B 0C 0D 0E 0F |0123456789ABCDEF|
|------------------------------------------------|----------------|
|00 1B BE 06 04 C4 7D CC DF 96 01 F5 17 00 9C E4 |......}.........|
|6C 94 4F 00 EA A1 86 01 BD 72 00 00 00 00       |..............  |
-------------------------------------------------------------------
[Server] packet : (0xD8) F_GROUP_STATUS  Size = 23 
|------------------------------------------------|----------------|
|00 01 02 03 04 05 06 07 08 09 0A 0B 0C 0D 0E 0F |0123456789ABCDEF|
|------------------------------------------------|----------------|
|00 14 D8 3E C4 01 00 00 02 00 00 00 00 00 01 00 |...>............|
|1B 32 1C 00 25 AF 00                            |.......         |
-------------------------------------------------------------------
[Server] packet : (0xD8) F_GROUP_STATUS  Size = 11 
|------------------------------------------------|----------------|
|00 01 02 03 04 05 06 07 08 09 0A 0B 0C 0D 0E 0F |0123456789ABCDEF|
|------------------------------------------------|----------------|
|00 08 D8 3E C4 02 00 01 00 00 00                |...........     |
-------------------------------------------------------------------
[Client] packet : (0x01) UNKNOWN  Size = 32 
|------------------------------------------------|----------------|
|00 01 02 03 04 05 06 07 08 09 0A 0B 0C 0D 0E 0F |0123456789ABCDEF|
|------------------------------------------------|----------------|
|00 14 61 18 00 DD 00 00 00 01 00 5B 8E DE 20 07 |..a........[.. .|
|2A 68 90 38 40 04 00 23 3B B6 08 18 DD EE 3F 6F |*h.8@..#;.....?o|                                                
-------------------------------------------------------------------
[Server] packet : (0x00) UNKNOWN  Size = 23 
|------------------------------------------------|----------------|
|00 01 02 03 04 05 06 07 08 09 0A 0B 0C 0D 0E 0F |0123456789ABCDEF|
|------------------------------------------------|----------------|
|00 14 00 00 5B 8E DE AA E1 F1 E2 00 00 00 00 00 |....[...........|
|23 3B B6 08 18 DD 00                            |.......         |
-------------------------------------------------------------------