
[Client] packet : (0x37) F_GROUP_COMMAND  Size = 20 
|------------------------------------------------|----------------|
|00 01 02 03 04 05 06 07 08 09 0A 0B 0C 0D 0E 0F |0123456789ABCDEF|
|------------------------------------------------|----------------|
|00 08 5D E5 00 DD FF FF 00 37 00 00 00 00 03 00 |..]......7......|
|00 00 00 00                                     |....            |
-------------------------------------------------------------------
[Server] packet : (0xB6) F_SOCIAL_NETWORK  Size = 8 
|------------------------------------------------|----------------|
|00 01 02 03 04 05 06 07 08 09 0A 0B 0C 0D 0E 0F |0123456789ABCDEF|
|------------------------------------------------|----------------|
|00 05 B6 00 00 03 00 00                         |........        |
-------------------------------------------------------------------
[Server] packet : (0xBE) F_CHARACTER_INFO  Size = 10 
|------------------------------------------------|----------------|
|00 01 02 03 04 05 06 07 08 09 0A 0B 0C 0D 0E 0F |0123456789ABCDEF|
|------------------------------------------------|----------------|
|00 07 BE 06 01 C4 7D 9C E4 00                   |..........      |
-------------------------------------------------------------------
[Server] packet : (0x1D) F_GUILD_DATA  Size = 62 
|------------------------------------------------|----------------|
|00 01 02 03 04 05 06 07 08 09 0A 0B 0C 0D 0E 0F |0123456789ABCDEF|
|------------------------------------------------|----------------|
|00 3B 1D 02 01 00 1B 32 1C 00 C8 00 00 07 00 0F |.;.....2........|
|4C 61 6D 65 20 64 75 20 44 65 73 74 69 6E 00 00 |Lame du Destin..|
|00 0A 44 61 73 63 6F 75 62 5E 4D 00 28 00 41 00 |..Dascoub^M.(.A.|
|52 81 54 7A 00 00 00 01 00 01 00 00 01 00       |..............  |
-------------------------------------------------------------------
[Server] packet : (0x6F) F_LOCALIZED_STRING  Size = 13 
|------------------------------------------------|----------------|
|00 01 02 03 04 05 06 07 08 09 0A 0B 0C 0D 0E 0F |0123456789ABCDEF|
|------------------------------------------------|----------------|
|00 0A 6F 00 00 00 00 00 F3 00 00 00 00          |.............   |
-------------------------------------------------------------------
[Server] packet : (0x6F) F_LOCALIZED_STRING  Size = 26 
|------------------------------------------------|----------------|
|00 01 02 03 04 05 06 07 08 09 0A 0B 0C 0D 0E 0F |0123456789ABCDEF|
|------------------------------------------------|----------------|
|00 17 6F 00 00 00 00 00 F4 00 00 00 01 01 00 0A |..o.............|
|44 61 73 63 6F 75 62 5E 4D 00                   |..........      |
-------------------------------------------------------------------
[Server] packet : (0x51) F_ANIMATION  Size = 9 
|------------------------------------------------|----------------|
|00 01 02 03 04 05 06 07 08 09 0A 0B 0C 0D 0E 0F |0123456789ABCDEF|
|------------------------------------------------|----------------|
|00 06 51 01 3B 00 AC 00 00                      |.........       |
-------------------------------------------------------------------
[Client] packet : (0x01) UNKNOWN  Size = 32 
|------------------------------------------------|----------------|
|00 01 02 03 04 05 06 07 08 09 0A 0B 0C 0D 0E 0F |0123456789ABCDEF|
|------------------------------------------------|----------------|
|00 14 5D EC 00 DD 00 00 00 01 00 56 13 F6 20 07 |..]........V.. .|
|2A 68 90 38 40 04 00 23 3B F7 08 18 E7 CA FA A9 |*h.8@..#;.......|                                                
-------------------------------------------------------------------
[Server] packet : (0x00) UNKNOWN  Size = 23 
|------------------------------------------------|----------------|
|00 01 02 03 04 05 06 07 08 09 0A 0B 0C 0D 0E 0F |0123456789ABCDEF|
|------------------------------------------------|----------------|
|00 14 00 00 56 13 F6 AA DC 76 F0 00 00 00 00 00 |....V....v......|
|23 3B F7 08 18 E7 00                            |.......         |
-------------------------------------------------------------------