
[Client] packet : (0x0B) F_PING  Size = 32 
|------------------------------------------------|----------------|
|00 01 02 03 04 05 06 07 08 09 0A 0B 0C 0D 0E 0F |0123456789ABCDEF|
|------------------------------------------------|----------------|
|00 14 14 4B 00 05 00 00 00 0B 00 15 04 1A 0A BF |...K............|
|3D B9 0A FE F0 CE 00 00 00 00 00 00 00 00 F0 ED |=...............|                                                
-------------------------------------------------------------------
[Client] packet : (0xD2) F_INTERACT  Size = 24 
|------------------------------------------------|----------------|
|00 01 02 03 04 05 06 07 08 09 0A 0B 0C 0D 0E 0F |0123456789ABCDEF|
|------------------------------------------------|----------------|
|00 0C 14 4D 00 05 00 00 00 D2 00 00 27 94 00 00 |...M........'...|
|00 00 00 00 00 00 00 00                         |........        |
-------------------------------------------------------------------
[Server] packet : (0x81) S_PONG  Size = 23 
|------------------------------------------------|----------------|
|00 01 02 03 04 05 06 07 08 09 0A 0B 0C 0D 0E 0F |0123456789ABCDEF|
|------------------------------------------------|----------------|
|00 14 81 00 15 04 1A 52 81 5F D5 00 00 00 00 00 |.......R._......|
|00 14 4C 00 00 00 00                            |.......         |
-------------------------------------------------------------------
[Server] packet : (0xD7) F_INIT_EFFECTS  Size = 365 
|------------------------------------------------|----------------|
|00 01 02 03 04 05 06 07 08 09 0A 0B 0C 0D 0E 0F |0123456789ABCDEF|
|------------------------------------------------|----------------|
|01 6A D7 15 00 00 00 27 94 18 00 F9 20 F0 AC AE |.j.....'.... ...|
|01 94 27 01 00 02 19 00 FA 20 F0 AC AE 01 94 27 |..'...... .....'|
|01 00 C8 01 1A 00 F0 20 F0 AC AE 01 94 27 01 00 |....... .....'..|
|02 04 00 FD 6E F0 AC AE 01 94 27 01 00 02 12 00 |....n.....'.....|
|A0 38 F0 AC AE 01 94 27 01 00 32 06 00 2A 6F F0 |.8.....'..2..*o.|
|AC AE 01 94 27 01 00 02 1B 00 F3 20 F0 AC AE 01 |....'...... ....|
|94 27 01 00 02 1C 00 11 3B F0 AC AE 01 94 27 01 |.'......;.....'.|
|00 0A 0C 00 E2 0B F0 AC AE 01 94 27 01 02 02 10 |...........'....|
|00 ED 01 F0 AC AE 01 94 27 0A 00 40 01 52 02 74 |........'..@.R.t|
|03 B0 01 04 84 02 05 EE 02 06 F4 01 07 86 01 08 |................|
|10 09 32 08 00 BF 33 F0 AC AE 01 94 27 01 00 C8 |..2...3.....'...|
|01 09 00 00 1F AC 0B 94 27 01 00 A8 0A 0B 00 97 |........'.......|
|70 F0 AC AE 01 94 27 03 00 02 02 C0 D5 01 04 62 |p.....'........b|
|07 00 CE 20 F0 AC AE 01 94 27 03 00 02 04 02 05 |... .....'......|
|C0 02 05 00 8A 37 F0 AC AE 01 94 27 01 00 0A 02 |.....7.....'....|
|00 8B 61 F0 AC AE 01 94 27 04 00 32 01 32 02 64 |..a.....'..2.2.d|
|03 64 0E 00 EC 01 F0 AC AE 01 94 27 04 00 90 03 |.d.........'....|
|01 90 03 02 90 03 03 90 03 11 00 DE 01 F0 AC AE |................|
|01 94 27 01 01 02 0D 00 EA 01 F0 AC AE 01 94 27 |..'............'|
|05 00 02 01 5B 02 02 05 02 09 8F CB 01 01 00 4C |....[..........L|
|61 F0 AC AE 01 94 27 03 00 C7 01 01 C7 01 02 C7 |a.....'.........|
|01 0F 00 51 0C F0 AC AE 01 94 27 06 00 C7 01 01 |...Q......'.....|
|C7 01 02 C7 01 03 C7 01 04 02 05 02 00          |.............   |
-------------------------------------------------------------------
[Server] packet : (0x51) F_ANIMATION  Size = 9 
|------------------------------------------------|----------------|
|00 01 02 03 04 05 06 07 08 09 0A 0B 0C 0D 0E 0F |0123456789ABCDEF|
|------------------------------------------------|----------------|
|00 06 51 01 3B 00 AC 00 00                      |.........       |
-------------------------------------------------------------------
[Server] packet : (0xA9) F_UPDATE_HOT_SPOT  Size = 406 
|------------------------------------------------|----------------|
|00 01 02 03 04 05 06 07 08 09 0A 0B 0C 0D 0E 0F |0123456789ABCDEF|
|------------------------------------------------|----------------|
|01 93 A9 50 02 00 01 00 00 00 00 02 00 00 00 00 |...P............|
|03 00 00 00 00 04 00 00 00 00 05 00 00 00 00 06 |................|
|00 00 00 00 07 00 00 00 00 08 00 00 00 00 09 00 |................|
|00 00 00 0A 00 00 00 00 0B 00 00 00 00 1A 00 00 |................|
|00 00 1B 00 00 00 00 44 00 00 00 00 46 00 00 00 |.......D....F...|
|00 47 00 00 00 00 4A 00 00 00 00 4B 00 00 00 00 |.G....J....K....|
|58 00 00 00 00 64 00 00 00 00 65 00 00 00 00 66 |X....d....e....f|
|00 00 00 00 67 00 00 00 00 68 00 00 00 00 69 00 |....g....h....i.|
|00 00 00 6A 01 00 00 00 6B 00 00 00 00 6C 00 00 |...j....k....l..|
|00 00 6D 00 00 00 00 6E 00 00 00 00 75 00 00 00 |..m....n....u...|
|00 76 00 00 00 00 78 00 00 00 00 81 00 00 00 00 |.v....x.........|
|90 00 00 00 00 91 00 00 00 00 A1 00 00 00 00 A2 |................|
|00 00 00 00 AF 00 00 00 00 B2 00 00 00 00 BE 00 |................|
|00 00 00 BF 00 00 00 00 C0 00 00 00 00 C1 00 00 |................|
|00 00 C6 00 00 00 00 C8 00 00 00 00 C9 00 00 00 |................|
|00 CA 00 00 00 00 CB 01 00 05 00 CC 00 00 00 00 |................|
|CD 00 00 00 00 CE 00 00 00 00 CF 00 00 00 00 D0 |................|
|00 00 00 00 D1 00 00 00 00 D2 00 00 00 00 D3 00 |................|
|00 00 00 D5 00 00 00 00 D7 00 00 00 00 D8 00 00 |................|
|00 00 D9 00 00 00 00 DC 00 00 00 00 DD 00 00 00 |................|
|00 DE 00 00 00 00 E3 00 00 00 00 E4 00 00 00 00 |................|
|FA 00 00 00 00 FB 00 00 00 00 FC 00 00 00 00 FD |................|
|00 00 00 01 15 00 00 00 01 16 00 00 00 01 18 00 |................|
|00 00 01 1B 00 00 00 01 1C 00 00 00 01 1D 00 00 |................|
|00 01 1F 00 00 00 01 22 00 00 00 01 23 00 00 00 |......."....#...|
|01 24 00 00 00 00                               |......          |
-------------------------------------------------------------------
[Client] packet : (0x37) F_GROUP_COMMAND  Size = 20 
|------------------------------------------------|----------------|
|00 01 02 03 04 05 06 07 08 09 0A 0B 0C 0D 0E 0F |0123456789ABCDEF|
|------------------------------------------------|----------------|
|00 08 14 56 00 05 FF FF 00 37 00 1B 32 1C 11 00 |...V.....7..2...|
|00 00 18 00                                     |....            |
-------------------------------------------------------------------
[Server] packet : (0x6F) F_LOCALIZED_STRING  Size = 26 
|------------------------------------------------|----------------|
|00 01 02 03 04 05 06 07 08 09 0A 0B 0C 0D 0E 0F |0123456789ABCDEF|
|------------------------------------------------|----------------|
|00 17 6F 00 00 00 00 05 50 00 00 00 01 01 00 0A |..o.....P.......|
|44 61 73 63 6F 75 62 5E 4D 00                   |..........      |
-------------------------------------------------------------------
[Server] packet : (0xD8) F_GROUP_STATUS  Size = 23 
|------------------------------------------------|----------------|
|00 01 02 03 04 05 06 07 08 09 0A 0B 0C 0D 0E 0F |0123456789ABCDEF|
|------------------------------------------------|----------------|
|00 14 D8 3E C4 01 FF 00 02 00 00 00 00 00 01 00 |...>............|
|1B 32 1C 00 25 AF 00                            |.......         |
-------------------------------------------------------------------
[Server] packet : (0x51) F_ANIMATION  Size = 9 
|------------------------------------------------|----------------|
|00 01 02 03 04 05 06 07 08 09 0A 0B 0C 0D 0E 0F |0123456789ABCDEF|
|------------------------------------------------|----------------|
|00 06 51 01 3C 00 E5 00 00                      |.........       |
-------------------------------------------------------------------
[Client] packet : (0x0B) F_PING  Size = 32 
|------------------------------------------------|----------------|
|00 01 02 03 04 05 06 07 08 09 0A 0B 0C 0D 0E 0F |0123456789ABCDEF|
|------------------------------------------------|----------------|
|00 14 14 59 00 05 00 00 00 0B 00 15 17 B1 88 50 |...Y...........P|
|81 11 65 45 31 22 00 00 00 00 00 00 00 00 F0 56 |..eE1".........V|                                                
-------------------------------------------------------------------
[Server] packet : (0x81) S_PONG  Size = 23 
|------------------------------------------------|----------------|
|00 01 02 03 04 05 06 07 08 09 0A 0B 0C 0D 0E 0F |0123456789ABCDEF|
|------------------------------------------------|----------------|
|00 14 81 00 15 17 B1 52 81 5F DA 00 00 00 00 00 |.......R._......|
|00 14 5A 00 00 00 00                            |.......         |
-------------------------------------------------------------------
[Client] packet : (0x5A) F_PING_DATAGRAM  Size = 13 
|------------------------------------------------|----------------|
|00 01 02 03 04 05 06 07 08 09 0A 0B 0C 0D 0E 0F |0123456789ABCDEF|
|------------------------------------------------|----------------|
|00 01 14 5B 00 05 FF FF 00 5A 00 A9 2F          |.............   |
-------------------------------------------------------------------