
[Client] packet : (0x16) F_REQUEST_INIT_OBJECT  Size = 16 
|------------------------------------------------|----------------|
|00 01 02 03 04 05 06 07 08 09 0A 0B 0C 0D 0E 0F |0123456789ABCDEF|
|------------------------------------------------|----------------|
|00 04 17 E5 00 05 00 00 00 16 39 61 00 00 AD 8F |..........9a....|                                                
-------------------------------------------------------------------
[Server] packet : (0x72) F_CREATE_MONSTER  Size = 108 
|------------------------------------------------|----------------|
|00 01 02 03 04 05 06 07 08 09 0A 0B 0C 0D 0E 0F |0123456789ABCDEF|
|------------------------------------------------|----------------|
|00 69 72 39 61 00 EB 0D A8 27 BF 00 0F D8 C1 00 |.ir9a....'......|
|10 40 24 FF 88 04 3C 32 07 61 00 00 00 00 00 00 |.@$...<2.a......|
|00 00 00 03 E8 00 00 00 00 89 66 00 05 00 00 01 |..........f.....|
|19 00 47 6F 6C 64 65 6E 77 69 6E 67 20 46 6C 69 |..Goldenwing Fli|
|65 72 5E 6D 00 01 0A 00 00 00 1A 05 00 39 61 58 |er^m.........9aX|
|C1 C0 24 27 BF 64 21 C8 00 00 00 00 00 EB 00 9E |..$'.d!.........|
|45 5A 4C C1 B9 26 C8 39 61 00 00 00             |............    |
-------------------------------------------------------------------
[Client] packet : (0x01) UNKNOWN  Size = 32 
|------------------------------------------------|----------------|
|00 01 02 03 04 05 06 07 08 09 0A 0B 0C 0D 0E 0F |0123456789ABCDEF|
|------------------------------------------------|----------------|
|00 14 17 E7 00 05 00 00 00 01 00 1B 3A B2 20 07 |............:. .|
|2A 68 90 38 40 04 00 23 39 FE 08 18 D8 EE 07 7D |*h.8@..#9......}|                                                
-------------------------------------------------------------------
[Server] packet : (0x00) UNKNOWN  Size = 23 
|------------------------------------------------|----------------|
|00 01 02 03 04 05 06 07 08 09 0A 0B 0C 0D 0E 0F |0123456789ABCDEF|
|------------------------------------------------|----------------|
|00 14 00 00 1B 3A B2 AA E4 67 EE 00 00 00 00 00 |.....:...g......|
|23 39 FE 08 18 D8 00                            |.......         |
-------------------------------------------------------------------
[Client] packet : (0x5A) F_PING_DATAGRAM  Size = 13 
|------------------------------------------------|----------------|
|00 01 02 03 04 05 06 07 08 09 0A 0B 0C 0D 0E 0F |0123456789ABCDEF|
|------------------------------------------------|----------------|
|00 01 17 ED 00 05 FF FF 00 5A 00 4E F2          |.............   |
-------------------------------------------------------------------
[Server] packet : (0x33) UNKNOWN  Size = 16 
|------------------------------------------------|----------------|
|00 01 02 03 04 05 06 07 08 09 0A 0B 0C 0D 0E 0F |0123456789ABCDEF|
|------------------------------------------------|----------------|
|00 0D 33 01 CC AF 25 20 68 C3 DD 5C 12 B4 B8 00 |..3...% h..\....|                                                
-------------------------------------------------------------------
[Client] packet : (0x0B) F_PING  Size = 32 
|------------------------------------------------|----------------|
|00 01 02 03 04 05 06 07 08 09 0A 0B 0C 0D 0E 0F |0123456789ABCDEF|
|------------------------------------------------|----------------|
|00 14 17 F0 00 05 00 00 00 0B 00 1B 4E D8 23 90 |............N.#.|
|82 4B D5 C2 2C A0 00 00 00 00 00 00 00 00 F0 ED |.K..,...........|                                                
-------------------------------------------------------------------
[Server] packet : (0x81) S_PONG  Size = 23 
|------------------------------------------------|----------------|
|00 01 02 03 04 05 06 07 08 09 0A 0B 0C 0D 0E 0F |0123456789ABCDEF|
|------------------------------------------------|----------------|
|00 14 81 00 1B 4E D8 52 81 61 71 00 00 00 00 00 |.....N.R.aq.....|
|00 17 F1 00 00 00 00                            |.......         |
-------------------------------------------------------------------
[Client] packet : (0x16) F_REQUEST_INIT_OBJECT  Size = 16 
|------------------------------------------------|----------------|
|00 01 02 03 04 05 06 07 08 09 0A 0B 0C 0D 0E 0F |0123456789ABCDEF|
|------------------------------------------------|----------------|
|00 04 17 F3 00 05 00 00 00 16 10 C2 00 00 3B 86 |..............;.|                                                
-------------------------------------------------------------------
[Server] packet : (0x72) F_CREATE_MONSTER  Size = 108 
|------------------------------------------------|----------------|
|00 01 02 03 04 05 06 07 08 09 0A 0B 0C 0D 0E 0F |0123456789ABCDEF|
|------------------------------------------------|----------------|
|00 69 72 10 C2 00 EB 0B 93 29 FA 00 0F D0 14 00 |.ir......)......|
|10 40 49 00 00 04 3C 32 07 61 00 00 00 00 00 00 |.@I...<2.a......|
|00 00 00 03 E8 00 00 00 00 89 66 00 04 00 00 01 |..........f.....|
|19 00 47 6F 6C 64 65 6E 77 69 6E 67 20 46 6C 69 |..Goldenwing Fli|
|65 72 5E 6D 00 01 0A 00 00 00 1A 05 00 10 C2 50 |er^m...........P|
|14 C0 49 29 FA 64 21 C8 00 00 00 00 00 EB 00 00 |..I).d!.........|
|AD 59 AE BE FA 29 C8 10 C2 00 00 00             |............    |
-------------------------------------------------------------------
[Server] packet : (0x51) F_ANIMATION  Size = 9 
|------------------------------------------------|----------------|
|00 01 02 03 04 05 06 07 08 09 0A 0B 0C 0D 0E 0F |0123456789ABCDEF|
|------------------------------------------------|----------------|
|00 06 51 01 3C 00 B0 00 00                      |.........       |
-------------------------------------------------------------------
[Client] packet : (0x0B) F_PING  Size = 32 
|------------------------------------------------|----------------|
|00 01 02 03 04 05 06 07 08 09 0A 0B 0C 0D 0E 0F |0123456789ABCDEF|
|------------------------------------------------|----------------|
|00 14 17 FB 00 05 00 00 00 0B 00 1B 62 6F 6B 97 |............bok.|
|AE F8 D9 3C 4F 34 00 00 00 00 00 00 00 00 F0 ED |...<O4..........|                                                
-------------------------------------------------------------------
[Server] packet : (0x81) S_PONG  Size = 23 
|------------------------------------------------|----------------|
|00 01 02 03 04 05 06 07 08 09 0A 0B 0C 0D 0E 0F |0123456789ABCDEF|
|------------------------------------------------|----------------|
|00 14 81 00 1B 62 6F 52 81 61 76 00 00 00 00 00 |.....boR.av.....|
|00 17 FC 00 00 00 00                            |.......         |
-------------------------------------------------------------------
[Client] packet : (0x01) UNKNOWN  Size = 32 
|------------------------------------------------|----------------|
|00 01 02 03 04 05 06 07 08 09 0A 0B 0C 0D 0E 0F |0123456789ABCDEF|
|------------------------------------------------|----------------|
|00 14 17 FF 00 05 00 00 00 01 00 1B 62 FA 20 07 |............b. .|
|2A 68 90 38 40 04 00 23 7F F8 08 18 EA EF 00 00 |*h.8@..#........|                                                
-------------------------------------------------------------------
[Server] packet : (0x00) UNKNOWN  Size = 23 
|------------------------------------------------|----------------|
|00 01 02 03 04 05 06 07 08 09 0A 0B 0C 0D 0E 0F |0123456789ABCDEF|
|------------------------------------------------|----------------|
|00 14 00 00 1B 62 FA AA E4 8F 75 00 00 00 00 00 |.....b....u.....|
|23 7F F8 08 18 EA 00                            |.......         |
-------------------------------------------------------------------
[Server] packet : (0x51) F_ANIMATION  Size = 9 
|------------------------------------------------|----------------|
|00 01 02 03 04 05 06 07 08 09 0A 0B 0C 0D 0E 0F |0123456789ABCDEF|
|------------------------------------------------|----------------|
|00 06 51 0F E7 00 AC 00 00                      |.........       |
-------------------------------------------------------------------
[Client] packet : (0x16) F_REQUEST_INIT_OBJECT  Size = 16 
|------------------------------------------------|----------------|
|00 01 02 03 04 05 06 07 08 09 0A 0B 0C 0D 0E 0F |0123456789ABCDEF|
|------------------------------------------------|----------------|
|00 04 18 04 00 05 00 00 00 16 36 51 00 00 6D BC |..........6Q..m.|                                                
-------------------------------------------------------------------
[Server] packet : (0x72) F_CREATE_MONSTER  Size = 108 
|------------------------------------------------|----------------|
|00 01 02 03 04 05 06 07 08 09 0A 0B 0C 0D 0E 0F |0123456789ABCDEF|
|------------------------------------------------|----------------|
|00 69 72 36 51 00 EB 0F F6 25 F2 00 0F D8 04 00 |.ir6Q....%......|
|10 41 36 00 00 04 3C 32 07 61 00 00 00 00 00 00 |.A6...<2.a......|
|00 00 00 03 E8 00 00 00 00 89 65 00 00 00 00 01 |..........e.....|
|19 00 47 6F 6C 64 65 6E 77 69 6E 67 20 46 6C 69 |..Goldenwing Fli|
|65 72 5E 6D 00 01 0A 00 00 00 1A 05 00 36 51 58 |er^m.........6QX|
|04 C1 36 25 F2 64 21 C8 00 00 00 00 00 EB 00 00 |..6%.d!.........|
|08 58 3E C2 F2 25 C8 36 51 00 00 00             |............    |
-------------------------------------------------------------------
[Client] packet : (0x37) F_GROUP_COMMAND  Size = 20 
|------------------------------------------------|----------------|
|00 01 02 03 04 05 06 07 08 09 0A 0B 0C 0D 0E 0F |0123456789ABCDEF|
|------------------------------------------------|----------------|
|00 08 18 07 00 05 FF FF 00 37 00 00 00 01 04 00 |.........7......|
|00 00 00 00                                     |....            |
-------------------------------------------------------------------
[Server] packet : (0x6F) F_LOCALIZED_STRING  Size = 13 
|------------------------------------------------|----------------|
|00 01 02 03 04 05 06 07 08 09 0A 0B 0C 0D 0E 0F |0123456789ABCDEF|
|------------------------------------------------|----------------|
|00 0A 6F 00 00 00 00 03 BA 00 00 00 00          |.............   |
-------------------------------------------------------------------
[Server] packet : (0xD8) F_GROUP_STATUS  Size = 23 
|------------------------------------------------|----------------|
|00 01 02 03 04 05 06 07 08 09 0A 0B 0C 0D 0E 0F |0123456789ABCDEF|
|------------------------------------------------|----------------|
|00 14 D8 3E C4 01 00 01 02 00 00 00 00 00 01 00 |...>............|
|1B 32 1C 00 25 AF 00                            |.......         |
-------------------------------------------------------------------
[Client] packet : (0x0B) F_PING  Size = 32 
|------------------------------------------------|----------------|
|00 01 02 03 04 05 06 07 08 09 0A 0B 0C 0D 0E 0F |0123456789ABCDEF|
|------------------------------------------------|----------------|
|00 14 18 09 00 05 00 00 00 0B 00 1B 76 01 0A A0 |............v...|
|50 93 4A 00 9D 52 00 00 00 00 00 00 00 00 5D ED |P.J..R........].|                                                
-------------------------------------------------------------------
[Server] packet : (0x81) S_PONG  Size = 23 
|------------------------------------------------|----------------|
|00 01 02 03 04 05 06 07 08 09 0A 0B 0C 0D 0E 0F |0123456789ABCDEF|
|------------------------------------------------|----------------|
|00 14 81 00 1B 76 01 52 81 61 7B 00 00 00 00 00 |.....v.R.a{.....|
|00 18 0A 00 00 00 00                            |.......         |
-------------------------------------------------------------------
[Client] packet : (0x5A) F_PING_DATAGRAM  Size = 13 
|------------------------------------------------|----------------|
|00 01 02 03 04 05 06 07 08 09 0A 0B 0C 0D 0E 0F |0123456789ABCDEF|
|------------------------------------------------|----------------|
|00 01 18 11 00 05 FF FF 00 5A 00 2E F2          |.............   |
-------------------------------------------------------------------
[Client] packet : (0x37) F_GROUP_COMMAND  Size = 20 
|------------------------------------------------|----------------|
|00 01 02 03 04 05 06 07 08 09 0A 0B 0C 0D 0E 0F |0123456789ABCDEF|
|------------------------------------------------|----------------|
|00 08 18 12 00 05 FF FF 00 37 00 00 00 02 04 00 |.........7......|
|00 00 00 00                                     |....            |
-------------------------------------------------------------------
[Server] packet : (0x6F) F_LOCALIZED_STRING  Size = 26 
|------------------------------------------------|----------------|
|00 01 02 03 04 05 06 07 08 09 0A 0B 0C 0D 0E 0F |0123456789ABCDEF|
|------------------------------------------------|----------------|
|00 17 6F 00 00 00 00 03 BC 00 00 00 01 01 00 0A |..o.............|
|57 61 72 65 6D 68 75 5E 46 00                   |..........      |
-------------------------------------------------------------------
[Server] packet : (0xD8) F_GROUP_STATUS  Size = 23 
|------------------------------------------------|----------------|
|00 01 02 03 04 05 06 07 08 09 0A 0B 0C 0D 0E 0F |0123456789ABCDEF|
|------------------------------------------------|----------------|
|00 14 D8 3E C4 01 00 02 02 00 25 AF CC 00 00 00 |...>......%.....|
|1B 32 1C 00 25 AF 00                            |.......         |
-------------------------------------------------------------------
[Client] packet : (0x0B) F_PING  Size = 32 
|------------------------------------------------|----------------|
|00 01 02 03 04 05 06 07 08 09 0A 0B 0C 0D 0E 0F |0123456789ABCDEF|
|------------------------------------------------|----------------|
|00 14 18 14 00 05 00 00 00 0B 00 1B 89 91 1F F8 |................|
|10 03 64 43 AC DA 00 00 00 00 00 00 00 00 F0 ED |..dC............|                                                
-------------------------------------------------------------------
[Server] packet : (0x81) S_PONG  Size = 23 
|------------------------------------------------|----------------|
|00 01 02 03 04 05 06 07 08 09 0A 0B 0C 0D 0E 0F |0123456789ABCDEF|
|------------------------------------------------|----------------|
|00 14 81 00 1B 89 91 52 81 61 80 00 00 00 00 00 |.......R.a......|
|00 18 15 00 00 00 00                            |.......         |
-------------------------------------------------------------------
[Client] packet : (0x16) F_REQUEST_INIT_OBJECT  Size = 16 
|------------------------------------------------|----------------|
|00 01 02 03 04 05 06 07 08 09 0A 0B 0C 0D 0E 0F |0123456789ABCDEF|
|------------------------------------------------|----------------|
|00 04 18 17 00 05 00 00 00 16 37 BB 00 00 E9 0C |..........7.....|                                                
-------------------------------------------------------------------
[Server] packet : (0x72) F_CREATE_MONSTER  Size = 108 
|------------------------------------------------|----------------|
|00 01 02 03 04 05 06 07 08 09 0A 0B 0C 0D 0E 0F |0123456789ABCDEF|
|------------------------------------------------|----------------|
|00 69 72 37 BB 00 EB 03 95 29 D5 00 0F D7 93 00 |.ir7.....)......|
|10 40 02 00 03 04 3C 32 07 61 00 00 00 00 00 00 |.@....<2.a......|
|00 00 00 03 E8 00 00 00 00 89 68 00 03 00 00 01 |..........h.....|
|19 00 47 6F 6C 64 65 6E 77 69 6E 67 20 46 6C 69 |..Goldenwing Fli|
|65 72 5E 6D 00 01 0A 00 00 00 1A 05 00 37 BB 57 |er^m.........7.W|
|93 C0 02 29 D5 64 21 C8 00 00 00 00 00 EB 00 00 |...).d!.........|
|2B 57 14 C0 D7 29 C8 37 BB 00 00 00             |............    |
-------------------------------------------------------------------
[Client] packet : (0x01) UNKNOWN  Size = 32 
|------------------------------------------------|----------------|
|00 01 02 03 04 05 06 07 08 09 0A 0B 0C 0D 0E 0F |0123456789ABCDEF|
|------------------------------------------------|----------------|
|00 14 18 19 00 05 00 00 00 01 00 1B 8B 3F 00 23 |.............?.#|
|39 B0 08 18 C0 4A 20 07 3A FE 90 38 4D 07 00 00 |9....J .:..8M...|                                                
-------------------------------------------------------------------
[Server] packet : (0x00) UNKNOWN  Size = 23 
|------------------------------------------------|----------------|
|00 01 02 03 04 05 06 07 08 09 0A 0B 0C 0D 0E 0F |0123456789ABCDEF|
|------------------------------------------------|----------------|
|00 14 00 00 1B 8B 3F AA E4 B7 B7 00 00 00 00 20 |......?........ |
|07 3A FE 90 38 4D 00                            |.......         |
-------------------------------------------------------------------
[Server] packet : (0x51) F_ANIMATION  Size = 9 
|------------------------------------------------|----------------|
|00 01 02 03 04 05 06 07 08 09 0A 0B 0C 0D 0E 0F |0123456789ABCDEF|
|------------------------------------------------|----------------|
|00 06 51 01 3C 00 E5 00 00                      |.........       |
-------------------------------------------------------------------
[Client] packet : (0x0B) F_PING  Size = 32 
|------------------------------------------------|----------------|
|00 01 02 03 04 05 06 07 08 09 0A 0B 0C 0D 0E 0F |0123456789ABCDEF|
|------------------------------------------------|----------------|
|00 14 18 21 00 05 00 00 00 0B 00 1B 9D 1A BA 2F |...!.........../|
|7B B6 EE 7F C6 7E 00 00 00 00 00 00 00 00 F0 ED |{....~..........|                                                
-------------------------------------------------------------------
[Server] packet : (0x81) S_PONG  Size = 23 
|------------------------------------------------|----------------|
|00 01 02 03 04 05 06 07 08 09 0A 0B 0C 0D 0E 0F |0123456789ABCDEF|
|------------------------------------------------|----------------|
|00 14 81 00 1B 9D 1A 52 81 61 85 00 00 00 00 00 |.......R.a......|
|00 18 22 00 00 00 00                            |.......         |
-------------------------------------------------------------------
[Client] packet : (0x37) F_GROUP_COMMAND  Size = 20 
|------------------------------------------------|----------------|
|00 01 02 03 04 05 06 07 08 09 0A 0B 0C 0D 0E 0F |0123456789ABCDEF|
|------------------------------------------------|----------------|
|00 08 18 23 00 05 FF FF 00 37 00 00 00 00 04 00 |...#.....7......|
|00 00 00 00                                     |....            |
-------------------------------------------------------------------
[Server] packet : (0x6F) F_LOCALIZED_STRING  Size = 13 
|------------------------------------------------|----------------|
|00 01 02 03 04 05 06 07 08 09 0A 0B 0C 0D 0E 0F |0123456789ABCDEF|
|------------------------------------------------|----------------|
|00 0A 6F 00 00 00 00 03 B9 00 00 00 00          |.............   |
-------------------------------------------------------------------
[Server] packet : (0xD8) F_GROUP_STATUS  Size = 23 
|------------------------------------------------|----------------|
|00 01 02 03 04 05 06 07 08 09 0A 0B 0C 0D 0E 0F |0123456789ABCDEF|
|------------------------------------------------|----------------|
|00 14 D8 3E C4 01 00 00 02 00 00 00 00 00 01 00 |...>............|
|1B 32 1C 00 25 AF 00                            |.......         |
-------------------------------------------------------------------
[Client] packet : (0x16) F_REQUEST_INIT_OBJECT  Size = 16 
|------------------------------------------------|----------------|
|00 01 02 03 04 05 06 07 08 09 0A 0B 0C 0D 0E 0F |0123456789ABCDEF|
|------------------------------------------------|----------------|
|00 04 18 25 00 05 00 00 00 16 31 83 00 00 6E D1 |...%......1...n.|                                                
-------------------------------------------------------------------
[Server] packet : (0x72) F_CREATE_MONSTER  Size = 108 
|------------------------------------------------|----------------|
|00 01 02 03 04 05 06 07 08 09 0A 0B 0C 0D 0E 0F |0123456789ABCDEF|
|------------------------------------------------|----------------|
|00 69 72 31 83 00 EB 01 C5 26 FD 00 0F D4 E0 00 |.ir1.....&......|
|10 40 08 FF D6 04 3C 32 07 61 00 00 00 00 00 00 |.@....<2.a......|
|00 00 00 03 E8 00 00 00 00 89 74 00 00 00 00 01 |..........t.....|
|19 00 47 6F 6C 64 65 6E 77 69 6E 67 20 45 61 67 |..Goldenwing Eag|
|6C 65 5E 6D 00 01 0A 00 00 00 1A 05 00 31 83 54 |le^m.........1.T|
|E0 C0 08 26 FD 64 21 C8 00 00 00 00 00 EB 00 8A |...&.d!.........|
|50 52 1B C3 40 26 C8 31 83 00 00 00             |............    |
-------------------------------------------------------------------
[Server] packet : (0x51) F_ANIMATION  Size = 9 
|------------------------------------------------|----------------|
|00 01 02 03 04 05 06 07 08 09 0A 0B 0C 0D 0E 0F |0123456789ABCDEF|
|------------------------------------------------|----------------|
|00 06 51 0F E7 00 AC 00 00                      |.........       |
-------------------------------------------------------------------
[Client] packet : (0x0B) F_PING  Size = 32 
|------------------------------------------------|----------------|
|00 01 02 03 04 05 06 07 08 09 0A 0B 0C 0D 0E 0F |0123456789ABCDEF|
|------------------------------------------------|----------------|
|00 14 18 2D 00 05 00 00 00 0B 00 1B B0 AB 7E 67 |...-..........~g|
|3A 6A 9C FF 64 4C 00 00 00 00 00 00 00 00 F0 ED |:j..dL..........|                                                
-------------------------------------------------------------------
[Server] packet : (0x81) S_PONG  Size = 23 
|------------------------------------------------|----------------|
|00 01 02 03 04 05 06 07 08 09 0A 0B 0C 0D 0E 0F |0123456789ABCDEF|
|------------------------------------------------|----------------|
|00 14 81 00 1B B0 AB 52 81 61 8A 00 00 00 00 00 |.......R.a......|
|00 18 2E 00 00 00 00                            |.......         |
-------------------------------------------------------------------