
[Client] packet : (0x0B) F_PING  Size = 32 
|------------------------------------------------|----------------|
|00 01 02 03 04 05 06 07 08 09 0A 0B 0C 0D 0E 0F |0123456789ABCDEF|
|------------------------------------------------|----------------|
|00 14 C5 64 00 4A 00 00 00 0B 00 E4 13 D9 1B 68 |...d.J.........h|
|40 04 45 46 BE 88 00 00 00 00 00 00 00 00 3D 1A |@.EF..........=.|                                                
-------------------------------------------------------------------
[Server] packet : (0x81) S_PONG  Size = 23 
|------------------------------------------------|----------------|
|00 01 02 03 04 05 06 07 08 09 0A 0B 0C 0D 0E 0F |0123456789ABCDEF|
|------------------------------------------------|----------------|
|00 14 81 00 E4 13 D9 52 87 61 DB 00 00 00 00 00 |.......R.a......|
|00 C5 65 00 00 00 00                            |.......         |
-------------------------------------------------------------------
[Client] packet : (0xD9) F_USE_ITEM  Size = 20 
|------------------------------------------------|----------------|
|00 01 02 03 04 05 06 07 08 09 0A 0B 0C 0D 0E 0F |0123456789ABCDEF|
|------------------------------------------------|----------------|
|00 08 C5 67 00 4A FF FF 00 D9 00 2D 00 00 A8 01 |...g.J.....-....|
|00 00 00 00                                     |....            |
-------------------------------------------------------------------
[Server] packet : (0x7E) F_SET_ABILITY_TIMER  Size = 15 
|------------------------------------------------|----------------|
|00 01 02 03 04 05 06 07 08 09 0A 0B 0C 0D 0E 0F |0123456789ABCDEF|
|------------------------------------------------|----------------|
|00 0C 7E 00 01 01 41 00 00 05 DC 2A 59 00 00    |............... |
-------------------------------------------------------------------
[Server] packet : (0xDA) F_USE_ABILITY  Size = 23 
|------------------------------------------------|----------------|
|00 01 02 03 04 05 06 07 08 09 0A 0B 0C 0D 0E 0F |0123456789ABCDEF|
|------------------------------------------------|----------------|
|00 14 DA 00 00 2A 59 3A 5A 00 00 3A 5A 01 01 00 |.....*Y:Z..:Z...|
|00 05 DC 00 00 00 00                            |.......         |
-------------------------------------------------------------------
[Server] packet : (0x06) F_CHAT  Size = 27 
|------------------------------------------------|----------------|
|00 01 02 03 04 05 06 07 08 09 0A 0B 0C 0D 0E 0F |0123456789ABCDEF|
|------------------------------------------------|----------------|
|00 18 06 00 00 23 00 00 00 00 08 41 63 69 72 69 |.....#.....Aciri|
|6F 73 00 00 05 72 65 69 6B 00 00                |...........     |
-------------------------------------------------------------------
[Client] packet : (0x5A) F_PING_DATAGRAM  Size = 13 
|------------------------------------------------|----------------|
|00 01 02 03 04 05 06 07 08 09 0A 0B 0C 0D 0E 0F |0123456789ABCDEF|
|------------------------------------------------|----------------|
|00 01 C5 6C 00 4A FF FF 00 5A 00 31 9E          |.............   |
-------------------------------------------------------------------
[Server] packet : (0xF4) F_PLAYER_RANK_UPDATE  Size = 7 
|------------------------------------------------|----------------|
|00 01 02 03 04 05 06 07 08 09 0A 0B 0C 0D 0E 0F |0123456789ABCDEF|
|------------------------------------------------|----------------|
|00 04 F4 28 00 3A 00                            |.......         |
-------------------------------------------------------------------
[Client] packet : (0xA8) F_INTERACT_QUEUE  Size = 20 
|------------------------------------------------|----------------|
|00 01 02 03 04 05 06 07 08 09 0A 0B 0C 0D 0E 0F |0123456789ABCDEF|
|------------------------------------------------|----------------|
|00 08 C5 6C 00 4A 00 00 00 A8 00 00 00 12 00 00 |...l.J..........|
|00 00 84 94                                     |....            |
-------------------------------------------------------------------
[Server] packet : (0xBE) F_CHARACTER_INFO  Size = 73 
|------------------------------------------------|----------------|
|00 01 02 03 04 05 06 07 08 09 0A 0B 0C 0D 0E 0F |0123456789ABCDEF|
|------------------------------------------------|----------------|
|00 46 BE 01 16 03 00 00 F5 28 02 38 28 02 9D 28 |.F.......(.8(..(|
|02 9E 28 03 49 28 24 FE 19 24 FF 19 25 00 19 25 |..(.I($..$..%..%|
|02 28 25 03 19 25 04 19 25 05 28 25 07 19 25 08 |.(%..%..%.(%..%.|
|19 25 09 28 25 0B 19 25 0C 28 25 0E 19 25 12 28 |.%.(%..%.(%..%.(|
|25 28 28 38 4A 28 38 4B 00                      |.........       |
-------------------------------------------------------------------
[Server] packet : (0x50) F_PLAYER_LEVEL_UP  Size = 32 
|------------------------------------------------|----------------|
|00 01 02 03 04 05 06 07 08 09 0A 0B 0C 0D 0E 0F |0123456789ABCDEF|
|------------------------------------------------|----------------|
|00 1D 50 00 00 00 00 08 01 00 01 03 00 03 04 00 |..P.............|
|02 05 00 09 06 00 03 07 00 02 08 00 01 09 00 00 |................|                                                
-------------------------------------------------------------------
[Server] packet : (0x1D) F_GUILD_DATA  Size = 62 
|------------------------------------------------|----------------|
|00 01 02 03 04 05 06 07 08 09 0A 0B 0C 0D 0E 0F |0123456789ABCDEF|
|------------------------------------------------|----------------|
|00 3B 1D 02 01 00 25 AF CC 00 A1 00 00 09 00 0F |.;....%.........|
|43 68 65 66 20 64 65 20 67 75 69 6C 64 65 00 00 |Chef de guilde..|
|00 0A 57 61 72 65 6D 68 75 5E 46 00 28 01 6B 01 |..Waremhu^F.(.k.|
|52 87 33 3B 00 00 00 01 00 01 00 00 01 00       |..............  |
-------------------------------------------------------------------
[Server] packet : (0x1D) F_GUILD_DATA  Size = 33 
|------------------------------------------------|----------------|
|00 01 02 03 04 05 06 07 08 09 0A 0B 0C 0D 0E 0F |0123456789ABCDEF|
|------------------------------------------------|----------------|
|00 1E 1D 0F 01 52 87 61 DD 03 00 0A 57 61 72 65 |.....R.a....Ware|
|6D 68 75 5E 46 00 00 01 00 00 00 00 28 00 00 00 |mhu^F.......(...|
|00                                              |.               |
-------------------------------------------------------------------
[Server] packet : (0xF1) F_CAREER_PACKAGE_UPDATE  Size = 23 
|------------------------------------------------|----------------|
|00 01 02 03 04 05 06 07 08 09 0A 0B 0C 0D 0E 0F |0123456789ABCDEF|
|------------------------------------------------|----------------|
|00 14 F1 07 01 00 00 1A 00 00 00 00 00 00 00 00 |................|
|00 00 00 00 00 00 00                            |.......         |
-------------------------------------------------------------------
[Server] packet : (0xBE) F_CHARACTER_INFO  Size = 73 
|------------------------------------------------|----------------|
|00 01 02 03 04 05 06 07 08 09 0A 0B 0C 0D 0E 0F |0123456789ABCDEF|
|------------------------------------------------|----------------|
|00 46 BE 01 16 03 00 00 F5 28 02 38 28 02 9D 28 |.F.......(.8(..(|
|02 9E 28 03 49 28 24 FE 19 24 FF 19 25 00 19 25 |..(.I($..$..%..%|
|02 28 25 03 19 25 04 19 25 05 28 25 07 19 25 08 |.(%..%..%.(%..%.|
|19 25 09 28 25 0B 19 25 0C 28 25 0E 19 25 12 28 |.%.(%..%.(%..%.(|
|25 28 28 38 4A 28 38 4B 00                      |.........       |
-------------------------------------------------------------------
[Server] packet : (0xF1) F_CAREER_PACKAGE_UPDATE  Size = 23 
|------------------------------------------------|----------------|
|00 01 02 03 04 05 06 07 08 09 0A 0B 0C 0D 0E 0F |0123456789ABCDEF|
|------------------------------------------------|----------------|
|00 14 F1 08 01 01 00 00 00 00 01 03 00 00 00 00 |................|
|00 00 00 00 00 00 00                            |.......         |
-------------------------------------------------------------------
[Server] packet : (0xBE) F_CHARACTER_INFO  Size = 73 
|------------------------------------------------|----------------|
|00 01 02 03 04 05 06 07 08 09 0A 0B 0C 0D 0E 0F |0123456789ABCDEF|
|------------------------------------------------|----------------|
|00 46 BE 01 16 03 00 00 F5 28 02 38 28 02 9D 28 |.F.......(.8(..(|
|02 9E 28 03 49 28 24 FE 19 24 FF 19 25 00 19 25 |..(.I($..$..%..%|
|02 28 25 03 19 25 04 19 25 05 28 25 07 19 25 08 |.(%..%..%.(%..%.|
|19 25 09 28 25 0B 19 25 0C 28 25 0E 19 25 12 28 |.%.(%..%.(%..%.(|
|25 28 28 38 4A 28 38 4B 00                      |.........       |
-------------------------------------------------------------------
[Server] packet : (0xDA) F_USE_ABILITY  Size = 23 
|------------------------------------------------|----------------|
|00 01 02 03 04 05 06 07 08 09 0A 0B 0C 0D 0E 0F |0123456789ABCDEF|
|------------------------------------------------|----------------|
|00 14 DA 00 00 2A 59 3A 5A 00 00 3A 5A 02 01 00 |.....*Y:Z..:Z...|
|00 00 A3 00 00 00 00                            |.......         |
-------------------------------------------------------------------
[Server] packet : (0xAA) F_GET_ITEM  Size = 14 
|------------------------------------------------|----------------|
|00 01 02 03 04 05 06 07 08 09 0A 0B 0C 0D 0E 0F |0123456789ABCDEF|
|------------------------------------------------|----------------|
|00 0B AA 01 00 00 00 00 2D 00 00 00 00 00       |..............  |
-------------------------------------------------------------------
[Server] packet : (0x44) F_ACTION_COUNTER_UPDATE  Size = 11 
|------------------------------------------------|----------------|
|00 01 02 03 04 05 06 07 08 09 0A 0B 0C 0D 0E 0F |0123456789ABCDEF|
|------------------------------------------------|----------------|
|00 08 44 01 63 00 00 00 01 6E 00                |...........     |
-------------------------------------------------------------------
[Client] packet : (0x0B) F_PING  Size = 32 
|------------------------------------------------|----------------|
|00 01 02 03 04 05 06 07 08 09 0A 0B 0C 0D 0E 0F |0123456789ABCDEF|
|------------------------------------------------|----------------|
|00 14 C5 6E 00 4A 00 00 00 0B 00 E4 2D 92 8D AB |...n.J......-...|
|FB B0 FE D9 E2 FA 00 00 00 00 00 00 00 00 00 00 |................|                                                
-------------------------------------------------------------------
[Server] packet : (0xE9) F_INTERACT_RESPONSE  Size = 26 
|------------------------------------------------|----------------|
|00 01 02 03 04 05 06 07 08 09 0A 0B 0C 0D 0E 0F |0123456789ABCDEF|
|------------------------------------------------|----------------|
|00 17 E9 09 00 05 00 00 07 D6 00 00 08 58 00 00 |.............X..|
|08 38 00 00 08 9A 00 00 08 00                   |..........      |
-------------------------------------------------------------------
[Server] packet : (0x06) F_CHAT  Size = 33 
|------------------------------------------------|----------------|
|00 01 02 03 04 05 06 07 08 09 0A 0B 0C 0D 0E 0F |0123456789ABCDEF|
|------------------------------------------------|----------------|
|00 1E 06 00 00 23 00 00 00 00 0E 50 6F 64 7A 6F |.....#.....Podzo|
|62 6C 65 74 65 6E 64 75 00 00 05 62 6F 74 68 00 |bletendu...both.|
|00                                              |.               |
-------------------------------------------------------------------
[Client] packet : (0x01) UNKNOWN  Size = 32 
|------------------------------------------------|----------------|
|00 01 02 03 04 05 06 07 08 09 0A 0B 0C 0D 0E 0F |0123456789ABCDEF|
|------------------------------------------------|----------------|
|00 14 C5 6F 00 4A 00 00 00 01 00 E4 27 D9 00 00 |...o.J......'...|
|00 00 00 00 00 00 00 00 05 85 00 00 27 81 00 00 |............'...|                                                
-------------------------------------------------------------------
[Server] packet : (0x81) S_PONG  Size = 23 
|------------------------------------------------|----------------|
|00 01 02 03 04 05 06 07 08 09 0A 0B 0C 0D 0E 0F |0123456789ABCDEF|
|------------------------------------------------|----------------|
|00 14 81 00 E4 2D 92 52 87 61 E1 00 00 00 00 00 |.....-.R.a......|
|00 C5 6F 00 00 00 00                            |.......         |
-------------------------------------------------------------------
[Server] packet : (0x00) UNKNOWN  Size = 23 
|------------------------------------------------|----------------|
|00 01 02 03 04 05 06 07 08 09 0A 0B 0C 0D 0E 0F |0123456789ABCDEF|
|------------------------------------------------|----------------|
|00 14 00 00 E4 27 D9 C2 56 67 C7 00 00 00 00 00 |.....'..Vg......|
|00 05 85 00 00 27 00                            |.......         |
-------------------------------------------------------------------
[Server] packet : (0x0A) F_OBJECT_DEATH  Size = 15 
|------------------------------------------------|----------------|
|00 01 02 03 04 05 06 07 08 09 0A 0B 0C 0D 0E 0F |0123456789ABCDEF|
|------------------------------------------------|----------------|
|00 0C 0A 0F C9 00 00 00 00 00 00 00 00 00 00    |............... |
-------------------------------------------------------------------
[Client] packet : (0xFE) F_PLAY_VOICE_OVER  Size = 16 
|------------------------------------------------|----------------|
|00 01 02 03 04 05 06 07 08 09 0A 0B 0C 0D 0E 0F |0123456789ABCDEF|
|------------------------------------------------|----------------|
|00 04 C5 73 00 4A FF FF 00 FE 02 00 00 00 B6 52 |...s.J.........R|                                                
-------------------------------------------------------------------
[Server] packet : (0x74) UNKNOWN  Size = 44 
|------------------------------------------------|----------------|
|00 01 02 03 04 05 06 07 08 09 0A 0B 0C 0D 0E 0F |0123456789ABCDEF|
|------------------------------------------------|----------------|
|00 29 74 01 01 00 00 00 04 02 00 00 02 00 03 00 |.)t.............|
|00 00 00 00 00 00 01 00 01 00 00 01 F4 00 00 01 |................|
|7C 02 00 01 00 00 01 F4 00 00 01 00             |............    |
-------------------------------------------------------------------
[Server] packet : (0x06) F_CHAT  Size = 41 
|------------------------------------------------|----------------|
|00 01 02 03 04 05 06 07 08 09 0A 0B 0C 0D 0E 0F |0123456789ABCDEF|
|------------------------------------------------|----------------|
|00 26 06 00 00 23 00 00 00 00 07 52 68 6F 63 6B |.&...#.....Rhock|
|79 00 00 14 54 49 20 69 6E 20 72 65 69 6B 20 6A |y...TI in reik j|
|6F 69 6E 20 70 70 6C 00 00                      |.........       |
-------------------------------------------------------------------
[Server] packet : (0x96) F_KEEP_STATUS  Size = 29 
|------------------------------------------------|----------------|
|00 01 02 03 04 05 06 07 08 09 0A 0B 0C 0D 0E 0F |0123456789ABCDEF|
|------------------------------------------------|----------------|
|00 1A 96 18 02 00 02 02 00 64 00 00 00 00 00 00 |.........d......|
|00 00 00 00 00 00 00 00 00 00 00 00 00          |.............   |
-------------------------------------------------------------------
[Server] packet : (0xA9) F_UPDATE_HOT_SPOT  Size = 406 
|------------------------------------------------|----------------|
|00 01 02 03 04 05 06 07 08 09 0A 0B 0C 0D 0E 0F |0123456789ABCDEF|
|------------------------------------------------|----------------|
|01 93 A9 50 02 00 01 00 00 00 00 02 00 00 00 00 |...P............|
|03 00 00 00 00 04 00 00 00 00 05 00 00 00 00 06 |................|
|00 00 00 00 07 00 00 00 00 08 00 00 00 00 09 00 |................|
|00 00 00 0A 00 00 00 00 0B 00 00 00 00 1A 00 00 |................|
|00 00 1B 00 00 00 00 44 00 00 00 00 46 00 00 00 |.......D....F...|
|00 47 00 00 00 00 4A 00 00 00 00 4B 00 00 00 00 |.G....J....K....|
|58 00 00 00 00 64 00 00 00 00 65 00 00 00 00 66 |X....d....e....f|
|00 00 00 00 67 00 00 00 00 68 00 00 00 00 69 00 |....g....h....i.|
|00 00 00 6A 00 00 00 00 6B 00 00 00 00 6C 00 00 |...j....k....l..|
|00 00 6D 00 00 00 00 6E 00 00 00 00 75 00 00 00 |..m....n....u...|
|00 76 00 00 00 00 78 00 00 00 00 81 00 00 00 00 |.v....x.........|
|90 00 00 00 00 91 00 00 00 00 A1 00 00 00 00 A2 |................|
|00 00 00 00 AF 00 00 00 00 B2 00 00 00 00 BE 00 |................|
|00 00 00 BF 00 00 00 00 C0 00 00 00 00 C1 00 00 |................|
|00 00 C6 00 00 00 00 C8 00 00 00 00 C9 00 00 00 |................|
|00 CA 02 00 00 00 CB 00 00 00 00 CC 00 00 00 00 |................|
|CD 05 00 00 00 CE 00 00 00 00 CF 00 00 00 00 D0 |................|
|00 00 00 00 D1 00 00 00 00 D2 00 00 00 00 D3 00 |................|
|00 00 00 D5 00 00 00 00 D7 00 00 00 00 D8 00 00 |................|
|00 00 D9 00 00 00 00 DC 00 00 00 00 DD 00 00 00 |................|
|00 DE 00 00 00 00 E3 00 00 00 00 E4 00 00 00 00 |................|
|FA 00 00 00 00 FB 00 00 00 00 FC 00 00 00 00 FD |................|
|00 00 00 01 15 00 00 00 01 16 00 00 00 01 18 00 |................|
|00 00 01 1B 00 00 00 01 1C 00 00 00 01 1D 00 00 |................|
|00 01 1F 00 00 00 01 22 00 00 00 01 23 00 00 00 |......."....#...|
|01 24 00 00 00 00                               |......          |
-------------------------------------------------------------------
[Client] packet : (0x0B) F_PING  Size = 32 
|------------------------------------------------|----------------|
|00 01 02 03 04 05 06 07 08 09 0A 0B 0C 0D 0E 0F |0123456789ABCDEF|
|------------------------------------------------|----------------|
|00 14 C5 7B 00 4A 00 00 00 0B 00 E4 41 20 2F 8C |...{.J......A /.|
|42 49 A2 00 13 B5 00 00 00 00 00 00 00 00 3D 1A |BI............=.|                                                
-------------------------------------------------------------------
[Server] packet : (0x81) S_PONG  Size = 23 
|------------------------------------------------|----------------|
|00 01 02 03 04 05 06 07 08 09 0A 0B 0C 0D 0E 0F |0123456789ABCDEF|
|------------------------------------------------|----------------|
|00 14 81 00 E4 41 20 52 87 61 E6 00 00 00 00 00 |.....A R.a......|
|00 C5 7C 00 00 00 00                            |.......         |
-------------------------------------------------------------------