
[Client] packet : (0x0B) F_PING  Size = 32 
|------------------------------------------------|----------------|
|00 01 02 03 04 05 06 07 08 09 0A 0B 0C 0D 0E 0F |0123456789ABCDEF|
|------------------------------------------------|----------------|
|00 14 1D AA 00 05 00 00 00 0B 00 25 5F B4 45 1C |...........%_.E.|
|C6 0E 56 25 31 90 00 00 00 00 00 00 00 00 F0 ED |..V%1...........|                                                
-------------------------------------------------------------------
[Server] packet : (0x81) S_PONG  Size = 23 
|------------------------------------------------|----------------|
|00 01 02 03 04 05 06 07 08 09 0A 0B 0C 0D 0E 0F |0123456789ABCDEF|
|------------------------------------------------|----------------|
|00 14 81 00 25 5F B4 52 81 64 05 00 00 00 00 00 |....%_.R.d......|
|00 1D AB 00 00 00 00                            |.......         |
-------------------------------------------------------------------
[Server] packet : (0x51) F_ANIMATION  Size = 9 
|------------------------------------------------|----------------|
|00 01 02 03 04 05 06 07 08 09 0A 0B 0C 0D 0E 0F |0123456789ABCDEF|
|------------------------------------------------|----------------|
|00 06 51 01 3B 00 AC 00 00                      |.........       |
-------------------------------------------------------------------
[Client] packet : (0x5A) F_PING_DATAGRAM  Size = 13 
|------------------------------------------------|----------------|
|00 01 02 03 04 05 06 07 08 09 0A 0B 0C 0D 0E 0F |0123456789ABCDEF|
|------------------------------------------------|----------------|
|00 01 1D AD 00 05 FF FF 00 5A 00 49 30          |.............   |
-------------------------------------------------------------------
[Client] packet : (0x01) UNKNOWN  Size = 32 
|------------------------------------------------|----------------|
|00 01 02 03 04 05 06 07 08 09 0A 0B 0C 0D 0E 0F |0123456789ABCDEF|
|------------------------------------------------|----------------|
|00 14 1D AD 00 05 00 00 00 01 00 25 60 06 20 07 |...........%`. .|
|2A 68 90 38 40 04 00 23 39 FE 08 18 E7 EE 00 00 |*h.8@..#9.......|                                                
-------------------------------------------------------------------
[Server] packet : (0x00) UNKNOWN  Size = 23 
|------------------------------------------------|----------------|
|00 01 02 03 04 05 06 07 08 09 0A 0B 0C 0D 0E 0F |0123456789ABCDEF|
|------------------------------------------------|----------------|
|00 14 00 00 25 60 06 AA EE 8D 49 00 00 00 00 00 |....%`....I.....|
|23 39 FE 08 18 E7 00                            |.......         |
-------------------------------------------------------------------
[Server] packet : (0x51) F_ANIMATION  Size = 9 
|------------------------------------------------|----------------|
|00 01 02 03 04 05 06 07 08 09 0A 0B 0C 0D 0E 0F |0123456789ABCDEF|
|------------------------------------------------|----------------|
|00 06 51 01 3C 00 E5 00 00                      |.........       |
-------------------------------------------------------------------
[Client] packet : (0x0B) F_PING  Size = 32 
|------------------------------------------------|----------------|
|00 01 02 03 04 05 06 07 08 09 0A 0B 0C 0D 0E 0F |0123456789ABCDEF|
|------------------------------------------------|----------------|
|00 14 1D B6 00 05 00 00 00 0B 00 25 72 C6 0F 7F |...........%r...|
|BB BE 0A 3D EE FA 00 00 00 00 00 00 00 00 F0 ED |...=............|                                                
-------------------------------------------------------------------
[Server] packet : (0x81) S_PONG  Size = 23 
|------------------------------------------------|----------------|
|00 01 02 03 04 05 06 07 08 09 0A 0B 0C 0D 0E 0F |0123456789ABCDEF|
|------------------------------------------------|----------------|
|00 14 81 00 25 72 C6 52 81 64 0A 00 00 00 00 00 |....%r.R.d......|
|00 1D B7 00 00 00 00                            |.......         |
-------------------------------------------------------------------
[Client] packet : (0x07) F_TEXT  Size = 29 
|------------------------------------------------|----------------|
|00 01 02 03 04 05 06 07 08 09 0A 0B 0C 0D 0E 0F |0123456789ABCDEF|
|------------------------------------------------|----------------|
|00 11 1D B9 00 05 FF FF 00 07 00 26 77 62 63 20 |...........&wbc |
|63 6F 6E 76 65 72 74 20 30 00 00 00 57          |.............   |
-------------------------------------------------------------------
[Server] packet : (0x1D) F_GUILD_DATA  Size = 62 
|------------------------------------------------|----------------|
|00 01 02 03 04 05 06 07 08 09 0A 0B 0C 0D 0E 0F |0123456789ABCDEF|
|------------------------------------------------|----------------|
|00 3B 1D 02 01 00 25 AF CC 00 C8 00 00 09 00 0F |.;....%.........|
|43 68 65 66 20 64 65 20 67 75 69 6C 64 65 00 00 |Chef de guilde..|
|00 0A 57 61 72 65 6D 68 75 5E 46 00 0F 01 6B 01 |..Waremhu^F...k.|
|52 81 5D 92 00 02 01 01 00 01 00 00 01 00       |..............  |
-------------------------------------------------------------------
[Server] packet : (0x6F) F_LOCALIZED_STRING  Size = 13 
|------------------------------------------------|----------------|
|00 01 02 03 04 05 06 07 08 09 0A 0B 0C 0D 0E 0F |0123456789ABCDEF|
|------------------------------------------------|----------------|
|00 0A 6F 00 00 00 00 05 37 00 00 00 00          |.............   |
-------------------------------------------------------------------
[Server] packet : (0xBE) F_CHARACTER_INFO  Size = 24 
|------------------------------------------------|----------------|
|00 01 02 03 04 05 06 07 08 09 0A 0B 0C 0D 0E 0F |0123456789ABCDEF|
|------------------------------------------------|----------------|
|00 15 BE 06 04 C4 7D CC DF 96 01 F5 17 00 9C E4 |......}.........|
|6C 94 4F 00 00 00 00 00                         |........        |
-------------------------------------------------------------------
[Server] packet : (0xD8) F_GROUP_STATUS  Size = 23 
|------------------------------------------------|----------------|
|00 01 02 03 04 05 06 07 08 09 0A 0B 0C 0D 0E 0F |0123456789ABCDEF|
|------------------------------------------------|----------------|
|00 14 D8 3E C4 01 00 02 00 00 1B 32 1C 00 00 00 |...>.......2....|
|25 AF CC 00 25 AF 00                            |.......         |
-------------------------------------------------------------------
[Server] packet : (0xD8) F_GROUP_STATUS  Size = 11 
|------------------------------------------------|----------------|
|00 01 02 03 04 05 06 07 08 09 0A 0B 0C 0D 0E 0F |0123456789ABCDEF|
|------------------------------------------------|----------------|
|00 08 D8 3E C4 02 00 00 00 00 00                |...........     |
-------------------------------------------------------------------
[Server] packet : (0xBE) F_CHARACTER_INFO  Size = 19 
|------------------------------------------------|----------------|
|00 01 02 03 04 05 06 07 08 09 0A 0B 0C 0D 0E 0F |0123456789ABCDEF|
|------------------------------------------------|----------------|
|00 10 BE 06 04 C9 7D EA A1 86 01 BD 72 00 00 00 |......}.....r...|
|00 00 00                                        |...             |
-------------------------------------------------------------------
[Client] packet : (0x16) F_REQUEST_INIT_OBJECT  Size = 16 
|------------------------------------------------|----------------|
|00 01 02 03 04 05 06 07 08 09 0A 0B 0C 0D 0E 0F |0123456789ABCDEF|
|------------------------------------------------|----------------|
|00 04 1D BE 00 05 00 00 00 16 10 C2 00 00 DC 34 |...............4|                                                
-------------------------------------------------------------------
[Server] packet : (0x72) F_CREATE_MONSTER  Size = 108 
|------------------------------------------------|----------------|
|00 01 02 03 04 05 06 07 08 09 0A 0B 0C 0D 0E 0F |0123456789ABCDEF|
|------------------------------------------------|----------------|
|00 69 72 10 C2 00 EB 0B 93 29 FA 00 0F D0 17 00 |.ir......)......|
|10 40 49 00 00 04 3C 32 07 61 00 00 00 00 00 00 |.@I...<2.a......|
|00 00 00 03 E8 00 00 00 00 89 66 00 04 00 00 01 |..........f.....|
|19 00 47 6F 6C 64 65 6E 77 69 6E 67 20 46 6C 69 |..Goldenwing Fli|
|65 72 5E 6D 00 01 0A 00 00 00 1A 05 00 10 C2 50 |er^m...........P|
|17 C0 49 29 FA 64 21 C8 00 00 00 00 00 EB 00 00 |..I).d!.........|
|AD 59 AE BE FA 29 C8 10 C2 00 00 00             |............    |
-------------------------------------------------------------------
[Client] packet : (0x07) F_TEXT  Size = 29 
|------------------------------------------------|----------------|
|00 01 02 03 04 05 06 07 08 09 0A 0B 0C 0D 0E 0F |0123456789ABCDEF|
|------------------------------------------------|----------------|
|00 11 1D C0 00 05 FF FF 00 07 00 26 77 62 63 20 |...........&wbc |
|63 6F 6E 76 65 72 74 20 31 00 00 00 57          |.............   |
-------------------------------------------------------------------
[Server] packet : (0x1D) F_GUILD_DATA  Size = 62 
|------------------------------------------------|----------------|
|00 01 02 03 04 05 06 07 08 09 0A 0B 0C 0D 0E 0F |0123456789ABCDEF|
|------------------------------------------------|----------------|
|00 3B 1D 02 01 00 25 AF CC 00 C8 00 00 09 00 0F |.;....%.........|
|43 68 65 66 20 64 65 20 67 75 69 6C 64 65 00 00 |Chef de guilde..|
|00 0A 57 61 72 65 6D 68 75 5E 46 00 0F 01 6B 01 |..Waremhu^F...k.|
|52 81 5D 92 00 02 02 01 00 01 00 00 01 00       |..............  |
-------------------------------------------------------------------
[Server] packet : (0x6F) F_LOCALIZED_STRING  Size = 13 
|------------------------------------------------|----------------|
|00 01 02 03 04 05 06 07 08 09 0A 0B 0C 0D 0E 0F |0123456789ABCDEF|
|------------------------------------------------|----------------|
|00 0A 6F 00 00 00 00 05 36 00 00 00 00          |.............   |
-------------------------------------------------------------------
[Server] packet : (0xBE) F_CHARACTER_INFO  Size = 24 
|------------------------------------------------|----------------|
|00 01 02 03 04 05 06 07 08 09 0A 0B 0C 0D 0E 0F |0123456789ABCDEF|
|------------------------------------------------|----------------|
|00 15 BE 06 04 C4 7D CC DF 96 01 F5 17 00 9C E4 |......}.........|
|6C 94 4F 00 00 00 00 00                         |........        |
-------------------------------------------------------------------
[Server] packet : (0xD8) F_GROUP_STATUS  Size = 23 
|------------------------------------------------|----------------|
|00 01 02 03 04 05 06 07 08 09 0A 0B 0C 0D 0E 0F |0123456789ABCDEF|
|------------------------------------------------|----------------|
|00 14 D8 3E C4 01 00 02 00 00 1B 32 1C 00 00 00 |...>.......2....|
|25 AF CC 00 25 AF 00                            |.......         |
-------------------------------------------------------------------
[Server] packet : (0xD8) F_GROUP_STATUS  Size = 11 
|------------------------------------------------|----------------|
|00 01 02 03 04 05 06 07 08 09 0A 0B 0C 0D 0E 0F |0123456789ABCDEF|
|------------------------------------------------|----------------|
|00 08 D8 3E C4 02 00 01 00 00 00                |...........     |
-------------------------------------------------------------------
[Server] packet : (0xBE) F_CHARACTER_INFO  Size = 19 
|------------------------------------------------|----------------|
|00 01 02 03 04 05 06 07 08 09 0A 0B 0C 0D 0E 0F |0123456789ABCDEF|
|------------------------------------------------|----------------|
|00 10 BE 06 04 C9 7D EA A1 86 01 BD 72 00 00 00 |......}.....r...|
|00 00 00                                        |...             |
-------------------------------------------------------------------
[Client] packet : (0x16) F_REQUEST_INIT_OBJECT  Size = 16 
|------------------------------------------------|----------------|
|00 01 02 03 04 05 06 07 08 09 0A 0B 0C 0D 0E 0F |0123456789ABCDEF|
|------------------------------------------------|----------------|
|00 04 1D C2 00 05 00 00 00 16 39 61 00 00 5F F5 |..........9a.._.|                                                
-------------------------------------------------------------------
[Server] packet : (0x72) F_CREATE_MONSTER  Size = 108 
|------------------------------------------------|----------------|
|00 01 02 03 04 05 06 07 08 09 0A 0B 0C 0D 0E 0F |0123456789ABCDEF|
|------------------------------------------------|----------------|
|00 69 72 39 61 00 EB 0D A8 27 D8 00 0F D8 96 00 |.ir9a....'......|
|10 40 03 FF 88 04 3C 32 07 61 00 00 00 00 00 00 |.@....<2.a......|
|00 00 00 03 E8 00 00 00 00 89 66 00 05 00 00 01 |..........f.....|
|19 00 47 6F 6C 64 65 6E 77 69 6E 67 20 46 6C 69 |..Goldenwing Fli|
|65 72 5E 6D 00 01 0A 00 00 00 1A 05 00 39 61 58 |er^m.........9aX|
|96 C0 03 27 D8 64 21 C8 00 00 00 00 00 EB 00 9E |...'.d!.........|
|45 5A 4C C1 B9 26 C8 39 61 00 00 00             |............    |
-------------------------------------------------------------------
[Client] packet : (0x0B) F_PING  Size = 32 
|------------------------------------------------|----------------|
|00 01 02 03 04 05 06 07 08 09 0A 0B 0C 0D 0E 0F |0123456789ABCDEF|
|------------------------------------------------|----------------|
|00 14 1D C4 00 05 00 00 00 0B 00 25 86 5A 50 37 |...........%.ZP7|
|FB FC AC BC E4 4A 00 00 00 00 00 00 00 00 F0 ED |.....J..........|                                                
-------------------------------------------------------------------
[Server] packet : (0x81) S_PONG  Size = 23 
|------------------------------------------------|----------------|
|00 01 02 03 04 05 06 07 08 09 0A 0B 0C 0D 0E 0F |0123456789ABCDEF|
|------------------------------------------------|----------------|
|00 14 81 00 25 86 5A 52 81 64 0F 00 00 00 00 00 |....%.ZR.d......|
|00 1D C5 00 00 00 00                            |.......         |
-------------------------------------------------------------------
[Client] packet : (0x01) UNKNOWN  Size = 32 
|------------------------------------------------|----------------|
|00 01 02 03 04 05 06 07 08 09 0A 0B 0C 0D 0E 0F |0123456789ABCDEF|
|------------------------------------------------|----------------|
|00 14 1D C8 00 05 00 00 00 01 00 25 88 0E 20 07 |...........%.. .|
|2A 68 90 38 40 04 00 23 79 BB 08 18 C9 CE 20 24 |*h.8@..#y..... $|                                                
-------------------------------------------------------------------
[Server] packet : (0x00) UNKNOWN  Size = 23 
|------------------------------------------------|----------------|
|00 01 02 03 04 05 06 07 08 09 0A 0B 0C 0D 0E 0F |0123456789ABCDEF|
|------------------------------------------------|----------------|
|00 14 00 00 25 88 0E AA EE B4 C3 00 00 00 00 00 |....%...........|
|23 79 BB 08 18 C9 00                            |.......         |
-------------------------------------------------------------------