
[Server] packet : (0x0A) F_OBJECT_DEATH  Size = 15 
|------------------------------------------------|----------------|
|00 01 02 03 04 05 06 07 08 09 0A 0B 0C 0D 0E 0F |0123456789ABCDEF|
|------------------------------------------------|----------------|
|00 0C 0A 3A 15 00 00 00 00 00 00 00 00 00 00    |............... |
-------------------------------------------------------------------
[Server] packet : (0x74) UNKNOWN  Size = 44 
|------------------------------------------------|----------------|
|00 01 02 03 04 05 06 07 08 09 0A 0B 0C 0D 0E 0F |0123456789ABCDEF|
|------------------------------------------------|----------------|
|00 29 74 01 01 00 00 00 04 02 00 00 02 00 03 00 |.)t.............|
|00 00 00 00 00 00 01 00 01 00 00 01 F4 00 00 01 |................|
|0B 02 00 01 00 00 01 F4 00 00 01 00             |............    |
-------------------------------------------------------------------
[Server] packet : (0xDA) F_USE_ABILITY  Size = 23 
|------------------------------------------------|----------------|
|00 01 02 03 04 05 06 07 08 09 0A 0B 0C 0D 0E 0F |0123456789ABCDEF|
|------------------------------------------------|----------------|
|00 14 DA 00 00 18 54 18 54 00 00 01 19 02 00 00 |......T.T.......|
|04 00 00 00 00 00 00                            |.......         |
-------------------------------------------------------------------
[Server] packet : (0xDA) F_USE_ABILITY  Size = 23 
|------------------------------------------------|----------------|
|00 01 02 03 04 05 06 07 08 09 0A 0B 0C 0D 0E 0F |0123456789ABCDEF|
|------------------------------------------------|----------------|
|00 14 DA 00 00 01 24 01 24 00 00 1C 55 02 00 00 |......$.$...U...|
|00 00 00 00 00 00 00                            |.......         |
-------------------------------------------------------------------
[Client] packet : (0x01) UNKNOWN  Size = 32 
|------------------------------------------------|----------------|
|00 01 02 03 04 05 06 07 08 09 0A 0B 0C 0D 0E 0F |0123456789ABCDEF|
|------------------------------------------------|----------------|
|00 14 6A 3C 00 1E 00 00 00 01 00 6B 56 93 00 23 |..j<.......kV..#|
|39 B0 08 18 C0 4A 20 07 3E EE 90 38 72 05 B9 51 |9....J .>..8r..Q|                                                
-------------------------------------------------------------------
[Server] packet : (0x00) UNKNOWN  Size = 23 
|------------------------------------------------|----------------|
|00 01 02 03 04 05 06 07 08 09 0A 0B 0C 0D 0E 0F |0123456789ABCDEF|
|------------------------------------------------|----------------|
|00 14 00 00 6B 56 93 79 6B AD D5 00 00 00 00 20 |....kV.yk...... |
|07 3E EE 90 38 72 00                            |.......         |
-------------------------------------------------------------------
[Server] packet : (0xDA) F_USE_ABILITY  Size = 23 
|------------------------------------------------|----------------|
|00 01 02 03 04 05 06 07 08 09 0A 0B 0C 0D 0E 0F |0123456789ABCDEF|
|------------------------------------------------|----------------|
|00 14 DA 00 00 01 19 01 19 00 00 18 54 02 00 00 |............T...|
|05 00 00 00 00 00 00                            |.......         |
-------------------------------------------------------------------
[Client] packet : (0x0B) F_PING  Size = 32 
|------------------------------------------------|----------------|
|00 01 02 03 04 05 06 07 08 09 0A 0B 0C 0D 0E 0F |0123456789ABCDEF|
|------------------------------------------------|----------------|
|00 14 6A 3F 00 1E 00 00 00 0B 00 6B 60 B8 3F 84 |..j?.......k`.?.|
|84 0F D0 60 3B 81 00 00 00 00 00 00 00 00 FE 14 |...`;...........|                                                
-------------------------------------------------------------------
[Client] packet : (0x16) F_REQUEST_INIT_OBJECT  Size = 16 
|------------------------------------------------|----------------|
|00 01 02 03 04 05 06 07 08 09 0A 0B 0C 0D 0E 0F |0123456789ABCDEF|
|------------------------------------------------|----------------|
|00 04 6A 40 00 1E 00 00 00 16 2C 3F 00 00 23 14 |..j@......,?..#.|                                                
-------------------------------------------------------------------
[Server] packet : (0x81) S_PONG  Size = 23 
|------------------------------------------------|----------------|
|00 01 02 03 04 05 06 07 08 09 0A 0B 0C 0D 0E 0F |0123456789ABCDEF|
|------------------------------------------------|----------------|
|00 14 81 00 6B 60 B8 52 74 B7 5B 00 00 00 00 00 |....k`.Rt.[.....|
|00 6A 40 00 00 00 00                            |.......         |
-------------------------------------------------------------------
[Server] packet : (0x72) F_CREATE_MONSTER  Size = 136 
|------------------------------------------------|----------------|
|00 01 02 03 04 05 06 07 08 09 0A 0B 0C 0D 0E 0F |0123456789ABCDEF|
|------------------------------------------------|----------------|
|00 85 72 2C 3F 01 13 05 1D 24 C6 00 0D 2B 19 00 |..r,?....$...+..|
|0C B4 40 00 00 05 37 34 02 58 00 00 00 00 00 00 |..@...74.X......|
|00 04 00 03 E8 00 00 00 01 4E 29 00 00 00 00 01 |.........N).....|
|19 00 44 77 61 72 66 65 6E 20 47 79 72 6F 63 6F |..Dwarfen Gyroco|
|70 74 65 72 5E 6D 00 00 B4 01 0A 00 00 00 00 00 |pter^m..........|
|00 00 1A 19 00 2C 3F AB 19 34 40 24 C6 64 01 64 |.....,?..4@$.d.d|
|00 00 00 00 00 13 01 00 68 AA ED 33 C6 24 64 2C |........h..3.$d,|
|3F 00 05 00 14 08 13 00 15 07 D3 00 16 07 D2 00 |?...............|
|18 07 D4 00 1C 07 D0 00                         |........        |
-------------------------------------------------------------------
[Client] packet : (0x5A) F_PING_DATAGRAM  Size = 13 
|------------------------------------------------|----------------|
|00 01 02 03 04 05 06 07 08 09 0A 0B 0C 0D 0E 0F |0123456789ABCDEF|
|------------------------------------------------|----------------|
|00 01 6A 42 00 1E FF FF 00 5A 00 6D 13          |.............   |
-------------------------------------------------------------------
[Server] packet : (0xDA) F_USE_ABILITY  Size = 23 
|------------------------------------------------|----------------|
|00 01 02 03 04 05 06 07 08 09 0A 0B 0C 0D 0E 0F |0123456789ABCDEF|
|------------------------------------------------|----------------|
|00 14 DA 00 00 01 26 01 26 00 00 1C 55 02 00 00 |......&.&...U...|
|00 00 00 00 00 00 00                            |.......         |
-------------------------------------------------------------------
[Server] packet : (0xDA) F_USE_ABILITY  Size = 23 
|------------------------------------------------|----------------|
|00 01 02 03 04 05 06 07 08 09 0A 0B 0C 0D 0E 0F |0123456789ABCDEF|
|------------------------------------------------|----------------|
|00 14 DA 00 00 1C 55 1C 55 00 00 01 26 02 00 00 |......U.U...&...|
|00 00 00 00 00 00 00                            |.......         |
-------------------------------------------------------------------
[Server] packet : (0xDA) F_USE_ABILITY  Size = 23 
|------------------------------------------------|----------------|
|00 01 02 03 04 05 06 07 08 09 0A 0B 0C 0D 0E 0F |0123456789ABCDEF|
|------------------------------------------------|----------------|
|00 14 DA 00 00 01 24 01 24 00 00 1C 55 02 00 00 |......$.$...U...|
|00 00 00 00 00 00 00                            |.......         |
-------------------------------------------------------------------
[Client] packet : (0xD2) F_INTERACT  Size = 24 
|------------------------------------------------|----------------|
|00 01 02 03 04 05 06 07 08 09 0A 0B 0C 0D 0E 0F |0123456789ABCDEF|
|------------------------------------------------|----------------|
|00 0C 6A 45 00 1E 00 00 00 D2 00 00 00 1F 00 00 |..jE............|
|00 00 00 00 00 00 00 00                         |........        |
-------------------------------------------------------------------
[Server] packet : (0xDA) F_USE_ABILITY  Size = 23 
|------------------------------------------------|----------------|
|00 01 02 03 04 05 06 07 08 09 0A 0B 0C 0D 0E 0F |0123456789ABCDEF|
|------------------------------------------------|----------------|
|00 14 DA 00 00 01 19 01 19 00 00 18 54 02 00 00 |............T...|
|05 00 00 00 00 00 00                            |.......         |
-------------------------------------------------------------------
[Server] packet : (0x7E) F_SET_ABILITY_TIMER  Size = 15 
|------------------------------------------------|----------------|
|00 01 02 03 04 05 06 07 08 09 0A 0B 0C 0D 0E 0F |0123456789ABCDEF|
|------------------------------------------------|----------------|
|00 0C 7E 00 01 01 00 00 00 00 00 00 00 00 00    |............... |
-------------------------------------------------------------------
[Server] packet : (0xE9) F_INTERACT_RESPONSE  Size = 78 
|------------------------------------------------|----------------|
|00 01 02 03 04 05 06 07 08 09 0A 0B 0C 0D 0E 0F |0123456789ABCDEF|
|------------------------------------------------|----------------|
|00 4B E9 00 00 1F 00 00 00 22 00 41 54 68 65 6D |.K.......".AThem|
|20 45 6D 70 69 72 65 20 73 6F 6C 64 69 65 72 73 | Empire soldiers|
|20 64 6F 6E 27 74 20 64 65 73 65 72 76 65 20 66 | don't deserve f|
|69 6E 65 20 77 65 61 70 6F 6E 73 2C 20 6E 6F 74 |ine weapons, not|
|20 6C 69 6B 65 20 79 6F 75 20 64 6F 2E 00       |..............  |
-------------------------------------------------------------------
[Client] packet : (0x86) F_MAIL  Size = 16 
|------------------------------------------------|----------------|
|00 01 02 03 04 05 06 07 08 09 0A 0B 0C 0D 0E 0F |0123456789ABCDEF|
|------------------------------------------------|----------------|
|00 04 6A 46 00 1E FF FF 00 86 00 00 00 00 00 00 |..jF............|                                                
-------------------------------------------------------------------
[Server] packet : (0x0A) F_OBJECT_DEATH  Size = 15 
|------------------------------------------------|----------------|
|00 01 02 03 04 05 06 07 08 09 0A 0B 0C 0D 0E 0F |0123456789ABCDEF|
|------------------------------------------------|----------------|
|00 0C 0A 16 B8 00 00 00 00 00 00 00 00 00 00    |............... |
-------------------------------------------------------------------
[Server] packet : (0xDA) F_USE_ABILITY  Size = 23 
|------------------------------------------------|----------------|
|00 01 02 03 04 05 06 07 08 09 0A 0B 0C 0D 0E 0F |0123456789ABCDEF|
|------------------------------------------------|----------------|
|00 14 DA 00 00 01 26 01 26 00 00 1C 55 02 00 00 |......&.&...U...|
|00 00 00 00 00 00 00                            |.......         |
-------------------------------------------------------------------
[Client] packet : (0xD2) F_INTERACT  Size = 24 
|------------------------------------------------|----------------|
|00 01 02 03 04 05 06 07 08 09 0A 0B 0C 0D 0E 0F |0123456789ABCDEF|
|------------------------------------------------|----------------|
|00 0C 6A 49 00 1E 00 00 00 D2 00 00 00 1F 00 00 |..jI............|
|00 00 00 00 00 00 00 00                         |........        |
-------------------------------------------------------------------
[Server] packet : (0xDA) F_USE_ABILITY  Size = 23 
|------------------------------------------------|----------------|
|00 01 02 03 04 05 06 07 08 09 0A 0B 0C 0D 0E 0F |0123456789ABCDEF|
|------------------------------------------------|----------------|
|00 14 DA 00 00 18 54 18 54 00 00 01 19 02 00 00 |......T.T.......|
|09 00 00 00 00 00 00                            |.......         |
-------------------------------------------------------------------
[Server] packet : (0x7E) F_SET_ABILITY_TIMER  Size = 15 
|------------------------------------------------|----------------|
|00 01 02 03 04 05 06 07 08 09 0A 0B 0C 0D 0E 0F |0123456789ABCDEF|
|------------------------------------------------|----------------|
|00 0C 7E 00 01 01 00 00 00 00 00 00 00 00 00    |............... |
-------------------------------------------------------------------
[Server] packet : (0xE9) F_INTERACT_RESPONSE  Size = 78 
|------------------------------------------------|----------------|
|00 01 02 03 04 05 06 07 08 09 0A 0B 0C 0D 0E 0F |0123456789ABCDEF|
|------------------------------------------------|----------------|
|00 4B E9 00 00 1F 00 00 00 22 00 41 54 68 65 6D |.K.......".AThem|
|20 45 6D 70 69 72 65 20 73 6F 6C 64 69 65 72 73 | Empire soldiers|
|20 64 6F 6E 27 74 20 64 65 73 65 72 76 65 20 66 | don't deserve f|
|69 6E 65 20 77 65 61 70 6F 6E 73 2C 20 6E 6F 74 |ine weapons, not|
|20 6C 69 6B 65 20 79 6F 75 20 64 6F 2E 00       |..............  |
-------------------------------------------------------------------
[Server] packet : (0xDA) F_USE_ABILITY  Size = 23 
|------------------------------------------------|----------------|
|00 01 02 03 04 05 06 07 08 09 0A 0B 0C 0D 0E 0F |0123456789ABCDEF|
|------------------------------------------------|----------------|
|00 14 DA 00 00 01 24 01 24 00 00 1C 55 02 00 00 |......$.$...U...|
|09 00 00 00 00 00 00                            |.......         |
-------------------------------------------------------------------
[Client] packet : (0xD2) F_INTERACT  Size = 24 
|------------------------------------------------|----------------|
|00 01 02 03 04 05 06 07 08 09 0A 0B 0C 0D 0E 0F |0123456789ABCDEF|
|------------------------------------------------|----------------|
|00 0C 6A 4C 00 1E 00 00 00 D2 00 00 00 1F 00 09 |..jL............|
|00 00 00 00 00 00 00 00                         |........        |
-------------------------------------------------------------------
[Server] packet : (0xDA) F_USE_ABILITY  Size = 23 
|------------------------------------------------|----------------|
|00 01 02 03 04 05 06 07 08 09 0A 0B 0C 0D 0E 0F |0123456789ABCDEF|
|------------------------------------------------|----------------|
|00 14 DA 00 00 01 19 01 19 00 00 18 54 02 00 00 |............T...|
|09 00 00 00 00 00 00                            |.......         |
-------------------------------------------------------------------
[Server] packet : (0xBF) F_INIT_STORE  Size = 377 
|------------------------------------------------|----------------|
|00 01 02 03 04 05 06 07 08 09 0A 0B 0C 0D 0E 0F |0123456789ABCDEF|
|------------------------------------------------|----------------|
|01 76 BF 00 00 00 03 01 01 00 00 00 03 00 00 00 |.v..............|
|1E 00 00 03 2C 1D 02 CA 00 00 00 00 00 00 00 00 |....,...........|
|00 1F 01 01 00 00 00 01 00 00 00 00 00 00 00 00 |................|
|00 00 00 00 00 0C 00 14 00 01 00 00 00 00 00 00 |................|
|00 00 00 00 00 00 13 44 72 61 6D 20 6F 66 20 52 |.......Dram of R|
|65 73 74 6F 72 61 74 69 6F 6E 00 00 01 00 01 1E |estoration......|
|C7 00 B4 00 00 00 00 00 00 00 01 00 01 03 02 00 |................|
|00 00 00 00 00 00 00 00 00 00 00 00 05 00 00 00 |................|
|00 00 00 00 00 01 03 00 00 00 1E 00 00 03 2C 1E |..............,.|
|02 EE 00 00 00 00 00 00 00 00 00 1F 01 01 00 00 |................|
|00 01 00 00 00 00 00 00 00 00 00 00 00 00 00 0C |................|
|00 14 00 01 00 00 00 00 00 00 00 00 00 00 00 00 |................|
|14 44 72 61 6D 20 6F 66 20 49 6E 76 69 67 6F 72 |.Dram of Invigor|
|61 74 69 6F 6E 00 00 01 00 01 1E D2 00 B4 00 00 |ation...........|
|00 00 00 00 00 01 00 01 03 02 00 00 00 00 00 00 |................|
|00 00 00 00 00 00 00 05 00 00 00 00 00 00 00 00 |................|
|02 03 00 00 00 1E 00 00 03 2C 1F 02 EE 00 00 00 |.........,......|
|00 00 00 00 00 00 1F 01 01 00 00 00 01 00 00 00 |................|
|00 00 00 00 00 00 00 00 00 00 0C 00 14 00 01 00 |................|
|00 00 00 00 00 00 00 00 00 00 00 11 44 72 61 6D |............Dram|
|20 6F 66 20 53 63 72 65 65 6E 69 6E 67 00 00 01 | of Screening...|
|00 01 1E D4 01 2C 00 00 00 00 00 00 00 01 00 01 |.....,..........|
|03 02 00 00 00 00 00 00 00 00 00 00 00 00 00 03 |................|
|00 00 00 00 00 00 00 00 00                      |.........       |
-------------------------------------------------------------------
[Server] packet : (0xC0) F_STORE_BUY_BACK  Size = 5 
|------------------------------------------------|----------------|
|00 01 02 03 04 05 06 07 08 09 0A 0B 0C 0D 0E 0F |0123456789ABCDEF|
|------------------------------------------------|----------------|
|00 02 C0 00 00                                  |.....           |
-------------------------------------------------------------------
[Client] packet : (0x16) F_REQUEST_INIT_OBJECT  Size = 16 
|------------------------------------------------|----------------|
|00 01 02 03 04 05 06 07 08 09 0A 0B 0C 0D 0E 0F |0123456789ABCDEF|
|------------------------------------------------|----------------|
|00 04 6A 4D 00 1E 00 00 00 16 32 41 00 00 1A 03 |..jM......2A....|                                                
-------------------------------------------------------------------
[Server] packet : (0x72) F_CREATE_MONSTER  Size = 136 
|------------------------------------------------|----------------|
|00 01 02 03 04 05 06 07 08 09 0A 0B 0C 0D 0E 0F |0123456789ABCDEF|
|------------------------------------------------|----------------|
|00 85 72 32 41 00 00 04 66 19 E0 00 0D 1F FE 00 |..r2A...f.......|
|0C CB CD 00 00 04 C2 32 02 41 00 00 00 00 08 00 |.......2.A......|
|00 00 00 03 E8 00 00 00 00 36 EC 00 04 00 00 01 |.........6......|
|19 00 54 68 6F 72 73 68 61 66 6E 20 4D 69 6C 69 |..Thorshafn Mili|
|74 69 61 6D 61 6E 5E 6D 00 01 0A 00 00 00 12 25 |tiaman^m.......%|
|00 32 41 9F FE 4B CD 19 E0 64 00 64 00 00 00 00 |.2A..K...d.d....|
|00 66 04 32 41 01 08 00 0A 05 2D 00 0C 05 6A 00 |.f.2A.....-...j.|
|14 09 BE 00 15 09 C2 00 16 09 BD 00 18 09 C0 00 |................|
|19 09 C1 00 1C 09 BF 00                         |........        |
-------------------------------------------------------------------
[Server] packet : (0xDA) F_USE_ABILITY  Size = 23 
|------------------------------------------------|----------------|
|00 01 02 03 04 05 06 07 08 09 0A 0B 0C 0D 0E 0F |0123456789ABCDEF|
|------------------------------------------------|----------------|
|00 14 DA 00 00 01 26 01 26 00 00 1C 55 02 00 00 |......&.&...U...|
|05 00 00 00 00 00 00                            |.......         |
-------------------------------------------------------------------
[Server] packet : (0xDA) F_USE_ABILITY  Size = 23 
|------------------------------------------------|----------------|
|00 01 02 03 04 05 06 07 08 09 0A 0B 0C 0D 0E 0F |0123456789ABCDEF|
|------------------------------------------------|----------------|
|00 14 DA 00 00 1C 55 1C 55 00 00 01 26 02 00 00 |......U.U...&...|
|00 00 00 00 00 00 00                            |.......         |
-------------------------------------------------------------------
[Client] packet : (0x0B) F_PING  Size = 32 
|------------------------------------------------|----------------|
|00 01 02 03 04 05 06 07 08 09 0A 0B 0C 0D 0E 0F |0123456789ABCDEF|
|------------------------------------------------|----------------|
|00 14 6A 50 00 1E 00 00 00 0B 00 6B 73 C7 7B D7 |..jP.......ks.{.|
|BB 7B FD FF C4 EC 00 00 00 00 00 00 00 00 FE 14 |.{..............|                                                
-------------------------------------------------------------------
[Server] packet : (0x81) S_PONG  Size = 23 
|------------------------------------------------|----------------|
|00 01 02 03 04 05 06 07 08 09 0A 0B 0C 0D 0E 0F |0123456789ABCDEF|
|------------------------------------------------|----------------|
|00 14 81 00 6B 73 C7 52 74 B7 60 00 00 00 00 00 |....ks.Rt.`.....|
|00 6A 51 00 00 00 00                            |.......         |
-------------------------------------------------------------------
[Server] packet : (0xDA) F_USE_ABILITY  Size = 23 
|------------------------------------------------|----------------|
|00 01 02 03 04 05 06 07 08 09 0A 0B 0C 0D 0E 0F |0123456789ABCDEF|
|------------------------------------------------|----------------|
|00 14 DA 00 00 01 24 01 24 00 00 1C 55 02 00 00 |......$.$...U...|
|00 00 00 00 00 00 00                            |.......         |
-------------------------------------------------------------------
[Server] packet : (0xDA) F_USE_ABILITY  Size = 23 
|------------------------------------------------|----------------|
|00 01 02 03 04 05 06 07 08 09 0A 0B 0C 0D 0E 0F |0123456789ABCDEF|
|------------------------------------------------|----------------|
|00 14 DA 00 00 01 19 01 19 00 00 18 54 02 00 00 |............T...|
|00 00 00 00 00 00 00                            |.......         |
-------------------------------------------------------------------
[Server] packet : (0x61) F_PLAY_SOUND  Size = 16 
|------------------------------------------------|----------------|
|00 01 02 03 04 05 06 07 08 09 0A 0B 0C 0D 0E 0F |0123456789ABCDEF|
|------------------------------------------------|----------------|
|00 0D 61 00 00 0E 13 88 86 FA 40 30 18 C0 00 00 |..a.......@0....|                                                
-------------------------------------------------------------------
[Client] packet : (0x86) F_MAIL  Size = 16 
|------------------------------------------------|----------------|
|00 01 02 03 04 05 06 07 08 09 0A 0B 0C 0D 0E 0F |0123456789ABCDEF|
|------------------------------------------------|----------------|
|00 04 6A 53 00 1E FF FF 00 86 00 00 00 00 00 00 |..jS............|                                                
-------------------------------------------------------------------
[Server] packet : (0xDA) F_USE_ABILITY  Size = 23 
|------------------------------------------------|----------------|
|00 01 02 03 04 05 06 07 08 09 0A 0B 0C 0D 0E 0F |0123456789ABCDEF|
|------------------------------------------------|----------------|
|00 14 DA 00 00 01 26 01 26 00 00 1C 55 02 00 00 |......&.&...U...|
|00 00 00 00 00 00 00                            |.......         |
-------------------------------------------------------------------
[Client] packet : (0x16) F_REQUEST_INIT_OBJECT  Size = 16 
|------------------------------------------------|----------------|
|00 01 02 03 04 05 06 07 08 09 0A 0B 0C 0D 0E 0F |0123456789ABCDEF|
|------------------------------------------------|----------------|
|00 04 6A 55 00 1E 00 00 00 16 19 EF 00 00 12 1C |..jU............|                                                
-------------------------------------------------------------------
[Server] packet : (0x72) F_CREATE_MONSTER  Size = 136 
|------------------------------------------------|----------------|
|00 01 02 03 04 05 06 07 08 09 0A 0B 0C 0D 0E 0F |0123456789ABCDEF|
|------------------------------------------------|----------------|
|00 85 72 19 EF 01 13 03 74 24 C6 00 0D 2B 16 00 |..r.....t$...+..|
|0C B4 9A 00 00 05 37 34 02 58 00 00 00 00 00 00 |......74.X......|
|00 04 00 03 E8 00 00 00 01 4E 29 00 04 00 00 01 |.........N).....|
|19 00 44 77 61 72 66 65 6E 20 47 79 72 6F 63 6F |..Dwarfen Gyroco|
|70 74 65 72 5E 6D 00 00 B4 01 0A 00 00 00 00 00 |pter^m..........|
|00 00 1A 19 00 19 EF AB 16 34 9A 24 C6 64 01 64 |.........4.$.d.d|
|00 00 00 00 00 13 01 00 31 AA CC 34 C6 24 64 19 |........1..4.$d.|
|EF 00 05 00 14 08 13 00 15 07 D3 00 16 07 D2 00 |................|
|18 07 D4 00 1C 07 D0 00                         |........        |
-------------------------------------------------------------------
[Server] packet : (0xDA) F_USE_ABILITY  Size = 23 
|------------------------------------------------|----------------|
|00 01 02 03 04 05 06 07 08 09 0A 0B 0C 0D 0E 0F |0123456789ABCDEF|
|------------------------------------------------|----------------|
|00 14 DA 00 00 18 54 18 54 00 00 01 19 02 00 00 |......T.T.......|
|00 00 00 00 00 00 00                            |.......         |
-------------------------------------------------------------------
[Server] packet : (0xDA) F_USE_ABILITY  Size = 23 
|------------------------------------------------|----------------|
|00 01 02 03 04 05 06 07 08 09 0A 0B 0C 0D 0E 0F |0123456789ABCDEF|
|------------------------------------------------|----------------|
|00 14 DA 00 00 01 24 01 24 00 00 1C 55 02 00 00 |......$.$...U...|
|00 00 00 00 00 00 00                            |.......         |
-------------------------------------------------------------------
[Server] packet : (0xDA) F_USE_ABILITY  Size = 23 
|------------------------------------------------|----------------|
|00 01 02 03 04 05 06 07 08 09 0A 0B 0C 0D 0E 0F |0123456789ABCDEF|
|------------------------------------------------|----------------|
|00 14 DA 00 00 01 19 01 19 00 00 18 54 02 00 00 |............T...|
|00 00 00 00 00 00 00                            |.......         |
-------------------------------------------------------------------
[Client] packet : (0x16) F_REQUEST_INIT_OBJECT  Size = 16 
|------------------------------------------------|----------------|
|00 01 02 03 04 05 06 07 08 09 0A 0B 0C 0D 0E 0F |0123456789ABCDEF|
|------------------------------------------------|----------------|
|00 04 6A 59 00 1E 00 00 00 16 2D 9A 00 00 03 3B |..jY......-....;|                                                
-------------------------------------------------------------------
[Client] packet : (0xD2) F_INTERACT  Size = 24 
|------------------------------------------------|----------------|
|00 01 02 03 04 05 06 07 08 09 0A 0B 0C 0D 0E 0F |0123456789ABCDEF|
|------------------------------------------------|----------------|
|00 0C 6A 5A 00 1E 00 00 00 D2 00 00 00 1F 00 00 |..jZ............|
|00 00 00 00 00 00 00 00                         |........        |
-------------------------------------------------------------------
[Server] packet : (0x72) F_CREATE_MONSTER  Size = 136 
|------------------------------------------------|----------------|
|00 01 02 03 04 05 06 07 08 09 0A 0B 0C 0D 0E 0F |0123456789ABCDEF|
|------------------------------------------------|----------------|
|00 85 72 2D 9A 00 00 02 22 1A 10 00 0D 1F EE 00 |..r-....".......|
|0C C8 9F 00 00 04 C2 32 02 41 00 00 00 00 08 00 |.......2.A......|
|00 00 00 03 E8 00 00 00 00 36 ED 00 09 00 00 01 |.........6......|
|19 00 54 68 6F 72 73 68 61 66 6E 20 4D 69 6C 69 |..Thorshafn Mili|
|74 69 61 6D 61 6E 5E 6D 00 01 0A 00 00 00 12 25 |tiaman^m.......%|
|00 2D 9A 9F EE 48 9F 1A 10 64 00 64 00 00 00 00 |.-...H...d.d....|
|00 22 02 2D 9A 01 08 00 0A 05 2D 00 0C 05 6A 00 |.".-......-...j.|
|14 09 BE 00 15 09 C2 00 16 09 BD 00 18 09 C0 00 |................|
|19 09 C1 00 1C 09 BF 00                         |........        |
-------------------------------------------------------------------
[Server] packet : (0x7E) F_SET_ABILITY_TIMER  Size = 15 
|------------------------------------------------|----------------|
|00 01 02 03 04 05 06 07 08 09 0A 0B 0C 0D 0E 0F |0123456789ABCDEF|
|------------------------------------------------|----------------|
|00 0C 7E 00 01 01 00 00 00 00 00 00 00 00 00    |............... |
-------------------------------------------------------------------
[Server] packet : (0xE9) F_INTERACT_RESPONSE  Size = 78 
|------------------------------------------------|----------------|
|00 01 02 03 04 05 06 07 08 09 0A 0B 0C 0D 0E 0F |0123456789ABCDEF|
|------------------------------------------------|----------------|
|00 4B E9 00 00 1F 00 00 00 22 00 41 54 68 65 6D |.K.......".AThem|
|20 45 6D 70 69 72 65 20 73 6F 6C 64 69 65 72 73 | Empire soldiers|
|20 64 6F 6E 27 74 20 64 65 73 65 72 76 65 20 66 | don't deserve f|
|69 6E 65 20 77 65 61 70 6F 6E 73 2C 20 6E 6F 74 |ine weapons, not|
|20 6C 69 6B 65 20 79 6F 75 20 64 6F 2E 00       |..............  |
-------------------------------------------------------------------
[Server] packet : (0xDA) F_USE_ABILITY  Size = 23 
|------------------------------------------------|----------------|
|00 01 02 03 04 05 06 07 08 09 0A 0B 0C 0D 0E 0F |0123456789ABCDEF|
|------------------------------------------------|----------------|
|00 14 DA 00 00 01 26 01 26 00 00 1C 55 02 00 00 |......&.&...U...|
|00 00 00 00 00 00 00                            |.......         |
-------------------------------------------------------------------
[Server] packet : (0xDA) F_USE_ABILITY  Size = 23 
|------------------------------------------------|----------------|
|00 01 02 03 04 05 06 07 08 09 0A 0B 0C 0D 0E 0F |0123456789ABCDEF|
|------------------------------------------------|----------------|
|00 14 DA 00 00 1C 55 1C 55 00 00 01 26 02 00 00 |......U.U...&...|
|09 00 00 00 00 00 00                            |.......         |
-------------------------------------------------------------------
[Client] packet : (0xD2) F_INTERACT  Size = 24 
|------------------------------------------------|----------------|
|00 01 02 03 04 05 06 07 08 09 0A 0B 0C 0D 0E 0F |0123456789ABCDEF|
|------------------------------------------------|----------------|
|00 0C 6A 5D 00 1E 00 00 00 D2 00 00 00 1F 00 09 |..j]............|
|00 00 00 00 00 00 00 00                         |........        |
-------------------------------------------------------------------
[Server] packet : (0xDA) F_USE_ABILITY  Size = 23 
|------------------------------------------------|----------------|
|00 01 02 03 04 05 06 07 08 09 0A 0B 0C 0D 0E 0F |0123456789ABCDEF|
|------------------------------------------------|----------------|
|00 14 DA 00 00 01 24 01 24 00 00 1C 55 02 00 00 |......$.$...U...|
|00 00 00 00 00 00 00                            |.......         |
-------------------------------------------------------------------
[Client] packet : (0x01) UNKNOWN  Size = 32 
|------------------------------------------------|----------------|
|00 01 02 03 04 05 06 07 08 09 0A 0B 0C 0D 0E 0F |0123456789ABCDEF|
|------------------------------------------------|----------------|
|00 14 6A 5E 00 1E 00 00 00 01 00 6B 7E C0 00 00 |..j^.......k~...|
|00 00 00 00 00 00 00 00 46 0D 00 00 3D 30 00 00 |........F...=0..|                                                
-------------------------------------------------------------------
[Client] packet : (0x16) F_REQUEST_INIT_OBJECT  Size = 16 
|------------------------------------------------|----------------|
|00 01 02 03 04 05 06 07 08 09 0A 0B 0C 0D 0E 0F |0123456789ABCDEF|
|------------------------------------------------|----------------|
|00 04 6A 5F 00 1E 00 00 00 16 18 D2 00 00 5D FE |..j_..........].|                                                
-------------------------------------------------------------------
[Server] packet : (0xBF) F_INIT_STORE  Size = 377 
|------------------------------------------------|----------------|
|00 01 02 03 04 05 06 07 08 09 0A 0B 0C 0D 0E 0F |0123456789ABCDEF|
|------------------------------------------------|----------------|
|01 76 BF 00 00 00 03 01 01 00 00 00 03 00 00 00 |.v..............|
|1E 00 00 03 2C 1D 02 CA 00 00 00 00 00 00 00 00 |....,...........|
|00 1F 01 01 00 00 00 01 00 00 00 00 00 00 00 00 |................|
|00 00 00 00 00 0C 00 14 00 01 00 00 00 00 00 00 |................|
|00 00 00 00 00 00 13 44 72 61 6D 20 6F 66 20 52 |.......Dram of R|
|65 73 74 6F 72 61 74 69 6F 6E 00 00 01 00 01 1E |estoration......|
|C7 00 B4 00 00 00 00 00 00 00 01 00 01 03 02 00 |................|
|00 00 00 00 00 00 00 00 00 00 00 00 05 00 00 00 |................|
|00 00 00 00 00 01 03 00 00 00 1E 00 00 03 2C 1E |..............,.|
|02 EE 00 00 00 00 00 00 00 00 00 1F 01 01 00 00 |................|
|00 01 00 00 00 00 00 00 00 00 00 00 00 00 00 0C |................|
|00 14 00 01 00 00 00 00 00 00 00 00 00 00 00 00 |................|
|14 44 72 61 6D 20 6F 66 20 49 6E 76 69 67 6F 72 |.Dram of Invigor|
|61 74 69 6F 6E 00 00 01 00 01 1E D2 00 B4 00 00 |ation...........|
|00 00 00 00 00 01 00 01 03 02 00 00 00 00 00 00 |................|
|00 00 00 00 00 00 00 05 00 00 00 00 00 00 00 00 |................|
|02 03 00 00 00 1E 00 00 03 2C 1F 02 EE 00 00 00 |.........,......|
|00 00 00 00 00 00 1F 01 01 00 00 00 01 00 00 00 |................|
|00 00 00 00 00 00 00 00 00 00 0C 00 14 00 01 00 |................|
|00 00 00 00 00 00 00 00 00 00 00 11 44 72 61 6D |............Dram|
|20 6F 66 20 53 63 72 65 65 6E 69 6E 67 00 00 01 | of Screening...|
|00 01 1E D4 01 2C 00 00 00 00 00 00 00 01 00 01 |.....,..........|
|03 02 00 00 00 00 00 00 00 00 00 00 00 00 00 03 |................|
|00 00 00 00 00 00 00 00 00                      |.........       |
-------------------------------------------------------------------
[Server] packet : (0xC0) F_STORE_BUY_BACK  Size = 5 
|------------------------------------------------|----------------|
|00 01 02 03 04 05 06 07 08 09 0A 0B 0C 0D 0E 0F |0123456789ABCDEF|
|------------------------------------------------|----------------|
|00 02 C0 00 00                                  |.....           |
-------------------------------------------------------------------
[Server] packet : (0x72) F_CREATE_MONSTER  Size = 136 
|------------------------------------------------|----------------|
|00 01 02 03 04 05 06 07 08 09 0A 0B 0C 0D 0E 0F |0123456789ABCDEF|
|------------------------------------------------|----------------|
|00 85 72 18 D2 01 13 06 59 24 C6 00 0D 2B 49 00 |..r.....Y$...+I.|
|0C B4 10 00 00 05 37 34 02 58 00 00 00 00 00 00 |......74.X......|
|00 04 00 03 E8 00 00 00 01 4E 29 00 02 00 00 01 |.........N).....|
|19 00 44 77 61 72 66 65 6E 20 47 79 72 6F 63 6F |..Dwarfen Gyroco|
|70 74 65 72 5E 6D 00 00 B4 01 0A 00 00 00 00 00 |pter^m..........|
|00 00 1A 19 00 18 D2 AB 49 34 10 24 C6 64 01 64 |........I4.$.d.d|
|00 00 00 00 00 13 01 00 A9 AA 3C 33 C6 24 64 18 |..........<3.$d.|
|D2 00 05 00 14 08 13 00 15 07 D3 00 16 07 D2 00 |................|
|18 07 D4 00 1C 07 D0 00                         |........        |
-------------------------------------------------------------------
[Server] packet : (0x00) UNKNOWN  Size = 23 
|------------------------------------------------|----------------|
|00 01 02 03 04 05 06 07 08 09 0A 0B 0C 0D 0E 0F |0123456789ABCDEF|
|------------------------------------------------|----------------|
|00 14 00 00 6B 7E C0 79 6B D5 7A 00 00 00 00 00 |....k~.yk.z.....|
|00 46 0D 00 00 3D 00                            |.......         |
-------------------------------------------------------------------
[Server] packet : (0xDA) F_USE_ABILITY  Size = 23 
|------------------------------------------------|----------------|
|00 01 02 03 04 05 06 07 08 09 0A 0B 0C 0D 0E 0F |0123456789ABCDEF|
|------------------------------------------------|----------------|
|00 14 DA 00 00 01 19 01 19 00 00 18 54 02 00 00 |............T...|
|09 00 00 00 00 00 00                            |.......         |
-------------------------------------------------------------------
[Client] packet : (0x0B) F_PING  Size = 32 
|------------------------------------------------|----------------|
|00 01 02 03 04 05 06 07 08 09 0A 0B 0C 0D 0E 0F |0123456789ABCDEF|
|------------------------------------------------|----------------|
|00 14 6A 61 00 1E 00 00 00 0B 00 6B 87 56 E8 6B |..ja.......k.V.k|
|BD FB 4D 7C DE 4E 00 00 00 00 00 00 00 00 FE 14 |..M|.N..........|                                                
-------------------------------------------------------------------
[Server] packet : (0x81) S_PONG  Size = 23 
|------------------------------------------------|----------------|
|00 01 02 03 04 05 06 07 08 09 0A 0B 0C 0D 0E 0F |0123456789ABCDEF|
|------------------------------------------------|----------------|
|00 14 81 00 6B 87 56 52 74 B7 65 00 00 00 00 00 |....k.VRt.e.....|
|00 6A 62 00 00 00 00                            |.......         |
-------------------------------------------------------------------
[Server] packet : (0xDA) F_USE_ABILITY  Size = 23 
|------------------------------------------------|----------------|
|00 01 02 03 04 05 06 07 08 09 0A 0B 0C 0D 0E 0F |0123456789ABCDEF|
|------------------------------------------------|----------------|
|00 14 DA 00 00 01 26 01 26 00 00 1C 55 02 00 00 |......&.&...U...|
|09 00 00 00 00 00 00                            |.......         |
-------------------------------------------------------------------
[Client] packet : (0x16) F_REQUEST_INIT_OBJECT  Size = 16 
|------------------------------------------------|----------------|
|00 01 02 03 04 05 06 07 08 09 0A 0B 0C 0D 0E 0F |0123456789ABCDEF|
|------------------------------------------------|----------------|
|00 04 6A 64 00 1E 00 00 00 16 08 9E 00 00 CA D9 |..jd............|                                                
-------------------------------------------------------------------
[Server] packet : (0xDA) F_USE_ABILITY  Size = 23 
|------------------------------------------------|----------------|
|00 01 02 03 04 05 06 07 08 09 0A 0B 0C 0D 0E 0F |0123456789ABCDEF|
|------------------------------------------------|----------------|
|00 14 DA 00 00 18 54 18 54 00 00 01 19 02 00 00 |......T.T.......|
|04 00 00 00 00 00 00                            |.......         |
-------------------------------------------------------------------
[Server] packet : (0x72) F_CREATE_MONSTER  Size = 106 
|------------------------------------------------|----------------|
|00 01 02 03 04 05 06 07 08 09 0A 0B 0C 0D 0E 0F |0123456789ABCDEF|
|------------------------------------------------|----------------|
|00 67 72 08 9E 00 55 0D 7F 21 68 00 0C F2 D3 00 |.gr...U..!h.....|
|0C AB 93 00 06 05 58 28 02 A0 00 00 00 00 00 00 |......X(........|
|00 01 00 03 E8 00 00 00 00 37 FD 00 02 00 00 01 |.........7......|
|19 00 43 68 61 6F 73 20 46 75 72 79 5E 6D 00 00 |..Chaos Fury^m..|
|00 00 08 01 0A 00 00 00 1A 05 00 08 9E 72 D3 2B |.............r.+|
|93 21 68 64 20 64 40 00 00 00 08 17 A7 6B 79 00 |.!hd d@......ky.|
|00 00 00 FB 01 08 9E 00 00 00                   |..........      |
-------------------------------------------------------------------
[Server] packet : (0xDA) F_USE_ABILITY  Size = 23 
|------------------------------------------------|----------------|
|00 01 02 03 04 05 06 07 08 09 0A 0B 0C 0D 0E 0F |0123456789ABCDEF|
|------------------------------------------------|----------------|
|00 14 DA 00 00 01 24 01 24 00 00 1C 55 02 00 00 |......$.$...U...|
|05 00 00 00 00 00 00                            |.......         |
-------------------------------------------------------------------
[Server] packet : (0xDA) F_USE_ABILITY  Size = 23 
|------------------------------------------------|----------------|
|00 01 02 03 04 05 06 07 08 09 0A 0B 0C 0D 0E 0F |0123456789ABCDEF|
|------------------------------------------------|----------------|
|00 14 DA 00 00 01 19 01 19 00 00 18 54 02 00 00 |............T...|
|00 00 00 00 00 00 00                            |.......         |
-------------------------------------------------------------------
[Client] packet : (0x16) F_REQUEST_INIT_OBJECT  Size = 16 
|------------------------------------------------|----------------|
|00 01 02 03 04 05 06 07 08 09 0A 0B 0C 0D 0E 0F |0123456789ABCDEF|
|------------------------------------------------|----------------|
|00 04 6A 67 00 1E 00 00 00 16 32 41 00 00 DA 0A |..jg......2A....|                                                
-------------------------------------------------------------------
[Server] packet : (0x72) F_CREATE_MONSTER  Size = 136 
|------------------------------------------------|----------------|
|00 01 02 03 04 05 06 07 08 09 0A 0B 0C 0D 0E 0F |0123456789ABCDEF|
|------------------------------------------------|----------------|
|00 85 72 32 41 00 00 04 CC 19 D1 00 0D 1E C9 00 |..r2A...........|
|0C CD D4 00 00 04 C2 32 02 41 00 00 00 00 08 00 |.......2.A......|
|00 00 00 03 E8 00 00 00 00 36 EC 00 04 00 00 01 |.........6......|
|19 00 54 68 6F 72 73 68 61 66 6E 20 4D 69 6C 69 |..Thorshafn Mili|
|74 69 61 6D 61 6E 5E 6D 00 01 0A 00 00 00 12 25 |tiaman^m.......%|
|00 32 41 9E C9 4D D4 19 D1 64 00 64 00 00 00 00 |.2A..M...d.d....|
|00 CC 04 32 41 01 08 00 0A 05 2D 00 0C 05 6A 00 |...2A.....-...j.|
|14 09 BE 00 15 09 C2 00 16 09 BD 00 18 09 C0 00 |................|
|19 09 C1 00 1C 09 BF 00                         |........        |
-------------------------------------------------------------------
[Server] packet : (0xDA) F_USE_ABILITY  Size = 23 
|------------------------------------------------|----------------|
|00 01 02 03 04 05 06 07 08 09 0A 0B 0C 0D 0E 0F |0123456789ABCDEF|
|------------------------------------------------|----------------|
|00 14 DA 00 00 01 26 01 26 00 00 1C 55 02 00 00 |......&.&...U...|
|00 00 00 00 00 00 00                            |.......         |
-------------------------------------------------------------------
[Server] packet : (0xDA) F_USE_ABILITY  Size = 23 
|------------------------------------------------|----------------|
|00 01 02 03 04 05 06 07 08 09 0A 0B 0C 0D 0E 0F |0123456789ABCDEF|
|------------------------------------------------|----------------|
|00 14 DA 00 00 1C 55 1C 55 00 00 01 26 02 00 00 |......U.U...&...|
|09 00 00 00 00 00 00                            |.......         |
-------------------------------------------------------------------
[Server] packet : (0xDA) F_USE_ABILITY  Size = 23 
|------------------------------------------------|----------------|
|00 01 02 03 04 05 06 07 08 09 0A 0B 0C 0D 0E 0F |0123456789ABCDEF|
|------------------------------------------------|----------------|
|00 14 DA 00 00 01 24 01 24 00 00 1C 55 02 00 00 |......$.$...U...|
|00 00 00 00 00 00 00                            |.......         |
-------------------------------------------------------------------
[Server] packet : (0xDA) F_USE_ABILITY  Size = 23 
|------------------------------------------------|----------------|
|00 01 02 03 04 05 06 07 08 09 0A 0B 0C 0D 0E 0F |0123456789ABCDEF|
|------------------------------------------------|----------------|
|00 14 DA 00 00 01 19 01 19 00 00 18 54 02 00 00 |............T...|
|00 00 00 00 00 00 00                            |.......         |
-------------------------------------------------------------------
[Client] packet : (0x16) F_REQUEST_INIT_OBJECT  Size = 16 
|------------------------------------------------|----------------|
|00 01 02 03 04 05 06 07 08 09 0A 0B 0C 0D 0E 0F |0123456789ABCDEF|
|------------------------------------------------|----------------|
|00 04 6A 6D 00 1E 00 00 00 16 0C 06 00 00 2A 04 |..jm..........*.|                                                
-------------------------------------------------------------------
[Server] packet : (0x72) F_CREATE_MONSTER  Size = 140 
|------------------------------------------------|----------------|
|00 01 02 03 04 05 06 07 08 09 0A 0B 0C 0D 0E 0F |0123456789ABCDEF|
|------------------------------------------------|----------------|
|00 89 72 0C 06 01 13 07 20 24 C6 00 0D 2B 6D 00 |..r..... $...+m.|
|0C B3 FB 00 00 05 37 34 02 58 00 00 00 00 00 00 |......74.X......|
|00 04 00 03 E8 00 00 00 01 4E 29 00 01 00 00 01 |.........N).....|
|19 00 44 77 61 72 66 65 6E 20 47 79 72 6F 63 6F |..Dwarfen Gyroco|
|70 74 65 72 5E 6D 00 00 B4 01 0A 00 00 00 00 00 |pter^m..........|
|00 00 1A 1D 00 0C 06 AB 6D 33 FB 24 C6 64 01 64 |........m3.$.d.d|
|00 00 00 00 00 13 01 00 F5 AA A8 32 C6 24 64 0C |...........2.$d.|
|06 00 06 00 14 08 13 00 15 07 D3 00 16 07 D2 00 |................|
|17 07 D5 00 18 07 D4 00 1C 07 D0 00             |............    |
-------------------------------------------------------------------
[Server] packet : (0xDA) F_USE_ABILITY  Size = 23 
|------------------------------------------------|----------------|
|00 01 02 03 04 05 06 07 08 09 0A 0B 0C 0D 0E 0F |0123456789ABCDEF|
|------------------------------------------------|----------------|
|00 14 DA 00 00 01 26 01 26 00 00 1C 55 02 00 00 |......&.&...U...|
|00 00 00 00 00 00 00                            |.......         |
-------------------------------------------------------------------
[Server] packet : (0xDA) F_USE_ABILITY  Size = 23 
|------------------------------------------------|----------------|
|00 01 02 03 04 05 06 07 08 09 0A 0B 0C 0D 0E 0F |0123456789ABCDEF|
|------------------------------------------------|----------------|
|00 14 DA 00 00 18 54 18 54 00 00 01 19 02 00 00 |......T.T.......|
|04 00 00 00 00 00 00                            |.......         |
-------------------------------------------------------------------
[Client] packet : (0x0B) F_PING  Size = 32 
|------------------------------------------------|----------------|
|00 01 02 03 04 05 06 07 08 09 0A 0B 0C 0D 0E 0F |0123456789ABCDEF|
|------------------------------------------------|----------------|
|00 14 6A 6F 00 1E 00 00 00 0B 00 6B 9A E7 E4 C7 |..jo.......k....|
|6E 7C F6 BF 5B 44 00 00 00 00 00 00 00 00 FE 14 |n|..[D..........|                                                
-------------------------------------------------------------------
[Server] packet : (0x81) S_PONG  Size = 23 
|------------------------------------------------|----------------|
|00 01 02 03 04 05 06 07 08 09 0A 0B 0C 0D 0E 0F |0123456789ABCDEF|
|------------------------------------------------|----------------|
|00 14 81 00 6B 9A E7 52 74 B7 6A 00 00 00 00 00 |....k..Rt.j.....|
|00 6A 70 00 00 00 00                            |.......         |
-------------------------------------------------------------------
[Server] packet : (0xDA) F_USE_ABILITY  Size = 23 
|------------------------------------------------|----------------|
|00 01 02 03 04 05 06 07 08 09 0A 0B 0C 0D 0E 0F |0123456789ABCDEF|
|------------------------------------------------|----------------|
|00 14 DA 00 00 01 24 01 24 00 00 1C 55 02 00 00 |......$.$...U...|
|05 00 00 00 00 00 00                            |.......         |
-------------------------------------------------------------------
[Client] packet : (0xE8) F_CLIENT_DATA  Size = 20 
|------------------------------------------------|----------------|
|00 01 02 03 04 05 06 07 08 09 0A 0B 0C 0D 0E 0F |0123456789ABCDEF|
|------------------------------------------------|----------------|
|00 08 6A 72 00 1E 00 00 00 E8 00 34 00 04 6C 21 |..jr.......4..l!|
|01 00 00 00                                     |....            |
-------------------------------------------------------------------